﻿// © 2016 and later: Unicode, Inc. and others.
// License & terms of use: http://www.unicode.org/copyright.html#License
cs{
    Version{"2.1.41.97"}
    zoneStrings{
        "Etc:UTC"{
            ls{"Koordinovaný světový čas"}
            ss{"UTC"}
        }
        "Europe:Dublin"{
            ld{"Irský letní čas"}
        }
        "Europe:London"{
            ld{"Britský letní čas"}
        }
        "Pacific:Honolulu"{
            sd{"HDT"}
            sg{"HST"}
            ss{"HST"}
        }
        "meta:Acre"{
            ld{"Acrejský letní čas"}
            lg{"Acrejský čas"}
            ls{"Acrejský standardní čas"}
        }
        "meta:Afghanistan"{
            ls{"Afghánský čas"}
        }
        "meta:Africa_Central"{
            ls{"Středoafrický čas"}
        }
        "meta:Africa_Eastern"{
            ls{"Východoafrický čas"}
        }
        "meta:Africa_Southern"{
            ls{"Jihoafrický čas"}
        }
        "meta:Africa_Western"{
            ld{"Západoafrický letní čas"}
            lg{"Západoafrický čas"}
            ls{"Západoafrický standardní čas"}
        }
        "meta:Alaska"{
            ld{"Aljašský letní čas"}
            lg{"Aljašský čas"}
            ls{"Aljašský standardní čas"}
            sd{"AKDT"}
            sg{"AKT"}
            ss{"AKST"}
        }
        "meta:Almaty"{
            ld{"Almatský letní čas"}
            lg{"Almatský čas"}
            ls{"Almatský standardní čas"}
        }
        "meta:Amazon"{
            ld{"Amazonský letní čas"}
            lg{"Amazonský čas"}
            ls{"Amazonský standardní čas"}
        }
        "meta:America_Central"{
            ld{"Severoamerický centrální letní čas"}
            lg{"Severoamerický centrální čas"}
            ls{"Severoamerický centrální standardní čas"}
            sd{"CDT"}
            sg{"CT"}
            ss{"CST"}
        }
        "meta:America_Eastern"{
            ld{"Severoamerický východní letní čas"}
            lg{"Severoamerický východní čas"}
            ls{"Severoamerický východní standardní čas"}
            sd{"EDT"}
            sg{"ET"}
            ss{"EST"}
        }
        "meta:America_Mountain"{
            ld{"Severoamerický horský letní čas"}
            lg{"Severoamerický horský čas"}
            ls{"Severoamerický horský standardní čas"}
            sd{"MDT"}
            sg{"MT"}
            ss{"MST"}
        }
        "meta:America_Pacific"{
            ld{"Severoamerický pacifický letní čas"}
            lg{"Severoamerický pacifický čas"}
            ls{"Severoamerický pacifický standardní čas"}
            sd{"PDT"}
            sg{"PT"}
            ss{"PST"}
        }
        "meta:Anadyr"{
            ld{"Anadyrský letní čas"}
            lg{"Anadyrský čas"}
            ls{"Anadyrský standardní čas"}
        }
        "meta:Apia"{
            ld{"Apijský letní čas"}
            lg{"Apijský čas"}
            ls{"Apijský standardní čas"}
        }
        "meta:Aqtau"{
            ld{"Aktauský letní čas"}
            lg{"Aktauský čas"}
            ls{"Aktauský standardní čas"}
        }
        "meta:Aqtobe"{
            ld{"Aktobský letní čas"}
            lg{"Aktobský čas"}
            ls{"Aktobský standardní čas"}
        }
        "meta:Arabian"{
            ld{"Arabský letní čas"}
            lg{"Arabský čas"}
            ls{"Arabský standardní čas"}
        }
        "meta:Argentina"{
            ld{"Argentinský letní čas"}
            lg{"Argentinský čas"}
            ls{"Argentinský standardní čas"}
        }
        "meta:Argentina_Western"{
            ld{"Západoargentinský letní čas"}
            lg{"Západoargentinský čas"}
            ls{"Západoargentinský standardní čas"}
        }
        "meta:Armenia"{
            ld{"Arménský letní čas"}
            lg{"Arménský čas"}
            ls{"Arménský standardní čas"}
        }
        "meta:Atlantic"{
            ld{"Atlantický letní čas"}
            lg{"Atlantický čas"}
            ls{"Atlantický standardní čas"}
            sd{"ADT"}
            sg{"AT"}
            ss{"AST"}
        }
        "meta:Australia_Central"{
            ld{"Středoaustralský letní čas"}
            lg{"Středoaustralský čas"}
            ls{"Středoaustralský standardní čas"}
        }
        "meta:Australia_CentralWestern"{
            ld{"Středozápadní australský letní čas"}
            lg{"Středozápadní australský čas"}
            ls{"Středozápadní australský standardní čas"}
        }
        "meta:Australia_Eastern"{
            ld{"Východoaustralský letní čas"}
            lg{"Východoaustralský čas"}
            ls{"Východoaustralský standardní čas"}
        }
        "meta:Australia_Western"{
            ld{"Západoaustralský letní čas"}
            lg{"Západoaustralský čas"}
            ls{"Západoaustralský standardní čas"}
        }
        "meta:Azerbaijan"{
            ld{"Ázerbájdžánský letní čas"}
            lg{"Ázerbájdžánský čas"}
            ls{"Ázerbájdžánský standardní čas"}
        }
        "meta:Azores"{
            ld{"Azorský letní čas"}
            lg{"Azorský čas"}
            ls{"Azorský standardní čas"}
        }
        "meta:Bangladesh"{
            ld{"Bangladéšský letní čas"}
            lg{"Bangladéšský čas"}
            ls{"Bangladéšský standardní čas"}
        }
        "meta:Bhutan"{
            ls{"Bhútánský čas"}
        }
        "meta:Bolivia"{
            ls{"Bolivijský čas"}
        }
        "meta:Brasilia"{
            ld{"Brasilijský letní čas"}
            lg{"Brasilijský čas"}
            ls{"Brasilijský standardní čas"}
        }
        "meta:Brunei"{
            ls{"Brunejský čas"}
        }
        "meta:Cape_Verde"{
            ld{"Kapverdský letní čas"}
            lg{"Kapverdský čas"}
            ls{"Kapverdský standardní čas"}
        }
        "meta:Casey"{
            ls{"Čas Caseyho stanice"}
        }
        "meta:Chamorro"{
            ls{"Chamorrský čas"}
        }
        "meta:Chatham"{
            ld{"Chathamský letní čas"}
            lg{"Chathamský čas"}
            ls{"Chathamský standardní čas"}
        }
        "meta:Chile"{
            ld{"Chilský letní čas"}
            lg{"Chilský čas"}
            ls{"Chilský standardní čas"}
        }
        "meta:China"{
            ld{"Čínský letní čas"}
            lg{"Čínský čas"}
            ls{"Čínský standardní čas"}
        }
        "meta:Choibalsan"{
            ld{"Čojbalsanský letní čas"}
            lg{"Čojbalsanský čas"}
            ls{"Čojbalsanský standardní čas"}
        }
        "meta:Christmas"{
            ls{"Čas Vánočního ostrova"}
        }
        "meta:Cocos"{
            ls{"Čas Kokosových ostrovů"}
        }
        "meta:Colombia"{
            ld{"Kolumbijský letní čas"}
            lg{"Kolumbijský čas"}
            ls{"Kolumbijský standardní čas"}
        }
        "meta:Cook"{
            ld{"Letní čas Cookových ostrovů"}
            lg{"Čas Cookových ostrovů"}
            ls{"Standardní čas Cookových ostrovů"}
        }
        "meta:Cuba"{
            ld{"Kubánský letní čas"}
            lg{"Kubánský čas"}
            ls{"Kubánský standardní čas"}
        }
        "meta:Davis"{
            ls{"Čas Davisovy stanice"}
        }
        "meta:DumontDUrville"{
            ls{"Čas stanice Dumonta d’Urvilla"}
        }
        "meta:East_Timor"{
            ls{"Východotimorský čas"}
        }
        "meta:Easter"{
            ld{"Letní čas Velikonočního ostrova"}
            lg{"Čas Velikonočního ostrova"}
            ls{"Standardní čas Velikonočního ostrova"}
        }
        "meta:Ecuador"{
            ls{"Ekvádorský čas"}
        }
        "meta:Europe_Central"{
            ld{"Středoevropský letní čas"}
            lg{"Středoevropský čas"}
            ls{"Středoevropský standardní čas"}
            sd{"SELČ"}
            sg{"SEČ"}
            ss{"SEČ"}
        }
        "meta:Europe_Eastern"{
            ld{"Východoevropský letní čas"}
            lg{"Východoevropský čas"}
            ls{"Východoevropský standardní čas"}
        }
        "meta:Europe_Further_Eastern"{
            ls{"Dálněvýchodoevropský čas"}
        }
        "meta:Europe_Western"{
            ld{"Západoevropský letní čas"}
            lg{"Západoevropský čas"}
            ls{"Západoevropský standardní čas"}
        }
        "meta:Falkland"{
            ld{"Falklandský letní čas"}
            lg{"Falklandský čas"}
            ls{"Falklandský standardní čas"}
        }
        "meta:Fiji"{
            ld{"Fidžijský letní čas"}
            lg{"Fidžijský čas"}
            ls{"Fidžijský standardní čas"}
        }
        "meta:French_Guiana"{
            ls{"Francouzskoguyanský čas"}
        }
        "meta:French_Southern"{
            ls{"Čas Francouzských jižních a antarktických území"}
        }
        "meta:GMT"{
            ls{"Greenwichský střední čas"}
        }
        "meta:Galapagos"{
            ls{"Galapážský čas"}
        }
        "meta:Gambier"{
            ls{"Gambierský čas"}
        }
        "meta:Georgia"{
            ld{"Gruzínský letní čas"}
            lg{"Gruzínský čas"}
            ls{"Gruzínský standardní čas"}
        }
        "meta:Gilbert_Islands"{
            ls{"Čas Gilbertových ostrovů"}
        }
        "meta:Greenland_Eastern"{
            ld{"Východogrónský letní čas"}
            lg{"Východogrónský čas"}
            ls{"Východogrónský standardní čas"}
        }
        "meta:Greenland_Western"{
            ld{"Západogrónský letní čas"}
            lg{"Západogrónský čas"}
            ls{"Západogrónský standardní čas"}
        }
        "meta:Guam"{
            ls{"Guamský čas"}
        }
        "meta:Gulf"{
            ls{"Standardní čas Perského zálivu"}
        }
        "meta:Guyana"{
            ls{"Guyanský čas"}
        }
        "meta:Hawaii_Aleutian"{
            ld{"Havajsko-aleutský letní čas"}
            lg{"Havajsko-aleutský čas"}
            ls{"Havajsko-aleutský standardní čas"}
        }
        "meta:Hong_Kong"{
            ld{"Hongkongský letní čas"}
            lg{"Hongkongský čas"}
            ls{"Hongkongský standardní čas"}
        }
        "meta:Hovd"{
            ld{"Hovdský letní čas"}
            lg{"Hovdský čas"}
            ls{"Hovdský standardní čas"}
        }
        "meta:India"{
            ls{"Indický čas"}
        }
        "meta:Indian_Ocean"{
            ls{"Indickooceánský čas"}
        }
        "meta:Indochina"{
            ls{"Indočínský čas"}
        }
        "meta:Indonesia_Central"{
            ls{"Středoindonéský čas"}
        }
        "meta:Indonesia_Eastern"{
            ls{"Východoindonéský čas"}
        }
        "meta:Indonesia_Western"{
            ls{"Západoindonéský čas"}
        }
        "meta:Iran"{
            ld{"Íránský letní čas"}
            lg{"Íránský čas"}
            ls{"Íránský standardní čas"}
        }
        "meta:Irkutsk"{
            ld{"Irkutský letní čas"}
            lg{"Irkutský čas"}
            ls{"Irkutský standardní čas"}
        }
        "meta:Israel"{
            ld{"Izraelský letní čas"}
            lg{"Izraelský čas"}
            ls{"Izraelský standardní čas"}
        }
        "meta:Japan"{
            ld{"Japonský letní čas"}
            lg{"Japonský čas"}
            ls{"Japonský standardní čas"}
        }
        "meta:Kamchatka"{
            ld{"Petropavlovsko-kamčatský letní čas"}
            lg{"Petropavlovsko-kamčatský čas"}
            ls{"Petropavlovsko-kamčatský standardní čas"}
        }
        "meta:Kazakhstan_Eastern"{
            ls{"Východokazachstánský čas"}
        }
        "meta:Kazakhstan_Western"{
            ls{"Západokazachstánský čas"}
        }
        "meta:Korea"{
            ld{"Korejský letní čas"}
            lg{"Korejský čas"}
            ls{"Korejský standardní čas"}
        }
        "meta:Kosrae"{
            ls{"Kosrajský čas"}
        }
        "meta:Krasnoyarsk"{
            ld{"Krasnojarský letní čas"}
            lg{"Krasnojarský čas"}
            ls{"Krasnojarský standardní čas"}
        }
        "meta:Kyrgystan"{
            ls{"Kyrgyzský čas"}
        }
        "meta:Lanka"{
            ls{"Srílanský čas"}
        }
        "meta:Line_Islands"{
            ls{"Čas Rovníkových ostrovů"}
        }
        "meta:Lord_Howe"{
            ld{"Letní čas ostrova lorda Howa"}
            lg{"Čas ostrova lorda Howa"}
            ls{"Standardní čas ostrova lorda Howa"}
        }
        "meta:Macau"{
            ld{"Macajský letní čas"}
            lg{"Macajský čas"}
            ls{"Macajský standardní čas"}
        }
        "meta:Macquarie"{
            ls{"Čas ostrova Macquarie"}
        }
        "meta:Magadan"{
            ld{"Magadanský letní čas"}
            lg{"Magadanský čas"}
            ls{"Magadanský standardní čas"}
        }
        "meta:Malaysia"{
            ls{"Malajský čas"}
        }
        "meta:Maldives"{
            ls{"Maledivský čas"}
        }
        "meta:Marquesas"{
            ls{"Markézský čas"}
        }
        "meta:Marshall_Islands"{
            ls{"Čas Marshallových ostrovů"}
        }
        "meta:Mauritius"{
            ld{"Mauricijský letní čas"}
            lg{"Mauricijský čas"}
            ls{"Mauricijský standardní čas"}
        }
        "meta:Mawson"{
            ls{"Čas Mawsonovy stanice"}
        }
        "meta:Mexico_Northwest"{
            ld{"Severozápadní mexický letní čas"}
            lg{"Severozápadní mexický čas"}
            ls{"Severozápadní mexický standardní čas"}
        }
        "meta:Mexico_Pacific"{
            ld{"Mexický pacifický letní čas"}
            lg{"Mexický pacifický čas"}
            ls{"Mexický pacifický standardní čas"}
        }
        "meta:Mongolia"{
            ld{"Ulánbátarský letní čas"}
            lg{"Ulánbátarský čas"}
            ls{"Ulánbátarský standardní čas"}
        }
        "meta:Moscow"{
            ld{"Moskevský letní čas"}
            lg{"Moskevský čas"}
            ls{"Moskevský standardní čas"}
        }
        "meta:Myanmar"{
            ls{"Myanmarský čas"}
        }
        "meta:Nauru"{
            ls{"Naurský čas"}
        }
        "meta:Nepal"{
            ls{"Nepálský čas"}
        }
        "meta:New_Caledonia"{
            ld{"Novokaledonský letní čas"}
            lg{"Novokaledonský čas"}
            ls{"Novokaledonský standardní čas"}
        }
        "meta:New_Zealand"{
            ld{"Novozélandský letní čas"}
            lg{"Novozélandský čas"}
            ls{"Novozélandský standardní čas"}
        }
        "meta:Newfoundland"{
            ld{"Newfoundlandský letní čas"}
            lg{"Newfoundlandský čas"}
            ls{"Newfoundlandský standardní čas"}
        }
        "meta:Niue"{
            ls{"Niuejský čas"}
        }
        "meta:Norfolk"{
            ls{"Norfolský čas"}
        }
        "meta:Noronha"{
            ld{"Letní čas souostroví Fernando de Noronha"}
            lg{"Čas souostroví Fernando de Noronha"}
            ls{"Standardní čas souostroví Fernando de Noronha"}
        }
        "meta:North_Mariana"{
            ls{"Severomariánský čas"}
        }
        "meta:Novosibirsk"{
            ld{"Novosibirský letní čas"}
            lg{"Novosibirský čas"}
            ls{"Novosibirský standardní čas"}
        }
        "meta:Omsk"{
            ld{"Omský letní čas"}
            lg{"Omský čas"}
            ls{"Omský standardní čas"}
        }
        "meta:Pakistan"{
            ld{"Pákistánský letní čas"}
            lg{"Pákistánský čas"}
            ls{"Pákistánský standardní čas"}
        }
        "meta:Palau"{
            ls{"Palauský čas"}
        }
        "meta:Papua_New_Guinea"{
            ls{"Čas Papuy-Nové Guiney"}
        }
        "meta:Paraguay"{
            ld{"Paraguayský letní čas"}
            lg{"Paraguayský čas"}
            ls{"Paraguayský standardní čas"}
        }
        "meta:Peru"{
            ld{"Peruánský letní čas"}
            lg{"Peruánský čas"}
            ls{"Peruánský standardní čas"}
        }
        "meta:Philippines"{
            ld{"Filipínský letní čas"}
            lg{"Filipínský čas"}
            ls{"Filipínský standardní čas"}
        }
        "meta:Phoenix_Islands"{
            ls{"Čas Fénixových ostrovů"}
        }
        "meta:Pierre_Miquelon"{
            ld{"Pierre-miquelonský letní čas"}
            lg{"Pierre-miquelonský čas"}
            ls{"Pierre-miquelonský standardní čas"}
        }
        "meta:Pitcairn"{
            ls{"Čas Pitcairnova ostrova"}
        }
        "meta:Ponape"{
            ls{"Ponapský čas"}
        }
        "meta:Pyongyang"{
            ls{"Pchjongjangský čas"}
        }
        "meta:Qyzylorda"{
            ld{"Kyzylordský letní čas"}
            lg{"Kyzylordský čas"}
            ls{"Kyzylordský standardní čas"}
        }
        "meta:Reunion"{
            ls{"Réunionský čas"}
        }
        "meta:Rothera"{
            ls{"Čas Rotherovy stanice"}
        }
        "meta:Sakhalin"{
            ld{"Sachalinský letní čas"}
            lg{"Sachalinský čas"}
            ls{"Sachalinský standardní čas"}
        }
        "meta:Samara"{
            ld{"Samarský letní čas"}
            lg{"Samarský čas"}
            ls{"Samarský standardní čas"}
        }
        "meta:Samoa"{
            ld{"Samojský letní čas"}
            lg{"Samojský čas"}
            ls{"Samojský standardní čas"}
        }
        "meta:Seychelles"{
            ls{"Seychelský čas"}
        }
        "meta:Singapore"{
            ls{"Singapurský čas"}
        }
        "meta:Solomon"{
            ls{"Čas Šalamounových ostrovů"}
        }
        "meta:South_Georgia"{
            ls{"Čas Jižní Georgie"}
        }
        "meta:Suriname"{
            ls{"Surinamský čas"}
        }
        "meta:Syowa"{
            ls{"Čas stanice Šówa"}
        }
        "meta:Tahiti"{
            ls{"Tahitský čas"}
        }
        "meta:Taipei"{
            ld{"Tchajpejský letní čas"}
            lg{"Tchajpejský čas"}
            ls{"Tchajpejský standardní čas"}
        }
        "meta:Tajikistan"{
            ls{"Tádžický čas"}
        }
        "meta:Tokelau"{
            ls{"Tokelauský čas"}
        }
        "meta:Tonga"{
            ld{"Tonžský letní čas"}
            lg{"Tonžský čas"}
            ls{"Tonžský standardní čas"}
        }
        "meta:Truk"{
            ls{"Chuukský čas"}
        }
        "meta:Turkmenistan"{
            ld{"Turkmenský letní čas"}
            lg{"Turkmenský čas"}
            ls{"Turkmenský standardní čas"}
        }
        "meta:Tuvalu"{
            ls{"Tuvalský čas"}
        }
        "meta:Uruguay"{
            ld{"Uruguayský letní čas"}
            lg{"Uruguayský čas"}
            ls{"Uruguayský standardní čas"}
        }
        "meta:Uzbekistan"{
            ld{"Uzbecký letní čas"}
            lg{"Uzbecký čas"}
            ls{"Uzbecký standardní čas"}
        }
        "meta:Vanuatu"{
            ld{"Vanuatský letní čas"}
            lg{"Vanuatský čas"}
            ls{"Vanuatský standardní čas"}
        }
        "meta:Venezuela"{
            ls{"Venezuelský čas"}
        }
        "meta:Vladivostok"{
            ld{"Vladivostocký letní čas"}
            lg{"Vladivostocký čas"}
            ls{"Vladivostocký standardní čas"}
        }
        "meta:Volgograd"{
            ld{"Volgogradský letní čas"}
            lg{"Volgogradský čas"}
            ls{"Volgogradský standardní čas"}
        }
        "meta:Vostok"{
            ls{"Čas stanice Vostok"}
        }
        "meta:Wake"{
            ls{"Čas ostrova Wake"}
        }
        "meta:Wallis"{
            ls{"Čas ostrovů Wallis a Futuna"}
        }
        "meta:Yakutsk"{
            ld{"Jakutský letní čas"}
            lg{"Jakutský čas"}
            ls{"Jakutský standardní čas"}
        }
        "meta:Yekaterinburg"{
            ld{"Jekatěrinburský letní čas"}
            lg{"Jekatěrinburský čas"}
            ls{"Jekatěrinburský standardní čas"}
        }
        fallbackFormat{"{1} ({0})"}
        gmtFormat{"GMT{0}"}
        gmtZeroFormat{"GMT"}
        hourFormat{"+H:mm;-H:mm"}
        regionFormat{"Časové pásmo {0}"}
        regionFormatDaylight{"{0} (+1)"}
        regionFormatStandard{"{0} (+0)"}
    }
}
