﻿// © 2016 and later: Unicode, Inc. and others.
// License & terms of use: http://www.unicode.org/copyright.html#License
es{
    Version{"2.1.41.97"}
    zoneStrings{
        "Etc:UTC"{
            ls{"tiempo universal coordinado"}
        }
        "Europe:Dublin"{
            ld{"hora de verano de Irlanda"}
        }
        "Europe:London"{
            ld{"hora de verano británica"}
        }
        "meta:Acre"{
            ld{"Hora de verano de Acre"}
            lg{"Hora de Acre"}
            ls{"Hora estándar de Acre"}
        }
        "meta:Afghanistan"{
            ls{"hora de Afganistán"}
        }
        "meta:Africa_Central"{
            ls{"hora de África central"}
        }
        "meta:Africa_Eastern"{
            ls{"hora de África oriental"}
        }
        "meta:Africa_Southern"{
            ls{"hora de Sudáfrica"}
        }
        "meta:Africa_Western"{
            ld{"hora de verano de África occidental"}
            lg{"hora de África occidental"}
            ls{"hora estándar de África occidental"}
        }
        "meta:Alaska"{
            ld{"hora de verano de Alaska"}
            lg{"hora de Alaska"}
            ls{"hora estándar de Alaska"}
        }
        "meta:Amazon"{
            ld{"hora de verano del Amazonas"}
            lg{"hora del Amazonas"}
            ls{"hora estándar del Amazonas"}
        }
        "meta:America_Central"{
            ld{"hora de verano central"}
            lg{"hora central"}
            ls{"hora estándar central"}
        }
        "meta:America_Eastern"{
            ld{"hora de verano oriental"}
            lg{"hora oriental"}
            ls{"hora estándar oriental"}
        }
        "meta:America_Mountain"{
            ld{"hora de verano de las Montañas Rocosas"}
            lg{"hora de las Montañas Rocosas"}
            ls{"hora estándar de las Montañas Rocosas"}
        }
        "meta:America_Pacific"{
            ld{"hora de verano del Pacífico"}
            lg{"hora del Pacífico"}
            ls{"hora estándar del Pacífico"}
        }
        "meta:Anadyr"{
            ld{"hora de verano de Anadyr"}
            lg{"hora de Anadyr"}
            ls{"hora estándar de Anadyr"}
        }
        "meta:Apia"{
            ld{"horario de verano de Apia"}
            lg{"hora de Apia"}
            ls{"hora estándar de Apia"}
        }
        "meta:Aqtau"{
            ld{"Hora de verano de Aktau"}
            lg{"Hora de Aktau"}
            ls{"Hora estándar de Aktau"}
        }
        "meta:Aqtobe"{
            ld{"Hora de verano de Aktobe"}
            lg{"Hora de Aktobe"}
            ls{"Hora estándar de Aktobe"}
        }
        "meta:Arabian"{
            ld{"hora de verano de Arabia"}
            lg{"hora de Arabia"}
            ls{"hora estándar de Arabia"}
        }
        "meta:Argentina"{
            ld{"hora de verano de Argentina"}
            lg{"hora de Argentina"}
            ls{"hora estándar de Argentina"}
        }
        "meta:Argentina_Western"{
            ld{"hora de verano de Argentina occidental"}
            lg{"hora de Argentina occidental"}
            ls{"hora estándar de Argentina occidental"}
        }
        "meta:Armenia"{
            ld{"hora de verano de Armenia"}
            lg{"hora de Armenia"}
            ls{"hora estándar de Armenia"}
        }
        "meta:Atlantic"{
            ld{"hora de verano del Atlántico"}
            lg{"hora del Atlántico"}
            ls{"hora estándar del Atlántico"}
        }
        "meta:Australia_Central"{
            ld{"hora de verano de Australia central"}
            lg{"hora de Australia central"}
            ls{"hora estándar de Australia central"}
        }
        "meta:Australia_CentralWestern"{
            ld{"hora de verano de Australia centroccidental"}
            lg{"hora de Australia centroccidental"}
            ls{"hora estándar de Australia centroccidental"}
        }
        "meta:Australia_Eastern"{
            ld{"hora de verano de Australia oriental"}
            lg{"hora de Australia oriental"}
            ls{"hora estándar de Australia oriental"}
        }
        "meta:Australia_Western"{
            ld{"hora de verano de Australia occidental"}
            lg{"hora de Australia occidental"}
            ls{"hora estándar de Australia occidental"}
        }
        "meta:Azerbaijan"{
            ld{"hora de verano de Azerbaiyán"}
            lg{"hora de Azerbaiyán"}
            ls{"hora estándar de Azerbaiyán"}
        }
        "meta:Azores"{
            ld{"hora de verano de las Azores"}
            lg{"hora de las Azores"}
            ls{"hora estándar de las Azores"}
        }
        "meta:Bangladesh"{
            ld{"hora de verano de Bangladés"}
            lg{"hora de Bangladés"}
            ls{"hora estándar de Bangladés"}
        }
        "meta:Bhutan"{
            ls{"hora de Bután"}
        }
        "meta:Bolivia"{
            ls{"hora de Bolivia"}
        }
        "meta:Brasilia"{
            ld{"hora de verano de Brasilia"}
            lg{"hora de Brasilia"}
            ls{"hora estándar de Brasilia"}
        }
        "meta:Brunei"{
            ls{"hora de Brunéi"}
        }
        "meta:Cape_Verde"{
            ld{"hora de verano de Cabo Verde"}
            lg{"hora de Cabo Verde"}
            ls{"hora estándar de Cabo Verde"}
        }
        "meta:Chamorro"{
            ls{"hora estándar de Chamorro"}
        }
        "meta:Chatham"{
            ld{"hora de verano de Chatham"}
            lg{"hora de Chatham"}
            ls{"hora estándar de Chatham"}
        }
        "meta:Chile"{
            ld{"hora de verano de Chile"}
            lg{"hora de Chile"}
            ls{"hora estándar de Chile"}
        }
        "meta:China"{
            ld{"hora de verano de China"}
            lg{"hora de China"}
            ls{"hora estándar de China"}
        }
        "meta:Choibalsan"{
            ld{"hora de verano de Choibalsan"}
            lg{"hora de Choibalsan"}
            ls{"hora estándar de Choibalsan"}
        }
        "meta:Christmas"{
            ls{"hora de la Isla de Navidad"}
        }
        "meta:Cocos"{
            ls{"hora de las Islas Cocos"}
        }
        "meta:Colombia"{
            ld{"hora de verano de Colombia"}
            lg{"hora de Colombia"}
            ls{"hora estándar de Colombia"}
        }
        "meta:Cook"{
            ld{"hora de verano media de las Islas Cook"}
            lg{"hora de las Islas Cook"}
            ls{"hora estándar de las Islas Cook"}
        }
        "meta:Cuba"{
            ld{"hora de verano de Cuba"}
            lg{"hora de Cuba"}
            ls{"hora estándar de Cuba"}
        }
        "meta:Davis"{
            ls{"hora de Davis"}
        }
        "meta:DumontDUrville"{
            ls{"hora de Dumont-d’Urville"}
        }
        "meta:East_Timor"{
            ls{"hora de Timor Oriental"}
        }
        "meta:Easter"{
            ld{"hora de verano de la isla de Pascua"}
            lg{"hora de la isla de Pascua"}
            ls{"hora estándar de la isla de Pascua"}
        }
        "meta:Ecuador"{
            ls{"hora de Ecuador"}
        }
        "meta:Europe_Central"{
            ld{"hora de verano de Europa central"}
            lg{"hora de Europa central"}
            ls{"hora estándar de Europa central"}
            sd{"CEST"}
            sg{"CET"}
            ss{"CET"}
        }
        "meta:Europe_Eastern"{
            ld{"hora de verano de Europa oriental"}
            lg{"hora de Europa oriental"}
            ls{"hora estándar de Europa oriental"}
            sd{"EEST"}
            sg{"EET"}
            ss{"EET"}
        }
        "meta:Europe_Further_Eastern"{
            ls{"hora del extremo oriental de Europa"}
        }
        "meta:Europe_Western"{
            ld{"hora de verano de Europa occidental"}
            lg{"hora de Europa occidental"}
            ls{"hora estándar de Europa occidental"}
            sd{"WEST"}
            sg{"WET"}
            ss{"WET"}
        }
        "meta:Falkland"{
            ld{"hora de verano de las islas Malvinas"}
            lg{"hora de las islas Malvinas"}
            ls{"hora estándar de las islas Malvinas"}
        }
        "meta:Fiji"{
            ld{"hora de verano de Fiyi"}
            lg{"hora de Fiyi"}
            ls{"hora estándar de Fiyi"}
        }
        "meta:French_Guiana"{
            ls{"hora de la Guayana Francesa"}
        }
        "meta:French_Southern"{
            ls{"hora de las Tierras Australes y Antárticas Francesas"}
        }
        "meta:GMT"{
            ls{"hora del meridiano de Greenwich"}
            ss{"GMT"}
        }
        "meta:Galapagos"{
            ls{"hora de Galápagos"}
        }
        "meta:Gambier"{
            ls{"hora de Gambier"}
        }
        "meta:Georgia"{
            ld{"hora de verano de Georgia"}
            lg{"hora de Georgia"}
            ls{"hora estándar de Georgia"}
        }
        "meta:Gilbert_Islands"{
            ls{"hora de las islas Gilbert"}
        }
        "meta:Greenland_Eastern"{
            ld{"hora de verano de Groenlandia oriental"}
            lg{"hora de Groenlandia oriental"}
            ls{"hora estándar de Groenlandia oriental"}
        }
        "meta:Greenland_Western"{
            ld{"hora de verano de Groenlandia occidental"}
            lg{"hora de Groenlandia occidental"}
            ls{"hora estándar de Groenlandia occidental"}
        }
        "meta:Guam"{
            ls{"Hora estándar de Guam"}
        }
        "meta:Gulf"{
            ls{"hora estándar del Golfo"}
        }
        "meta:Guyana"{
            ls{"hora de Guyana"}
        }
        "meta:Hawaii_Aleutian"{
            ld{"hora de verano de Hawái-Aleutianas"}
            lg{"hora de Hawái-Aleutianas"}
            ls{"hora estándar de Hawái-Aleutianas"}
        }
        "meta:Hong_Kong"{
            ld{"hora de verano de Hong Kong"}
            lg{"hora de Hong Kong"}
            ls{"hora estándar de Hong Kong"}
        }
        "meta:Hovd"{
            ld{"hora de verano de Hovd"}
            lg{"hora de Hovd"}
            ls{"hora estándar de Hovd"}
        }
        "meta:India"{
            ls{"hora estándar de la India"}
        }
        "meta:Indian_Ocean"{
            ls{"hora del océano Índico"}
        }
        "meta:Indochina"{
            ls{"hora de Indochina"}
        }
        "meta:Indonesia_Central"{
            ls{"hora de Indonesia central"}
        }
        "meta:Indonesia_Eastern"{
            ls{"hora de Indonesia oriental"}
        }
        "meta:Indonesia_Western"{
            ls{"hora de Indonesia occidental"}
        }
        "meta:Iran"{
            ld{"hora de verano de Irán"}
            lg{"hora de Irán"}
            ls{"hora estándar de Irán"}
        }
        "meta:Irkutsk"{
            ld{"hora de verano de Irkutsk"}
            lg{"hora de Irkutsk"}
            ls{"hora estándar de Irkutsk"}
        }
        "meta:Israel"{
            ld{"hora de verano de Israel"}
            lg{"hora de Israel"}
            ls{"hora estándar de Israel"}
        }
        "meta:Japan"{
            ld{"hora de verano de Japón"}
            lg{"hora de Japón"}
            ls{"hora estándar de Japón"}
        }
        "meta:Kamchatka"{
            ld{"hora de verano de Kamchatka"}
            lg{"hora de Kamchatka"}
            ls{"hora estándar de Kamchatka"}
        }
        "meta:Kazakhstan_Eastern"{
            ls{"hora de Kazajistán oriental"}
        }
        "meta:Kazakhstan_Western"{
            ls{"hora de Kazajistán occidental"}
        }
        "meta:Korea"{
            ld{"hora de verano de Corea"}
            lg{"hora de Corea"}
            ls{"hora estándar de Corea"}
        }
        "meta:Kosrae"{
            ls{"hora de Kosrae"}
        }
        "meta:Krasnoyarsk"{
            ld{"hora de verano de Krasnoyarsk"}
            lg{"hora de Krasnoyarsk"}
            ls{"hora estándar de Krasnoyarsk"}
        }
        "meta:Kyrgystan"{
            ls{"hora de Kirguistán"}
        }
        "meta:Lanka"{
            ls{"Hora de Sri Lanka"}
        }
        "meta:Line_Islands"{
            ls{"hora de las Espóradas Ecuatoriales"}
        }
        "meta:Lord_Howe"{
            ld{"hora de verano de Lord Howe"}
            lg{"hora de Lord Howe"}
            ls{"hora estándar de Lord Howe"}
        }
        "meta:Macau"{
            ld{"Hora de verano de Macao"}
            lg{"Hora de Macao"}
            ls{"Hora estándar de Macao"}
        }
        "meta:Macquarie"{
            ls{"hora de la isla Macquarie"}
        }
        "meta:Magadan"{
            ld{"hora de verano de Magadán"}
            lg{"hora de Magadán"}
            ls{"hora estándar de Magadán"}
        }
        "meta:Malaysia"{
            ls{"hora de Malasia"}
        }
        "meta:Maldives"{
            ls{"hora de Maldivas"}
        }
        "meta:Marquesas"{
            ls{"hora de Marquesas"}
        }
        "meta:Marshall_Islands"{
            ls{"hora de las Islas Marshall"}
        }
        "meta:Mauritius"{
            ld{"hora de verano de Mauricio"}
            lg{"hora de Mauricio"}
            ls{"hora estándar de Mauricio"}
        }
        "meta:Mawson"{
            ls{"hora de Mawson"}
        }
        "meta:Mexico_Northwest"{
            ld{"hora de verano del noroeste de México"}
            lg{"hora del noroeste de México"}
            ls{"hora estándar del noroeste de México"}
        }
        "meta:Mexico_Pacific"{
            ld{"hora de verano del Pacífico de México"}
            lg{"hora del Pacífico de México"}
            ls{"hora estándar del Pacífico de México"}
        }
        "meta:Mongolia"{
            ld{"hora de verano de Ulán Bator"}
            lg{"hora de Ulán Bator"}
            ls{"hora estándar de Ulán Bator"}
        }
        "meta:Moscow"{
            ld{"hora de verano de Moscú"}
            lg{"hora de Moscú"}
            ls{"hora estándar de Moscú"}
        }
        "meta:Myanmar"{
            ls{"hora de Myanmar (Birmania)"}
        }
        "meta:Nauru"{
            ls{"hora de Nauru"}
        }
        "meta:Nepal"{
            ls{"hora de Nepal"}
        }
        "meta:New_Caledonia"{
            ld{"hora de verano de Nueva Caledonia"}
            lg{"hora de Nueva Caledonia"}
            ls{"hora estándar de Nueva Caledonia"}
        }
        "meta:New_Zealand"{
            ld{"hora de verano de Nueva Zelanda"}
            lg{"hora de Nueva Zelanda"}
            ls{"hora estándar de Nueva Zelanda"}
        }
        "meta:Newfoundland"{
            ld{"hora de verano de Terranova"}
            lg{"hora de Terranova"}
            ls{"hora estándar de Terranova"}
        }
        "meta:Niue"{
            ls{"hora de Niue"}
        }
        "meta:Norfolk"{
            ls{"hora de la isla Norfolk"}
        }
        "meta:Noronha"{
            ld{"hora de verano de Fernando de Noronha"}
            lg{"hora de Fernando de Noronha"}
            ls{"hora estándar de Fernando de Noronha"}
        }
        "meta:North_Mariana"{
            ls{"Hora de las Islas Marianas del Norte"}
        }
        "meta:Novosibirsk"{
            ld{"hora de verano de Novosibirsk"}
            lg{"hora de Novosibirsk"}
            ls{"hora estándar de Novosibirsk"}
        }
        "meta:Omsk"{
            ld{"hora de verano de Omsk"}
            lg{"hora de Omsk"}
            ls{"hora estándar de Omsk"}
        }
        "meta:Pakistan"{
            ld{"hora de verano de Pakistán"}
            lg{"hora de Pakistán"}
            ls{"hora estándar de Pakistán"}
        }
        "meta:Palau"{
            ls{"hora de Palaos"}
        }
        "meta:Papua_New_Guinea"{
            ls{"hora de Papúa Nueva Guinea"}
        }
        "meta:Paraguay"{
            ld{"hora de verano de Paraguay"}
            lg{"hora de Paraguay"}
            ls{"hora estándar de Paraguay"}
        }
        "meta:Peru"{
            ld{"hora de verano de Perú"}
            lg{"hora de Perú"}
            ls{"hora estándar de Perú"}
        }
        "meta:Philippines"{
            ld{"hora de verano de Filipinas"}
            lg{"hora de Filipinas"}
            ls{"hora estándar de Filipinas"}
        }
        "meta:Phoenix_Islands"{
            ls{"hora de las Islas Fénix"}
        }
        "meta:Pierre_Miquelon"{
            ld{"hora de verano de San Pedro y Miquelón"}
            lg{"hora de San Pedro y Miquelón"}
            ls{"hora estándar de San Pedro y Miquelón"}
        }
        "meta:Pitcairn"{
            ls{"hora de Pitcairn"}
        }
        "meta:Ponape"{
            ls{"hora de Pohnpei"}
        }
        "meta:Pyongyang"{
            ls{"hora de Pyongyang"}
        }
        "meta:Qyzylorda"{
            ld{"Hora de verano de Qyzylorda"}
            lg{"Hora de Qyzylorda"}
            ls{"Hora estándar de Qyzylorda"}
        }
        "meta:Reunion"{
            ls{"hora de Reunión"}
        }
        "meta:Rothera"{
            ls{"hora de Rothera"}
        }
        "meta:Sakhalin"{
            ld{"hora de verano de Sajalín"}
            lg{"hora de Sajalín"}
            ls{"hora estándar de Sajalín"}
        }
        "meta:Samara"{
            ld{"hora de verano de Samara"}
            lg{"hora de Samara"}
            ls{"hora estándar de Samara"}
        }
        "meta:Samoa"{
            ld{"hora de verano de Samoa"}
            lg{"hora de Samoa"}
            ls{"hora estándar de Samoa"}
        }
        "meta:Seychelles"{
            ls{"hora de Seychelles"}
        }
        "meta:Singapore"{
            ls{"hora de Singapur"}
        }
        "meta:Solomon"{
            ls{"hora de las Islas Salomón"}
        }
        "meta:South_Georgia"{
            ls{"hora de Georgia del Sur"}
        }
        "meta:Suriname"{
            ls{"hora de Surinam"}
        }
        "meta:Syowa"{
            ls{"hora de Syowa"}
        }
        "meta:Tahiti"{
            ls{"hora de Tahití"}
        }
        "meta:Taipei"{
            ld{"hora de verano de Taipéi"}
            lg{"hora de Taipéi"}
            ls{"hora estándar de Taipéi"}
        }
        "meta:Tajikistan"{
            ls{"hora de Tayikistán"}
        }
        "meta:Tokelau"{
            ls{"hora de Tokelau"}
        }
        "meta:Tonga"{
            ld{"hora de verano de Tonga"}
            lg{"hora de Tonga"}
            ls{"hora estándar de Tonga"}
        }
        "meta:Truk"{
            ls{"hora de Chuuk"}
        }
        "meta:Turkmenistan"{
            ld{"hora de verano de Turkmenistán"}
            lg{"hora de Turkmenistán"}
            ls{"hora estándar de Turkmenistán"}
        }
        "meta:Tuvalu"{
            ls{"hora de Tuvalu"}
        }
        "meta:Uruguay"{
            ld{"hora de verano de Uruguay"}
            lg{"hora de Uruguay"}
            ls{"hora estándar de Uruguay"}
        }
        "meta:Uzbekistan"{
            ld{"hora de verano de Uzbekistán"}
            lg{"hora de Uzbekistán"}
            ls{"hora estándar de Uzbekistán"}
        }
        "meta:Vanuatu"{
            ld{"hora de verano de Vanuatu"}
            lg{"hora de Vanuatu"}
            ls{"hora estándar de Vanuatu"}
        }
        "meta:Venezuela"{
            ls{"hora de Venezuela"}
        }
        "meta:Vladivostok"{
            ld{"hora de verano de Vladivostok"}
            lg{"hora de Vladivostok"}
            ls{"hora estándar de Vladivostok"}
        }
        "meta:Volgograd"{
            ld{"hora de verano de Volgogrado"}
            lg{"hora de Volgogrado"}
            ls{"hora estándar de Volgogrado"}
        }
        "meta:Vostok"{
            ls{"hora de Vostok"}
        }
        "meta:Wake"{
            ls{"hora de la isla Wake"}
        }
        "meta:Wallis"{
            ls{"hora de Wallis y Futuna"}
        }
        "meta:Yakutsk"{
            ld{"hora de verano de Yakutsk"}
            lg{"hora de Yakutsk"}
            ls{"hora estándar de Yakutsk"}
        }
        "meta:Yekaterinburg"{
            ld{"hora de verano de Ekaterimburgo"}
            lg{"hora de Ekaterimburgo"}
            ls{"hora estándar de Ekaterimburgo"}
        }
        fallbackFormat{"{1} ({0})"}
        gmtFormat{"GMT{0}"}
        gmtZeroFormat{"GMT"}
        hourFormat{"+HH:mm;-HH:mm"}
        regionFormat{"hora de {0}"}
        regionFormatDaylight{"horario de verano de {0}"}
        regionFormatStandard{"horario estándar de {0}"}
    }
}
