﻿// © 2016 and later: Unicode, Inc. and others.
// License & terms of use: http://www.unicode.org/copyright.html#License
fa{
    Version{"2.1.41.97"}
    zoneStrings{
        "Etc:UTC"{
            ls{"زمان هماهنگ جهانی"}
        }
        "Europe:Dublin"{
            ld{"وقت عادی ایرلند"}
        }
        "Europe:London"{
            ld{"وقت تابستانی بریتانیا"}
        }
        "meta:Afghanistan"{
            ls{"وقت افغانستان"}
        }
        "meta:Africa_Central"{
            ls{"وقت مرکز افریقا"}
        }
        "meta:Africa_Eastern"{
            ls{"وقت شرق افریقا"}
        }
        "meta:Africa_Southern"{
            ls{"وقت عادی جنوب افریقا"}
        }
        "meta:Africa_Western"{
            ld{"وقت تابستانی غرب افریقا"}
            lg{"وقت غرب افریقا"}
            ls{"وقت عادی غرب افریقا"}
        }
        "meta:Alaska"{
            ld{"وقت تابستانی آلاسکا"}
            lg{"وقت آلاسکا"}
            ls{"وقت عادی آلاسکا"}
        }
        "meta:Almaty"{
            ld{"وقت تابستانی آلماآتا"}
            lg{"وقت آلماآتا"}
            ls{"وقت عادی آلماآتا"}
        }
        "meta:Amazon"{
            ld{"وقت تابستانی آمازون"}
            lg{"وقت آمازون"}
            ls{"وقت عادی آمازون"}
        }
        "meta:America_Central"{
            ld{"وقت تابستانی مرکز امریکا"}
            lg{"وقت مرکز امریکا"}
            ls{"وقت عادی مرکز امریکا"}
        }
        "meta:America_Eastern"{
            ld{"وقت تابستانی شرق امریکا"}
            lg{"وقت شرق امریکا"}
            ls{"وقت عادی شرق امریکا"}
        }
        "meta:America_Mountain"{
            ld{"وقت تابستانی کوهستانی امریکا"}
            lg{"وقت کوهستانی امریکا"}
            ls{"وقت عادی کوهستانی امریکا"}
        }
        "meta:America_Pacific"{
            ld{"وقت تابستانی غرب امریکا"}
            lg{"وقت غرب امریکا"}
            ls{"وقت عادی غرب امریکا"}
        }
        "meta:Anadyr"{
            ld{"وقت تابستانی آنادیر"}
            lg{"وقت آنادیر"}
            ls{"وقت عادی آنادیر"}
        }
        "meta:Apia"{
            ld{"وقت تابستانی آپیا"}
            lg{"وقت آپیا"}
            ls{"وقت عادی آپیا"}
        }
        "meta:Arabian"{
            ld{"وقت تابستانی عربستان"}
            lg{"وقت عربستان"}
            ls{"وقت عادی عربستان"}
        }
        "meta:Argentina"{
            ld{"وقت تابستانی آرژانتین"}
            lg{"وقت آرژانتین"}
            ls{"وقت عادی آرژانتین"}
        }
        "meta:Argentina_Western"{
            ld{"وقت تابستانی غرب آرژانتین"}
            lg{"وقت غرب آرژانتین"}
            ls{"وقت عادی غرب آرژانتین"}
        }
        "meta:Armenia"{
            ld{"وقت تابستانی ارمنستان"}
            lg{"وقت ارمنستان"}
            ls{"وقت عادی ارمنستان"}
        }
        "meta:Atlantic"{
            ld{"وقت تابستانی آتلانتیک"}
            lg{"وقت آتلانتیک"}
            ls{"وقت عادی آتلانتیک"}
        }
        "meta:Australia_Central"{
            ld{"وقت تابستانی مرکز استرالیا"}
            lg{"وقت مرکز استرالیا"}
            ls{"وقت عادی مرکز استرالیا"}
        }
        "meta:Australia_CentralWestern"{
            ld{"وقت تابستانی مرکز-غرب استرالیا"}
            lg{"وقت مرکز-غرب استرالیا"}
            ls{"وقت عادی مرکز-غرب استرالیا"}
        }
        "meta:Australia_Eastern"{
            ld{"وقت تابستانی شرق استرالیا"}
            lg{"وقت شرق استرالیا"}
            ls{"وقت عادی شرق استرالیا"}
        }
        "meta:Australia_Western"{
            ld{"وقت تابستانی غرب استرالیا"}
            lg{"وقت غرب استرالیا"}
            ls{"وقت عادی غرب استرالیا"}
        }
        "meta:Azerbaijan"{
            ld{"وقت تابستانی جمهوری آذربایجان"}
            lg{"وقت جمهوری آذربایجان"}
            ls{"وقت عادی جمهوری آذربایجان"}
        }
        "meta:Azores"{
            ld{"وقت تابستانی آزور"}
            lg{"وقت آزور"}
            ls{"وقت عادی آزور"}
        }
        "meta:Bangladesh"{
            ld{"وقت تابستانی بنگلادش"}
            lg{"وقت بنگلادش"}
            ls{"وقت عادی بنگلادش"}
        }
        "meta:Bhutan"{
            ls{"وقت بوتان"}
        }
        "meta:Bolivia"{
            ls{"وقت بولیوی"}
        }
        "meta:Brasilia"{
            ld{"وقت تابستانی برازیلیا"}
            lg{"وقت برازیلیا"}
            ls{"وقت عادی برازیلیا"}
        }
        "meta:Brunei"{
            ls{"وقت برونئی دارالسلام"}
        }
        "meta:Cape_Verde"{
            ld{"وقت تابستانی کیپ‌ورد"}
            lg{"وقت کیپ‌ورد"}
            ls{"وقت عادی کیپ‌ورد"}
        }
        "meta:Chamorro"{
            ls{"وقت عادی چامورو"}
        }
        "meta:Chatham"{
            ld{"وقت تابستانی چت‌هام"}
            lg{"وقت چت‌هام"}
            ls{"وقت عادی چت‌هام"}
        }
        "meta:Chile"{
            ld{"وقت تابستانی شیلی"}
            lg{"وقت شیلی"}
            ls{"وقت عادی شیلی"}
        }
        "meta:China"{
            ld{"وقت تابستانی چین"}
            lg{"وقت چین"}
            ls{"وقت عادی چین"}
        }
        "meta:Choibalsan"{
            ld{"وقت تابستانی چویبالسان"}
            lg{"وقت چویبالسان"}
            ls{"وقت عادی چویبالسان"}
        }
        "meta:Christmas"{
            ls{"وقت جزیرهٔ کریسمس"}
        }
        "meta:Cocos"{
            ls{"وقت جزایر کوکوس"}
        }
        "meta:Colombia"{
            ld{"وقت تابستانی کلمبیا"}
            lg{"وقت کلمبیا"}
            ls{"وقت عادی کلمبیا"}
        }
        "meta:Cook"{
            ld{"وقت تابستانی جزایر کوک"}
            lg{"وقت جزایر کوک"}
            ls{"وقت عادی جزایر کوک"}
        }
        "meta:Cuba"{
            ld{"وقت تابستانی کوبا"}
            lg{"وقت کوبا"}
            ls{"وقت عادی کوبا"}
        }
        "meta:Davis"{
            ls{"وقت دیویس"}
        }
        "meta:DumontDUrville"{
            ls{"وقت دومون دورویل"}
        }
        "meta:East_Timor"{
            ls{"وقت تیمور شرقی"}
        }
        "meta:Easter"{
            ld{"وقت تابستانی جزیرهٔ ایستر"}
            lg{"وقت جزیرهٔ ایستر"}
            ls{"وقت عادی جزیرهٔ ایستر"}
        }
        "meta:Ecuador"{
            ls{"وقت اکوادور"}
        }
        "meta:Europe_Central"{
            ld{"وقت تابستانی مرکز اروپا"}
            lg{"وقت مرکز اروپا"}
            ls{"وقت عادی مرکز اروپا"}
        }
        "meta:Europe_Eastern"{
            ld{"وقت تابستانی شرق اروپا"}
            lg{"وقت شرق اروپا"}
            ls{"وقت عادی شرق اروپا"}
        }
        "meta:Europe_Further_Eastern"{
            ls{"وقت تابستانی مکان‌های دیگر شرق اروپا"}
        }
        "meta:Europe_Western"{
            ld{"وقت تابستانی غرب اروپا"}
            lg{"وقت غرب اروپا"}
            ls{"وقت عادی غرب اروپا"}
        }
        "meta:Falkland"{
            ld{"وقت تابستانی جزایر فالکلند"}
            lg{"وقت جزایر فالکلند"}
            ls{"وقت عادی جزایر فالکلند"}
        }
        "meta:Fiji"{
            ld{"وقت تابستانی فیجی"}
            lg{"وقت فیجی"}
            ls{"وقت عادی فیجی"}
        }
        "meta:French_Guiana"{
            ls{"وقت گویان فرانسه"}
        }
        "meta:French_Southern"{
            ls{"وقت سرزمین‌های جنوبی و جنوبگان فرانسه"}
        }
        "meta:GMT"{
            ls{"وقت گرینویچ"}
        }
        "meta:Galapagos"{
            ls{"وقت گالاپاگوس"}
        }
        "meta:Gambier"{
            ls{"وقت گامبیه"}
        }
        "meta:Georgia"{
            ld{"وقت تابستانی گرجستان"}
            lg{"وقت گرجستان"}
            ls{"وقت عادی گرجستان"}
        }
        "meta:Gilbert_Islands"{
            ls{"وقت جزایر گیلبرت"}
        }
        "meta:Greenland_Eastern"{
            ld{"وقت تابستانی شرق گرینلند"}
            lg{"وقت شرق گرینلند"}
            ls{"وقت عادی شرق گرینلند"}
        }
        "meta:Greenland_Western"{
            ld{"وقت تابستانی غرب گرینلند"}
            lg{"وقت غرب گرینلند"}
            ls{"وقت عادی غرب گرینلند"}
        }
        "meta:Guam"{
            ls{"وقت عادی گوام"}
        }
        "meta:Gulf"{
            ls{"وقت عادی خلیج فارس"}
        }
        "meta:Guyana"{
            ls{"وقت گویان"}
        }
        "meta:Hawaii_Aleutian"{
            ld{"وقت تابستانی هاوایی‐الوشن"}
            lg{"وقت هاوایی‐الوشن"}
            ls{"وقت عادی هاوایی‐الوشن"}
        }
        "meta:Hong_Kong"{
            ld{"وقت تابستانی هنگ‌کنگ"}
            lg{"وقت هنگ‌کنگ"}
            ls{"وقت عادی هنگ‌کنگ"}
        }
        "meta:Hovd"{
            ld{"وقت تابستانی خوود"}
            lg{"وقت خوود"}
            ls{"وقت عادی خوود"}
        }
        "meta:India"{
            ls{"وقت هند"}
        }
        "meta:Indian_Ocean"{
            ls{"وقت اقیانوس هند"}
        }
        "meta:Indochina"{
            ls{"وقت هندوچین"}
        }
        "meta:Indonesia_Central"{
            ls{"وقت مرکز اندونزی"}
        }
        "meta:Indonesia_Eastern"{
            ls{"وقت شرق اندونزی"}
        }
        "meta:Indonesia_Western"{
            ls{"وقت غرب اندونزی"}
        }
        "meta:Iran"{
            ld{"وقت تابستانی ایران"}
            lg{"وقت ایران"}
            ls{"وقت عادی ایران"}
        }
        "meta:Irkutsk"{
            ld{"وقت تابستانی ایرکوتسک"}
            lg{"وقت ایرکوتسک"}
            ls{"وقت عادی ایرکوتسک"}
        }
        "meta:Israel"{
            ld{"وقت تابستانی اسرائیل"}
            lg{"وقت اسرائیل"}
            ls{"وقت عادی اسرائیل"}
        }
        "meta:Japan"{
            ld{"وقت تابستانی ژاپن"}
            lg{"وقت ژاپن"}
            ls{"وقت عادی ژاپن"}
        }
        "meta:Kamchatka"{
            ld{"وقت تابستانی پتروپاولوسک‐کامچاتسکی"}
            lg{"وقت پتروپاولوسک‐کامچاتسکی"}
            ls{"وقت عادی پتروپاولوسک‐کامچاتسکی"}
        }
        "meta:Kazakhstan_Eastern"{
            ls{"وقت شرق قزاقستان"}
        }
        "meta:Kazakhstan_Western"{
            ls{"وقت غرب قزاقستان"}
        }
        "meta:Korea"{
            ld{"وقت تابستانی کره"}
            lg{"وقت کره"}
            ls{"وقت عادی کره"}
        }
        "meta:Kosrae"{
            ls{"وقت کوسرای"}
        }
        "meta:Krasnoyarsk"{
            ld{"وقت تابستانی کراسنویارسک"}
            lg{"وقت کراسنویارسک"}
            ls{"وقت عادی کراسنویارسک"}
        }
        "meta:Kyrgystan"{
            ls{"وقت قرقیزستان"}
        }
        "meta:Lanka"{
            ls{"وقت لانکا"}
        }
        "meta:Line_Islands"{
            ls{"وقت جزایر لاین"}
        }
        "meta:Lord_Howe"{
            ld{"وقت تابستانی لردهو"}
            lg{"وقت لردهو"}
            ls{"وقت عادی لردهو"}
        }
        "meta:Macau"{
            ld{"وقت تابستانی ماکائو"}
            lg{"وقت ماکائو"}
            ls{"وقت عادی ماکائو"}
        }
        "meta:Macquarie"{
            ls{"وقت جزیرهٔ مکواری"}
        }
        "meta:Magadan"{
            ld{"وقت تابستانی ماگادان"}
            lg{"وقت ماگادان"}
            ls{"وقت عادی ماگادان"}
        }
        "meta:Malaysia"{
            ls{"وقت مالزی"}
        }
        "meta:Maldives"{
            ls{"وقت مالدیو"}
        }
        "meta:Marquesas"{
            ls{"وقت مارکوئز"}
        }
        "meta:Marshall_Islands"{
            ls{"وقت جزایر مارشال"}
        }
        "meta:Mauritius"{
            ld{"وقت تابستانی موریس"}
            lg{"وقت موریس"}
            ls{"وقت عادی موریس"}
        }
        "meta:Mawson"{
            ls{"وقت ماوسون"}
        }
        "meta:Mexico_Northwest"{
            ld{"وقت تابستانی شمال غرب مکزیک"}
            lg{"وقت شمال غرب مکزیک"}
            ls{"وقت عادی شمال غرب مکزیک"}
        }
        "meta:Mexico_Pacific"{
            ld{"وقت تابستانی شرق مکزیک"}
            lg{"وقت شرق مکزیک"}
            ls{"وقت عادی شرق مکزیک"}
        }
        "meta:Mongolia"{
            ld{"وقت تابستانی اولان‌باتور"}
            lg{"وقت اولان‌باتور"}
            ls{"وقت عادی اولان‌باتور"}
        }
        "meta:Moscow"{
            ld{"وقت تابستانی مسکو"}
            lg{"وقت مسکو"}
            ls{"وقت عادی مسکو"}
        }
        "meta:Myanmar"{
            ls{"وقت میانمار"}
        }
        "meta:Nauru"{
            ls{"وقت نائورو"}
        }
        "meta:Nepal"{
            ls{"وقت نپال"}
        }
        "meta:New_Caledonia"{
            ld{"وقت تابستانی کالدونیای جدید"}
            lg{"وقت کالدونیای جدید"}
            ls{"وقت عادی کالدونیای جدید"}
        }
        "meta:New_Zealand"{
            ld{"وقت تابستانی زلاند نو"}
            lg{"وقت زلاند نو"}
            ls{"وقت عادی زلاند نو"}
        }
        "meta:Newfoundland"{
            ld{"وقت تابستانی نیوفاندلند"}
            lg{"وقت نیوفاندلند"}
            ls{"وقت عادی نیوفاندلند"}
        }
        "meta:Niue"{
            ls{"وقت نیوئه"}
        }
        "meta:Norfolk"{
            ls{"وقت جزایر نورفولک"}
        }
        "meta:Noronha"{
            ld{"وقت تابستانی فرناندو دی نورونیا"}
            lg{"وقت فرناندو دی نورونیا"}
            ls{"وقت عادی فرناندو دی نورونیا"}
        }
        "meta:North_Mariana"{
            ls{"وقت جزایر ماریانای شمالی"}
        }
        "meta:Novosibirsk"{
            ld{"وقت تابستانی نووسیبیرسک"}
            lg{"وقت نووسیبیرسک"}
            ls{"وقت عادی نووسیبیرسک"}
        }
        "meta:Omsk"{
            ld{"وقت تابستانی اومسک"}
            lg{"وقت اومسک"}
            ls{"وقت عادی اومسک"}
        }
        "meta:Pakistan"{
            ld{"وقت تابستانی پاکستان"}
            lg{"وقت پاکستان"}
            ls{"وقت عادی پاکستان"}
        }
        "meta:Palau"{
            ls{"وقت پالائو"}
        }
        "meta:Papua_New_Guinea"{
            ls{"وقت پاپوا گینهٔ نو"}
        }
        "meta:Paraguay"{
            ld{"وقت تابستانی پاراگوئه"}
            lg{"وقت پاراگوئه"}
            ls{"وقت عادی پاراگوئه"}
        }
        "meta:Peru"{
            ld{"وقت تابستانی پرو"}
            lg{"وقت پرو"}
            ls{"وقت عادی پرو"}
        }
        "meta:Philippines"{
            ld{"وقت تابستانی فیلیپین"}
            lg{"وقت فیلیپین"}
            ls{"وقت عادی فیلیپین"}
        }
        "meta:Phoenix_Islands"{
            ls{"وقت جزایر فونیکس"}
        }
        "meta:Pierre_Miquelon"{
            ld{"وقت تابستانی سنت‌پیر و میکلون"}
            lg{"وقت سنت‌پیر و میکلون"}
            ls{"وقت عادی سنت‌پیر و میکلون"}
        }
        "meta:Pitcairn"{
            ls{"وقت پیتکایرن"}
        }
        "meta:Ponape"{
            ls{"وقت پوناپه"}
        }
        "meta:Pyongyang"{
            ls{"وقت پیونگ‌یانگ"}
        }
        "meta:Qyzylorda"{
            ld{"وقت تابستانی قیزیل‌اوردا"}
            lg{"وقت قیزیل‌اوردا"}
            ls{"وقت عادی قیزیل‌اوردا"}
        }
        "meta:Reunion"{
            ls{"وقت ریونیون"}
        }
        "meta:Rothera"{
            ls{"وقت روترا"}
        }
        "meta:Sakhalin"{
            ld{"وقت تابستانی ساخالین"}
            lg{"وقت ساخالین"}
            ls{"وقت عادی ساخالین"}
        }
        "meta:Samara"{
            ld{"وقت تابستانی سامارا"}
            lg{"وقت سامارا"}
            ls{"وقت عادی سامارا"}
        }
        "meta:Samoa"{
            ld{"وقت تابستانی ساموا"}
            lg{"وقت ساموا"}
            ls{"وقت عادی ساموا"}
        }
        "meta:Seychelles"{
            ls{"وقت سیشل"}
        }
        "meta:Singapore"{
            ls{"وقت سنگاپور"}
        }
        "meta:Solomon"{
            ls{"وقت جزایر سلیمان"}
        }
        "meta:South_Georgia"{
            ls{"وقت جورجیای جنوبی"}
        }
        "meta:Suriname"{
            ls{"وقت سورینام"}
        }
        "meta:Syowa"{
            ls{"وقت شووا"}
        }
        "meta:Tahiti"{
            ls{"وقت تاهیتی"}
        }
        "meta:Taipei"{
            ld{"وقت تابستانی تایپه"}
            lg{"وقت تایپه"}
            ls{"وقت عادی تایپه"}
        }
        "meta:Tajikistan"{
            ls{"وقت تاجیکستان"}
        }
        "meta:Tokelau"{
            ls{"وقت توکلائو"}
        }
        "meta:Tonga"{
            ld{"وقت تابستانی تونگا"}
            lg{"وقت تونگا"}
            ls{"وقت عادی تونگا"}
        }
        "meta:Truk"{
            ls{"وقت چوئوک"}
        }
        "meta:Turkmenistan"{
            ld{"وقت تابستانی ترکمنستان"}
            lg{"وقت ترکمنستان"}
            ls{"وقت عادی ترکمنستان"}
        }
        "meta:Tuvalu"{
            ls{"وقت تووالو"}
        }
        "meta:Uruguay"{
            ld{"وقت تابستانی اروگوئه"}
            lg{"وقت اروگوئه"}
            ls{"وقت عادی اروگوئه"}
        }
        "meta:Uzbekistan"{
            ld{"وقت تابستانی ازبکستان"}
            lg{"وقت ازبکستان"}
            ls{"وقت عادی ازبکستان"}
        }
        "meta:Vanuatu"{
            ld{"وقت تابستانی واناتو"}
            lg{"وقت واناتو"}
            ls{"وقت عادی واناتو"}
        }
        "meta:Venezuela"{
            ls{"وقت ونزوئلا"}
        }
        "meta:Vladivostok"{
            ld{"وقت تابستانی ولادی‌وستوک"}
            lg{"وقت ولادی‌وستوک"}
            ls{"وقت عادی ولادی‌وستوک"}
        }
        "meta:Volgograd"{
            ld{"وقت تابستانی ولگاگراد"}
            lg{"وقت ولگاگراد"}
            ls{"وقت عادی ولگاگراد"}
        }
        "meta:Vostok"{
            ls{"وقت وستوک"}
        }
        "meta:Wake"{
            ls{"وقت جزیرهٔ ویک"}
        }
        "meta:Wallis"{
            ls{"وقت والیس و فوتونا"}
        }
        "meta:Yakutsk"{
            ld{"وقت تابستانی یاکوتسک"}
            lg{"وقت یاکوتسک"}
            ls{"وقت عادی یاکوتسک"}
        }
        "meta:Yekaterinburg"{
            ld{"وقت تابستانی یکاترینبورگ"}
            lg{"وقت یکاترینبورگ"}
            ls{"وقت عادی یکاترینبورگ"}
        }
        fallbackFormat{"{1} ({0})"}
        gmtFormat{"{0} گرینویچ"}
        gmtZeroFormat{"گرینویچ"}
        hourFormat{"‎+HH:mm;‎−HH:mm"}
        regionFormat{"وقت {0}"}
        regionFormatDaylight{"وقت تابستانی {0}"}
        regionFormatStandard{"وقت عادی {0}"}
    }
}
