﻿// © 2016 and later: Unicode, Inc. and others.
// License & terms of use: http://www.unicode.org/copyright.html#License
fr{
    Version{"2.1.41.97"}
    zoneStrings{
        "Etc:UTC"{
            ls{"Temps universel coordonné"}
        }
        "Europe:Dublin"{
            ld{"heure d’été irlandaise"}
        }
        "Europe:London"{
            ld{"heure d’été britannique"}
        }
        "meta:Acre"{
            ld{"heure d’été de l’Acre"}
            lg{"heure de l’Acre"}
            ls{"heure normale de l’Acre"}
        }
        "meta:Afghanistan"{
            ls{"heure de l’Afghanistan"}
        }
        "meta:Africa_Central"{
            ls{"heure normale d’Afrique centrale"}
        }
        "meta:Africa_Eastern"{
            ls{"heure normale d’Afrique de l’Est"}
        }
        "meta:Africa_Southern"{
            ls{"heure normale d’Afrique méridionale"}
        }
        "meta:Africa_Western"{
            ld{"heure d’été d’Afrique de l’Ouest"}
            lg{"heure d’Afrique de l’Ouest"}
            ls{"heure normale d’Afrique de l’Ouest"}
        }
        "meta:Alaska"{
            ld{"heure d’été de l’Alaska"}
            lg{"heure de l’Alaska"}
            ls{"heure normale de l’Alaska"}
        }
        "meta:Almaty"{
            ld{"heure d’été d’Alma Ata"}
            lg{"heure d’Alma Ata"}
            ls{"heure normale d’Alma Ata"}
        }
        "meta:Amazon"{
            ld{"heure d’été de l’Amazonie"}
            lg{"heure de l’Amazonie"}
            ls{"heure normale de l’Amazonie"}
        }
        "meta:America_Central"{
            ld{"heure d’été du Centre"}
            lg{"heure du centre nord-américain"}
            ls{"heure normale du centre nord-américain"}
        }
        "meta:America_Eastern"{
            ld{"heure d’été de l’Est"}
            lg{"heure de l’Est nord-américain"}
            ls{"heure normale de l’Est nord-américain"}
        }
        "meta:America_Mountain"{
            ld{"heure d’été des Rocheuses"}
            lg{"heure des Rocheuses"}
            ls{"heure normale des Rocheuses"}
        }
        "meta:America_Pacific"{
            ld{"heure d’été du Pacifique"}
            lg{"heure du Pacifique nord-américain"}
            ls{"heure normale du Pacifique nord-américain"}
        }
        "meta:Anadyr"{
            ld{"heure d’été d’Anadyr"}
            lg{"heure d’Anadyr"}
            ls{"heure normale d’Anadyr"}
        }
        "meta:Apia"{
            ld{"heure d’été d’Apia"}
            lg{"heure d’Apia"}
            ls{"heure normale d’Apia"}
        }
        "meta:Aqtau"{
            ld{"heure d’été d’Aktaou"}
            lg{"heure d’Aktaou"}
            ls{"heure normale d’Aktaou"}
        }
        "meta:Aqtobe"{
            ld{"heure d’été d’Aqtöbe"}
            lg{"heure d’Aqtöbe"}
            ls{"heure normale d’Aqtöbe"}
        }
        "meta:Arabian"{
            ld{"heure d’été de l’Arabie"}
            lg{"heure de l’Arabie"}
            ls{"heure normale de l’Arabie"}
        }
        "meta:Argentina"{
            ld{"heure d’été de l’Argentine"}
            lg{"heure de l’Argentine"}
            ls{"heure normale d’Argentine"}
        }
        "meta:Argentina_Western"{
            ld{"heure d’été de l’Ouest argentin"}
            lg{"heure de l’Ouest argentin"}
            ls{"heure normale de l’Ouest argentin"}
        }
        "meta:Armenia"{
            ld{"heure d’été d’Arménie"}
            lg{"heure de l’Arménie"}
            ls{"heure normale de l’Arménie"}
        }
        "meta:Atlantic"{
            ld{"heure d’été de l’Atlantique"}
            lg{"heure de l’Atlantique"}
            ls{"heure normale de l’Atlantique"}
        }
        "meta:Australia_Central"{
            ld{"heure d’été du centre de l’Australie"}
            lg{"heure du centre de l’Australie"}
            ls{"heure normale du centre de l’Australie"}
        }
        "meta:Australia_CentralWestern"{
            ld{"heure d’été du centre-ouest de l’Australie"}
            lg{"heure du centre-ouest de l’Australie"}
            ls{"heure normale du centre-ouest de l’Australie"}
        }
        "meta:Australia_Eastern"{
            ld{"heure d’été de l’Est de l’Australie"}
            lg{"heure de l’Est de l’Australie"}
            ls{"heure normale de l’Est de l’Australie"}
        }
        "meta:Australia_Western"{
            ld{"heure d’été de l’Ouest de l’Australie"}
            lg{"heure de l’Ouest de l’Australie"}
            ls{"heure normale de l’Ouest de l’Australie"}
        }
        "meta:Azerbaijan"{
            ld{"heure d’été d’Azerbaïdjan"}
            lg{"heure de l’Azerbaïdjan"}
            ls{"heure normale de l’Azerbaïdjan"}
        }
        "meta:Azores"{
            ld{"heure d’été des Açores"}
            lg{"heure des Açores"}
            ls{"heure normale des Açores"}
        }
        "meta:Bangladesh"{
            ld{"heure d’été du Bangladesh"}
            lg{"heure du Bangladesh"}
            ls{"heure normale du Bangladesh"}
        }
        "meta:Bhutan"{
            ls{"heure du Bhoutan"}
        }
        "meta:Bolivia"{
            ls{"heure de Bolivie"}
        }
        "meta:Brasilia"{
            ld{"heure d’été de Brasilia"}
            lg{"heure de Brasilia"}
            ls{"heure normale de Brasilia"}
        }
        "meta:Brunei"{
            ls{"heure du Brunéi"}
        }
        "meta:Cape_Verde"{
            ld{"heure d’été du Cap-Vert"}
            lg{"heure du Cap-Vert"}
            ls{"heure normale du Cap-Vert"}
        }
        "meta:Chamorro"{
            ls{"heure des Chamorro"}
        }
        "meta:Chatham"{
            ld{"heure d’été des îles Chatham"}
            lg{"heure des îles Chatham"}
            ls{"heure normale des îles Chatham"}
        }
        "meta:Chile"{
            ld{"heure d’été du Chili"}
            lg{"heure du Chili"}
            ls{"heure normale du Chili"}
        }
        "meta:China"{
            ld{"heure d’été de Chine"}
            lg{"heure de la Chine"}
            ls{"heure normale de la Chine"}
        }
        "meta:Choibalsan"{
            ld{"heure d’été de Choibalsan"}
            lg{"heure de Choibalsan"}
            ls{"heure normale de Choibalsan"}
        }
        "meta:Christmas"{
            ls{"heure de l’île Christmas"}
        }
        "meta:Cocos"{
            ls{"heure des îles Cocos"}
        }
        "meta:Colombia"{
            ld{"heure d’été de Colombie"}
            lg{"heure de Colombie"}
            ls{"heure normale de Colombie"}
        }
        "meta:Cook"{
            ld{"heure d’été des îles Cook"}
            lg{"heure des îles Cook"}
            ls{"heure normale des îles Cook"}
        }
        "meta:Cuba"{
            ld{"heure d’été de Cuba"}
            lg{"heure de Cuba"}
            ls{"heure normale de Cuba"}
        }
        "meta:Davis"{
            ls{"heure de Davis"}
        }
        "meta:DumontDUrville"{
            ls{"heure de Dumont-d’Urville"}
        }
        "meta:East_Timor"{
            ls{"heure du Timor oriental"}
        }
        "meta:Easter"{
            ld{"heure d’été de l’île de Pâques"}
            lg{"heure de l’île de Pâques"}
            ls{"heure normale de l’île de Pâques"}
        }
        "meta:Ecuador"{
            ls{"heure de l’Équateur"}
        }
        "meta:Europe_Central"{
            ld{"heure d’été d’Europe centrale"}
            lg{"heure d’Europe centrale"}
            ls{"heure normale d’Europe centrale"}
        }
        "meta:Europe_Eastern"{
            ld{"heure d’été d’Europe de l’Est"}
            lg{"heure d’Europe de l’Est"}
            ls{"heure normale d’Europe de l’Est"}
        }
        "meta:Europe_Further_Eastern"{
            ls{"heure de Kaliningrad"}
        }
        "meta:Europe_Western"{
            ld{"heure d’été d’Europe de l’Ouest"}
            lg{"heure d’Europe de l’Ouest"}
            ls{"heure normale d’Europe de l’Ouest"}
        }
        "meta:Falkland"{
            ld{"heure d’été des îles Malouines"}
            lg{"heure des îles Malouines"}
            ls{"heure normale des îles Malouines"}
        }
        "meta:Fiji"{
            ld{"heure d’été des îles Fidji"}
            lg{"heure des îles Fidji"}
            ls{"heure normale des îles Fidji"}
        }
        "meta:French_Guiana"{
            ls{"heure de la Guyane française"}
        }
        "meta:French_Southern"{
            ls{"heure des Terres australes et antarctiques françaises"}
        }
        "meta:GMT"{
            ls{"heure moyenne de Greenwich"}
        }
        "meta:Galapagos"{
            ls{"heure des îles Galápagos"}
        }
        "meta:Gambier"{
            ls{"heure des îles Gambier"}
        }
        "meta:Georgia"{
            ld{"heure d’été de Géorgie"}
            lg{"heure de la Géorgie"}
            ls{"heure normale de la Géorgie"}
        }
        "meta:Gilbert_Islands"{
            ls{"heure des îles Gilbert"}
        }
        "meta:Greenland_Eastern"{
            ld{"heure d’été de l’Est du Groenland"}
            lg{"heure de l’Est du Groenland"}
            ls{"heure normale de l’Est du Groenland"}
        }
        "meta:Greenland_Western"{
            ld{"heure d’été de l’Ouest du Groenland"}
            lg{"heure de l’Ouest du Groenland"}
            ls{"heure normale de l’Ouest du Groenland"}
        }
        "meta:Guam"{
            ls{"heure de Guam"}
        }
        "meta:Gulf"{
            ls{"heure du Golfe"}
        }
        "meta:Guyana"{
            ls{"heure du Guyana"}
        }
        "meta:Hawaii_Aleutian"{
            ld{"heure d’été d’Hawaii - Aléoutiennes"}
            lg{"heure d’Hawaii - Aléoutiennes"}
            ls{"heure normale d’Hawaii - Aléoutiennes"}
        }
        "meta:Hong_Kong"{
            ld{"heure d’été de Hong Kong"}
            lg{"heure de Hong Kong"}
            ls{"heure normale de Hong Kong"}
        }
        "meta:Hovd"{
            ld{"heure d’été de Hovd"}
            lg{"heure de Hovd"}
            ls{"heure normale de Hovd"}
        }
        "meta:India"{
            ls{"heure de l’Inde"}
        }
        "meta:Indian_Ocean"{
            ls{"heure de l’Océan Indien"}
        }
        "meta:Indochina"{
            ls{"heure d’Indochine"}
        }
        "meta:Indonesia_Central"{
            ls{"heure du Centre indonésien"}
        }
        "meta:Indonesia_Eastern"{
            ls{"heure de l’Est indonésien"}
        }
        "meta:Indonesia_Western"{
            ls{"heure de l’Ouest indonésien"}
        }
        "meta:Iran"{
            ld{"heure d’été d’Iran"}
            lg{"heure de l’Iran"}
            ls{"heure normale d’Iran"}
        }
        "meta:Irkutsk"{
            ld{"heure d’été d’Irkoutsk"}
            lg{"heure d’Irkoutsk"}
            ls{"heure normale d’Irkoutsk"}
        }
        "meta:Israel"{
            ld{"heure d’été d’Israël"}
            lg{"heure d’Israël"}
            ls{"heure normale d’Israël"}
        }
        "meta:Japan"{
            ld{"heure d’été du Japon"}
            lg{"heure du Japon"}
            ls{"heure normale du Japon"}
        }
        "meta:Kamchatka"{
            ld{"heure d’été de Petropavlovsk-Kamchatski"}
            lg{"heure de Petropavlovsk-Kamchatski"}
            ls{"heure normale de Petropavlovsk-Kamchatski"}
        }
        "meta:Kazakhstan_Eastern"{
            ls{"heure de l’Est du Kazakhstan"}
        }
        "meta:Kazakhstan_Western"{
            ls{"heure de l’Ouest du Kazakhstan"}
        }
        "meta:Korea"{
            ld{"heure d’été de Corée"}
            lg{"heure de la Corée"}
            ls{"heure normale de la Corée"}
        }
        "meta:Kosrae"{
            ls{"heure de Kosrae"}
        }
        "meta:Krasnoyarsk"{
            ld{"heure d’été de Krasnoïarsk"}
            lg{"heure de Krasnoïarsk"}
            ls{"heure normale de Krasnoïarsk"}
        }
        "meta:Kyrgystan"{
            ls{"heure du Kirghizistan"}
        }
        "meta:Line_Islands"{
            ls{"heure des îles de la Ligne"}
        }
        "meta:Lord_Howe"{
            ld{"heure d’été de Lord Howe"}
            lg{"heure de Lord Howe"}
            ls{"heure normale de Lord Howe"}
        }
        "meta:Macquarie"{
            ls{"heure de l’île Macquarie"}
        }
        "meta:Magadan"{
            ld{"heure d’été de Magadan"}
            lg{"heure de Magadan"}
            ls{"heure normale de Magadan"}
        }
        "meta:Malaysia"{
            ls{"heure de la Malaisie"}
        }
        "meta:Maldives"{
            ls{"heure des Maldives"}
        }
        "meta:Marquesas"{
            ls{"heure des îles Marquises"}
        }
        "meta:Marshall_Islands"{
            ls{"heure des îles Marshall"}
        }
        "meta:Mauritius"{
            ld{"heure d’été de Maurice"}
            lg{"heure de Maurice"}
            ls{"heure normale de Maurice"}
        }
        "meta:Mawson"{
            ls{"heure de Mawson"}
        }
        "meta:Mexico_Northwest"{
            ld{"heure d’été du Nord-Ouest du Mexique"}
            lg{"heure du Nord-Ouest du Mexique"}
            ls{"heure normale du Nord-Ouest du Mexique"}
        }
        "meta:Mexico_Pacific"{
            ld{"heure d’été du Pacifique mexicain"}
            lg{"heure du Pacifique mexicain"}
            ls{"heure normale du Pacifique mexicain"}
        }
        "meta:Mongolia"{
            ld{"heure d’été d’Oulan-Bator"}
            lg{"heure d’Oulan-Bator"}
            ls{"heure normale d’Oulan-Bator"}
        }
        "meta:Moscow"{
            ld{"heure d’été de Moscou"}
            lg{"heure de Moscou"}
            ls{"heure normale de Moscou"}
        }
        "meta:Myanmar"{
            ls{"heure du Myanmar"}
        }
        "meta:Nauru"{
            ls{"heure de Nauru"}
        }
        "meta:Nepal"{
            ls{"heure du Népal"}
        }
        "meta:New_Caledonia"{
            ld{"heure d’été de Nouvelle-Calédonie"}
            lg{"heure de la Nouvelle-Calédonie"}
            ls{"heure normale de la Nouvelle-Calédonie"}
        }
        "meta:New_Zealand"{
            ld{"heure d’été de la Nouvelle-Zélande"}
            lg{"heure de la Nouvelle-Zélande"}
            ls{"heure normale de la Nouvelle-Zélande"}
        }
        "meta:Newfoundland"{
            ld{"heure d’été de Terre-Neuve"}
            lg{"heure de Terre-Neuve"}
            ls{"heure normale de Terre-Neuve"}
        }
        "meta:Niue"{
            ls{"heure de Nioué"}
        }
        "meta:Norfolk"{
            ls{"heure de l’île Norfolk"}
        }
        "meta:Noronha"{
            ld{"heure d’été de Fernando de Noronha"}
            lg{"heure de Fernando de Noronha"}
            ls{"heure normale de Fernando de Noronha"}
        }
        "meta:North_Mariana"{
            ls{"heure des îles Mariannes du Nord"}
        }
        "meta:Novosibirsk"{
            ld{"heure d’été de Novossibirsk"}
            lg{"heure de Novossibirsk"}
            ls{"heure normale de Novossibirsk"}
        }
        "meta:Omsk"{
            ld{"heure d’été de Omsk"}
            lg{"heure de Omsk"}
            ls{"heure normale de Omsk"}
        }
        "meta:Pakistan"{
            ld{"heure d’été du Pakistan"}
            lg{"heure du Pakistan"}
            ls{"heure normale du Pakistan"}
        }
        "meta:Palau"{
            ls{"heure des Palaos"}
        }
        "meta:Papua_New_Guinea"{
            ls{"heure de la Papouasie-Nouvelle-Guinée"}
        }
        "meta:Paraguay"{
            ld{"heure d’été du Paraguay"}
            lg{"heure du Paraguay"}
            ls{"heure normale du Paraguay"}
        }
        "meta:Peru"{
            ld{"heure d’été du Pérou"}
            lg{"heure du Pérou"}
            ls{"heure normale du Pérou"}
        }
        "meta:Philippines"{
            ld{"heure d’été des Philippines"}
            lg{"heure des Philippines"}
            ls{"heure normale des Philippines"}
        }
        "meta:Phoenix_Islands"{
            ls{"heure des îles Phoenix"}
        }
        "meta:Pierre_Miquelon"{
            ld{"heure d’été de Saint-Pierre-et-Miquelon"}
            lg{"heure de Saint-Pierre-et-Miquelon"}
            ls{"heure normale de Saint-Pierre-et-Miquelon"}
        }
        "meta:Pitcairn"{
            ls{"heure des îles Pitcairn"}
        }
        "meta:Ponape"{
            ls{"heure de l’île de Pohnpei"}
        }
        "meta:Pyongyang"{
            ls{"heure de Pyongyang"}
        }
        "meta:Reunion"{
            ls{"heure de La Réunion"}
        }
        "meta:Rothera"{
            ls{"heure de Rothera"}
        }
        "meta:Sakhalin"{
            ld{"heure d’été de Sakhaline"}
            lg{"heure de Sakhaline"}
            ls{"heure normale de Sakhaline"}
        }
        "meta:Samara"{
            ld{"heure d’été de Samara"}
            lg{"heure de Samara"}
            ls{"heure normale de Samara"}
        }
        "meta:Samoa"{
            ld{"heure d’été des Samoa"}
            lg{"heure des Samoa"}
            ls{"heure normale des Samoa"}
        }
        "meta:Seychelles"{
            ls{"heure des Seychelles"}
        }
        "meta:Singapore"{
            ls{"heure de Singapour"}
        }
        "meta:Solomon"{
            ls{"heure des îles Salomon"}
        }
        "meta:South_Georgia"{
            ls{"heure de Géorgie du Sud"}
        }
        "meta:Suriname"{
            ls{"heure du Suriname"}
        }
        "meta:Syowa"{
            ls{"heure de Syowa"}
        }
        "meta:Tahiti"{
            ls{"heure de Tahiti"}
        }
        "meta:Taipei"{
            ld{"heure d’été de Taipei"}
            lg{"heure de Taipei"}
            ls{"heure normale de Taipei"}
        }
        "meta:Tajikistan"{
            ls{"heure du Tadjikistan"}
        }
        "meta:Tokelau"{
            ls{"heure de Tokelau"}
        }
        "meta:Tonga"{
            ld{"heure d’été de Tonga"}
            lg{"heure des Tonga"}
            ls{"heure normale des Tonga"}
        }
        "meta:Truk"{
            ls{"heure de Chuuk"}
        }
        "meta:Turkmenistan"{
            ld{"heure d’été du Turkménistan"}
            lg{"heure du Turkménistan"}
            ls{"heure normale du Turkménistan"}
        }
        "meta:Tuvalu"{
            ls{"heure des Tuvalu"}
        }
        "meta:Uruguay"{
            ld{"heure d’été de l’Uruguay"}
            lg{"heure de l’Uruguay"}
            ls{"heure normale de l’Uruguay"}
        }
        "meta:Uzbekistan"{
            ld{"heure d’été de l’Ouzbékistan"}
            lg{"heure de l’Ouzbékistan"}
            ls{"heure normale de l’Ouzbékistan"}
        }
        "meta:Vanuatu"{
            ld{"heure d’été de Vanuatu"}
            lg{"heure du Vanuatu"}
            ls{"heure normale du Vanuatu"}
        }
        "meta:Venezuela"{
            ls{"heure du Venezuela"}
        }
        "meta:Vladivostok"{
            ld{"heure d’été de Vladivostok"}
            lg{"heure de Vladivostok"}
            ls{"heure normale de Vladivostok"}
        }
        "meta:Volgograd"{
            ld{"heure d’été de Volgograd"}
            lg{"heure de Volgograd"}
            ls{"heure normale de Volgograd"}
        }
        "meta:Vostok"{
            ls{"heure de Vostok"}
        }
        "meta:Wake"{
            ls{"heure de l’île Wake"}
        }
        "meta:Wallis"{
            ls{"heure de Wallis-et-Futuna"}
        }
        "meta:Yakutsk"{
            ld{"heure d’été de Iakoutsk"}
            lg{"heure de Iakoutsk"}
            ls{"heure normale de Iakoutsk"}
        }
        "meta:Yekaterinburg"{
            ld{"heure d’été d’Ekaterinbourg"}
            lg{"heure d’Ekaterinbourg"}
            ls{"heure normale d’Ekaterinbourg"}
        }
        fallbackFormat{"{1} ({0})"}
        gmtFormat{"UTC{0}"}
        gmtZeroFormat{"UTC"}
        hourFormat{"+HH:mm;−HH:mm"}
        regionFormat{"heure : {0}"}
        regionFormatDaylight{"{0} (heure d’été)"}
        regionFormatStandard{"{0} (heure standard)"}
    }
}
