﻿// © 2016 and later: Unicode, Inc. and others.
// License & terms of use: http://www.unicode.org/copyright.html#License
ky{
    Version{"2.1.41.97"}
    zoneStrings{
        "Etc:UTC"{
            ls{"Бирдиктүү дүйнөлүк убакыт"}
        }
        "Europe:Dublin"{
            ld{"Ирландия кышкы убакыты"}
        }
        "Europe:London"{
            ld{"Британия жайкы убактысы"}
        }
        "meta:Afghanistan"{
            ls{"Афганистан убактысы"}
        }
        "meta:Africa_Central"{
            ls{"Борбордук Африка убактысы"}
        }
        "meta:Africa_Eastern"{
            ls{"Чыгыш Африка убактысы"}
        }
        "meta:Africa_Southern"{
            ls{"Түштүк Африка убактысы"}
        }
        "meta:Africa_Western"{
            ld{"Батыш Африка жайкы убактысы"}
            lg{"Батыш Африка убактысы"}
            ls{"Батыш Африка кышкы убакыты"}
        }
        "meta:Alaska"{
            ld{"Аляска жайкы убактысы"}
            lg{"Аляска убактысы"}
            ls{"Аляска кышкы убактысы"}
        }
        "meta:Amazon"{
            ld{"Амазон жайкы убактысы"}
            lg{"Амазон убактысы"}
            ls{"Амазон кышкы убактысы"}
        }
        "meta:America_Central"{
            ld{"Түндүк Америка, борбордук жайкы убакыт"}
            lg{"Түндүк Америка, борбордук убакыт"}
            ls{"Түндүк Америка, борбордук кышкы убактысы"}
        }
        "meta:America_Eastern"{
            ld{"Түндүк Америка, чыгыш жайкы убактысы"}
            lg{"Түндүк Америка, чыгыш убактысы"}
            ls{"Түндүк Америка, чыгыш кышкы убактысы"}
        }
        "meta:America_Mountain"{
            ld{"Түндүк Америка, тоо жайкы убактысы"}
            lg{"Түндүк Америка, тоо убактысы"}
            ls{"Түндүк Америка, тоо кышкы убактысы"}
        }
        "meta:America_Pacific"{
            ld{"Түндүк Америка, Тынч океан жайкы убактысы"}
            lg{"Түндүк Америка, Тынч океан убактысы"}
            ls{"Түндүк Америка, Тынч океан кышкы убактысы"}
        }
        "meta:Apia"{
            ld{"Апиа жайкы убактысы"}
            lg{"Апиа убактысы"}
            ls{"Апиа кышкы убакыты"}
        }
        "meta:Arabian"{
            ld{"Арабия жайкы убакыты"}
            lg{"Арабия убактысы"}
            ls{"Арабия кышкы убакыты"}
        }
        "meta:Argentina"{
            ld{"Аргентина жайкы убактысы"}
            lg{"Аргентина убактысы"}
            ls{"Аргентина кышкы убактысы"}
        }
        "meta:Argentina_Western"{
            ld{"Батыш Аргентина жайкы убактысы"}
            lg{"Батыш Аргентина убактысы"}
            ls{"Батыш Аргентина кышкы убактысы"}
        }
        "meta:Armenia"{
            ld{"Армения жайкы убактысы"}
            lg{"Армения убактысы"}
            ls{"Армения кышкы убакыты"}
        }
        "meta:Atlantic"{
            ld{"Атлантика жайкы убактысы"}
            lg{"Атлантика убактысы"}
            ls{"Атлантика кышкы убактысы"}
        }
        "meta:Australia_Central"{
            ld{"Австралия борбордук жайкы убактысы"}
            lg{"Австралия борбордук убактысы"}
            ls{"Австралия борбордук кышкы убакыты"}
        }
        "meta:Australia_CentralWestern"{
            ld{"Австралия борбордук чыгыш жайкы убактысы"}
            lg{"Австралия борбордук батыш убактысы"}
            ls{"Австралия борбордук батыш кышкы убакыты"}
        }
        "meta:Australia_Eastern"{
            ld{"Австралия чыгыш жайкы убактысы"}
            lg{"Австралия чыгыш убактысы"}
            ls{"Австралия чыгыш кышкы убакыты"}
        }
        "meta:Australia_Western"{
            ld{"Австралия батыш жайкы убактысы"}
            lg{"Австралия батыш убактысы"}
            ls{"Австралия батыш кышкы убакыты"}
        }
        "meta:Azerbaijan"{
            ld{"Азербайжан жайкы убактысы"}
            lg{"Азербайжан убактысы"}
            ls{"Азербайжан кышкы убакыты"}
        }
        "meta:Azores"{
            ld{"Азорс жайкы убактысы"}
            lg{"Азор убактысы"}
            ls{"Азор кышкы убакыты"}
        }
        "meta:Bangladesh"{
            ld{"Бангладеш жайкы убактысы"}
            lg{"Бангладеш убактысы"}
            ls{"Бангладеш кышкы убакыты"}
        }
        "meta:Bhutan"{
            ls{"Бутан убактысы"}
        }
        "meta:Bolivia"{
            ls{"Боливия убактысы"}
        }
        "meta:Brasilia"{
            ld{"Бразилия жайкы убактысы"}
            lg{"Бразилия убактысы"}
            ls{"Бразилия кышкы убактысы"}
        }
        "meta:Brunei"{
            ls{"Бруней Даруссалам убактысы"}
        }
        "meta:Cape_Verde"{
            ld{"Капе Верде жайкы убактысы"}
            lg{"Капе Верде убактысы"}
            ls{"Капе Верде кышкы убакыты"}
        }
        "meta:Chamorro"{
            ls{"Чаморро убактысы"}
        }
        "meta:Chatham"{
            ld{"Чатам жайкы убактысы"}
            lg{"Чатам убактысы"}
            ls{"Чатам кышкы убакыт"}
        }
        "meta:Chile"{
            ld{"Чили жайкы убактысы"}
            lg{"Чили убактысы"}
            ls{"Чили кышкы убактысы"}
        }
        "meta:China"{
            ld{"Кытай жайкы убакыты"}
            lg{"Кытай убактысы"}
            ls{"Кытай кышкы убакыты"}
        }
        "meta:Choibalsan"{
            ld{"Чойбалсан жайкы убактысы"}
            lg{"Чойбалсан убактысы"}
            ls{"Чойбалсан кышкы убакыты"}
        }
        "meta:Christmas"{
            ls{"Крисмас аралынын убактысы"}
        }
        "meta:Cocos"{
            ls{"Кокос аралдарынын убактысы"}
        }
        "meta:Colombia"{
            ld{"Колумбия жайкы убактысы"}
            lg{"Колумбия убактысы"}
            ls{"Колумбия кышкы убактысы"}
        }
        "meta:Cook"{
            ld{"Кук аралдарынын жарым жайкы убактысы"}
            lg{"Кук аралдарынын убактысы"}
            ls{"Кук аралдарынын кышкы убакыты"}
        }
        "meta:Cuba"{
            ld{"Куба жайкы убактысы"}
            lg{"Куба убактысы"}
            ls{"Куба кышкы убактысы"}
        }
        "meta:Davis"{
            ls{"Дэвис убактысы"}
        }
        "meta:DumontDUrville"{
            ls{"Дюмон-д-Урвил убактысы"}
        }
        "meta:East_Timor"{
            ls{"Чыгыш Тимор убактысы"}
        }
        "meta:Easter"{
            ld{"Истер аралынын жайкы убакыты"}
            lg{"Истер аралынын убактысы"}
            ls{"Истер аралынын кышкы убакыты"}
        }
        "meta:Ecuador"{
            ls{"Экуадор убактысы"}
        }
        "meta:Europe_Central"{
            ld{"Борбордук Европа жайкы убактысы"}
            lg{"Борбордук Европа убактысы"}
            ls{"Борбордук Европа кышкы убакыты"}
        }
        "meta:Europe_Eastern"{
            ld{"Чыгыш Европа жайкы убактысы"}
            lg{"Чыгыш Европа убактысы"}
            ls{"Чыгыш Европа кышкы убакыты"}
        }
        "meta:Europe_Further_Eastern"{
            ls{"Калининград жана Минск убактысы"}
        }
        "meta:Europe_Western"{
            ld{"Батыш Европа жайкы убактысы"}
            lg{"Батыш Европа убактысы"}
            ls{"Батыш Европа кышкы убакыты"}
        }
        "meta:Falkland"{
            ld{"Фолкленд аралдарынын жайкы убактысы"}
            lg{"Фолкленд аралдарынын убактысы"}
            ls{"Фолкленд аралдарынын кышкы убакыты"}
        }
        "meta:Fiji"{
            ld{"Фижи жайкы убактысы"}
            lg{"Фижи убактысы"}
            ls{"Фижи кышкы убакыты"}
        }
        "meta:French_Guiana"{
            ls{"Француз Гвиана убактысы"}
        }
        "meta:French_Southern"{
            ls{"Француз Түштүгү жана Антарктика убактысы"}
        }
        "meta:GMT"{
            ls{"GMT, кышкы убакыты"}
        }
        "meta:Galapagos"{
            ls{"Галапагос убактысы"}
        }
        "meta:Gambier"{
            ls{"Гамбие убактысы"}
        }
        "meta:Georgia"{
            ld{"Грузия жайкы убактысы"}
            lg{"Грузия убактысы"}
            ls{"Грузия кышкы убакыты"}
        }
        "meta:Gilbert_Islands"{
            ls{"Гилберт убактысы"}
        }
        "meta:Greenland_Eastern"{
            ld{"Чыгыш Гренландия жайкы убактысы"}
            lg{"Чыгыш Гренландия убактысы"}
            ls{"Чыгыш Гренландия кышкы убактысы"}
        }
        "meta:Greenland_Western"{
            ld{"Батыш Гренландия жайкы убактысы"}
            lg{"Батыш Гренландия убактысы"}
            ls{"Батыш Гренландия кышкы убактысы"}
        }
        "meta:Gulf"{
            ls{"Персия булуңунун жайкы убакыты"}
        }
        "meta:Guyana"{
            ls{"Гвиана убактысы"}
        }
        "meta:Hawaii_Aleutian"{
            ld{"Гавайи-Алеут жайкы убактысы"}
            lg{"Гавайи-Алеут убактысы"}
            ls{"Гавайи-Алеут кышкы убактысы"}
        }
        "meta:Hong_Kong"{
            ld{"Гонконг жайкы убактысы"}
            lg{"Гонконг убактысы"}
            ls{"Гонконг кышкы убакыты"}
        }
        "meta:Hovd"{
            ld{"Ховд жайкы убактысы"}
            lg{"Ховд убактысы"}
            ls{"Ховд кышкы убакыты"}
        }
        "meta:India"{
            ls{"Индия убактысы"}
        }
        "meta:Indian_Ocean"{
            ls{"Инди океан убактысы"}
        }
        "meta:Indochina"{
            ls{"Индокытай убактысы"}
        }
        "meta:Indonesia_Central"{
            ls{"Борбордук Индонезия убактысы"}
        }
        "meta:Indonesia_Eastern"{
            ls{"Чыгыш Индонезия убактысы"}
        }
        "meta:Indonesia_Western"{
            ls{"Батыш Индонезия убактысы"}
        }
        "meta:Iran"{
            ld{"Иран күндүзгү убактысы"}
            lg{"Иран убактысы"}
            ls{"Иран кышкы убакыты"}
        }
        "meta:Irkutsk"{
            ld{"Иркутск жайкы убакыты"}
            lg{"Иркутск убактысы"}
            ls{"Иркутск кышкы убакыты"}
        }
        "meta:Israel"{
            ld{"Израиль жайкы убакыты"}
            lg{"Израиль убакыты"}
            ls{"Израиль кышкы убакыты"}
        }
        "meta:Japan"{
            ld{"Жапон жайкы убактысы"}
            lg{"Жапон убактысы"}
            ls{"Жапон кышкы убакыты"}
        }
        "meta:Kazakhstan_Eastern"{
            ls{"Чыгыш Казакстан убактысы"}
        }
        "meta:Kazakhstan_Western"{
            ls{"Батыш Казакстан убактысы"}
        }
        "meta:Korea"{
            ld{"Корея жайкы убакыты"}
            lg{"Корея убактысы"}
            ls{"Корея кышкы убакыты"}
        }
        "meta:Kosrae"{
            ls{"Косрае убактысы"}
        }
        "meta:Krasnoyarsk"{
            ld{"Красноярск жайкы убактысы"}
            lg{"Красноярск убактысы"}
            ls{"Красноярск кышкы убакыты"}
        }
        "meta:Kyrgystan"{
            ls{"Кыргызстан убактысы"}
        }
        "meta:Line_Islands"{
            ls{"Лайн аралдарынын убактысы"}
        }
        "meta:Lord_Howe"{
            ld{"Лорд Хау жайкы убактысы"}
            lg{"Лорд Хау убактысы"}
            ls{"Лорд Хау кышкы убакыты"}
        }
        "meta:Macquarie"{
            ls{"Макуари убактысы"}
        }
        "meta:Magadan"{
            ld{"Магадан жайкы убактысы"}
            lg{"Магадан убактысы"}
            ls{"Магадан кышкы убакыты"}
        }
        "meta:Malaysia"{
            ls{"Малайзия убактысы"}
        }
        "meta:Maldives"{
            ls{"Мальдив убактысы"}
        }
        "meta:Marquesas"{
            ls{"Маркезас убактысы"}
        }
        "meta:Marshall_Islands"{
            ls{"Маршалл аралдарынын убактысы"}
        }
        "meta:Mauritius"{
            ld{"Маврикий жайкы убактысы"}
            lg{"Маврикий убактысы"}
            ls{"Маврикий кышкы убакыты"}
        }
        "meta:Mawson"{
            ls{"Моусон убактысы"}
        }
        "meta:Mexico_Northwest"{
            ld{"Түндүк-чыгыш Мексика жайкы убактысы"}
            lg{"Түндүк-чыгыш Мексика убактысы"}
            ls{"Түндүк-чыгыш Мексика кышкы убактысы"}
        }
        "meta:Mexico_Pacific"{
            ld{"Мексика, Тынч океан жайкы убактысы"}
            lg{"Мексика, Тынч океан убактысы"}
            ls{"Мексика, Тынч океан кышкы убактысы"}
        }
        "meta:Mongolia"{
            ld{"Улан Батор жайкы убактысы"}
            lg{"Улан Батор убактысы"}
            ls{"Улан Батор кышкы убакыты"}
        }
        "meta:Moscow"{
            ld{"Москва жайкы убактысы"}
            lg{"Москва убактысы"}
            ls{"Москва кышкы убакыты"}
        }
        "meta:Myanmar"{
            ls{"Мйанмар убактысы"}
        }
        "meta:Nauru"{
            ls{"Науру убактысы"}
        }
        "meta:Nepal"{
            ls{"Непал убактысы"}
        }
        "meta:New_Caledonia"{
            ld{"Жаӊы Каледония жайкы убактысы"}
            lg{"Жаӊы Каледония убактысы"}
            ls{"Жаӊы Каледония кышкы убакыты"}
        }
        "meta:New_Zealand"{
            ld{"Жаңы Зеландия жайкы убакыты"}
            lg{"Жаӊы Зеландия убактысы"}
            ls{"Жаӊы Зеландия кышкы убакыты"}
        }
        "meta:Newfoundland"{
            ld{"Нюфаундлэнд жайкы убактысы"}
            lg{"Нюфаундлэнд убактысы"}
            ls{"Нюфаундлэнд кышкы убактысы"}
        }
        "meta:Niue"{
            ls{"Ниуэ убактысы"}
        }
        "meta:Norfolk"{
            ls{"Норфолк убактысы"}
        }
        "meta:Noronha"{
            ld{"Фернандо де Норонья жайкы убактысы"}
            lg{"Фернандо де Норонья убактысы"}
            ls{"Фернандо де Норонья кышкы убактысы"}
        }
        "meta:Novosibirsk"{
            ld{"Новосибирск жайкы убактысы"}
            lg{"Новосибирск убактысы"}
            ls{"Новосибирск кышкы убакыты"}
        }
        "meta:Omsk"{
            ld{"Омск жайкы убактысы"}
            lg{"Омск убактысы"}
            ls{"Омск кышкы убакыты"}
        }
        "meta:Pakistan"{
            ld{"Пакистан жайкы убактысы"}
            lg{"Пакистан убактысы"}
            ls{"Пакистан кышкы убакыты"}
        }
        "meta:Palau"{
            ls{"Палау убактысы"}
        }
        "meta:Papua_New_Guinea"{
            ls{"Папуа-Жаңы Гвинея убактысы"}
        }
        "meta:Paraguay"{
            ld{"Парагвай жайкы убактысы"}
            lg{"Парагвай убактысы"}
            ls{"Парагвай кышкы убактысы"}
        }
        "meta:Peru"{
            ld{"Перу жайкы убактысы"}
            lg{"Перу убактысы"}
            ls{"Перу кышкы убактысы"}
        }
        "meta:Philippines"{
            ld{"Филиппин аралдарынын жайкы убактысы"}
            lg{"Филиппин аралдарынын убактысы"}
            ls{"Филиппин аралдарынын кышкы убактысы"}
        }
        "meta:Phoenix_Islands"{
            ls{"Феникс аралдарынын убактысы"}
        }
        "meta:Pierre_Miquelon"{
            ld{"Сен Пьер жана Микелон жайкы убактысы"}
            lg{"Сен Пьер жана Микелон убактысы"}
            ls{"Сен Пьер жана Микелон кышкы убактысы"}
        }
        "meta:Pitcairn"{
            ls{"Питкэрнг убактысы"}
        }
        "meta:Ponape"{
            ls{"Понапе убактысы"}
        }
        "meta:Pyongyang"{
            ls{"Пхеньян убакыты"}
        }
        "meta:Reunion"{
            ls{"Реюнион убактысы"}
        }
        "meta:Rothera"{
            ls{"Ротера убактысы"}
        }
        "meta:Sakhalin"{
            ld{"Сахалин жайкы убактысы"}
            lg{"Сахалин убактысы"}
            ls{"Сахалин кышкы убакыты"}
        }
        "meta:Samoa"{
            ld{"Самоа жайкы убактысы"}
            lg{"Самоа убактысы"}
            ls{"Самоа кышкы убакыты"}
        }
        "meta:Seychelles"{
            ls{"Сейшел убактысы"}
        }
        "meta:Singapore"{
            ls{"Сингапур убактысы"}
        }
        "meta:Solomon"{
            ls{"Соломон аралдарынын убактысы"}
        }
        "meta:South_Georgia"{
            ls{"Түштүк Жоржия убактысы"}
        }
        "meta:Suriname"{
            ls{"Суринаме убактысы"}
        }
        "meta:Syowa"{
            ls{"Саоа убактысы"}
        }
        "meta:Tahiti"{
            ls{"Таити убактысы"}
        }
        "meta:Taipei"{
            ld{"Тайпей жайкы убакыты"}
            lg{"Тайпей убактысы"}
            ls{"Тайпей кышкы убакыты"}
        }
        "meta:Tajikistan"{
            ls{"Тажикстан убактысы"}
        }
        "meta:Tokelau"{
            ls{"Токелау убактысы"}
        }
        "meta:Tonga"{
            ld{"Тонга жайкы убактысы"}
            lg{"Тонга убактысы"}
            ls{"Тонга кышкы убакыты"}
        }
        "meta:Truk"{
            ls{"Чуук убактысы"}
        }
        "meta:Turkmenistan"{
            ld{"Түркмөнстан жайкы убактысы"}
            lg{"Түркмөнстан убактысы"}
            ls{"Түркмөнстан кышкы убакыты"}
        }
        "meta:Tuvalu"{
            ls{"Тувалу убактысы"}
        }
        "meta:Uruguay"{
            ld{"Уругвай жайкы убактысы"}
            lg{"Уругвай убактысы"}
            ls{"Уругвай кышкы убактысы"}
        }
        "meta:Uzbekistan"{
            ld{"Өзбекстан жайкы убактысы"}
            lg{"Өзбекстан убактысы"}
            ls{"Өзбекстан кышкы убакыты"}
        }
        "meta:Vanuatu"{
            ld{"Вануату жайкы убактысы"}
            lg{"Вануату убактысы"}
            ls{"Вануату кышкы убакыты"}
        }
        "meta:Venezuela"{
            ls{"Венесуэла убактысы"}
        }
        "meta:Vladivostok"{
            ld{"Владивосток жайкы убактысы"}
            lg{"Владивосток убактысы"}
            ls{"Владивосток кышкы убакыты"}
        }
        "meta:Volgograd"{
            ld{"Волгоград жайкы убактысы"}
            lg{"Волгоград убактысы"}
            ls{"Волгоград кышкы убакыты"}
        }
        "meta:Vostok"{
            ls{"Восток убактысы"}
        }
        "meta:Wake"{
            ls{"Уейк аралдарынын убактысы"}
        }
        "meta:Wallis"{
            ls{"Уолис жана Футуна убактысы"}
        }
        "meta:Yakutsk"{
            ld{"Якутск жайкы убактысы"}
            lg{"Якутск убактысы"}
            ls{"Якутск кышкы убакыты"}
        }
        "meta:Yekaterinburg"{
            ld{"Екатеринбург жайкы убактысы"}
            lg{"Екатеринбург убактысы"}
            ls{"Екатеринбург кышкы убакыты"}
        }
        fallbackFormat{"{1} ({0})"}
        gmtFormat{"GMT{0}"}
        gmtZeroFormat{"GMT"}
        hourFormat{"+HH:mm;-HH:mm"}
        regionFormat{"{0} убактысы"}
        regionFormatDaylight{"{0} (+1)"}
        regionFormatStandard{"{0} (+0)"}
    }
}
