﻿// © 2016 and later: Unicode, Inc. and others.
// License & terms of use: http://www.unicode.org/copyright.html#License
lt{
    Version{"2.1.41.97"}
    zoneStrings{
        "Etc:UTC"{
            ls{"pasaulio suderintasis laikas"}
        }
        "Europe:Dublin"{
            ld{"Airijos vasaros laikas"}
        }
        "Europe:London"{
            ld{"Britanijos vasaros laikas"}
        }
        "meta:Acre"{
            ld{"Ako vasaros laikas"}
            lg{"Ako laikas"}
            ls{"Ako standartinis laikas"}
        }
        "meta:Afghanistan"{
            ls{"Afganistano laikas"}
        }
        "meta:Africa_Central"{
            ls{"Centrinės Afrikos laikas"}
        }
        "meta:Africa_Eastern"{
            ls{"Rytų Afrikos laikas"}
        }
        "meta:Africa_Southern"{
            ls{"Pietų Afrikos laikas"}
        }
        "meta:Africa_Western"{
            ld{"Vakarų Afrikos vasaros laikas"}
            lg{"Vakarų Afrikos laikas"}
            ls{"Vakarų Afrikos žiemos laikas"}
        }
        "meta:Alaska"{
            ld{"Aliaskos vasaros laikas"}
            lg{"Aliaskos laikas"}
            ls{"Aliaskos žiemos laikas"}
        }
        "meta:Almaty"{
            ld{"Almatos vasaros laikas"}
            lg{"Almatos laikas"}
            ls{"Almatos žiemos laikas"}
        }
        "meta:Amazon"{
            ld{"Amazonės vasaros laikas"}
            lg{"Amazonės laikas"}
            ls{"Amazonės žiemos laikas"}
        }
        "meta:America_Central"{
            ld{"Šiaurės Amerikos centro vasaros laikas"}
            lg{"Šiaurės Amerikos centro laikas"}
            ls{"Šiaurės Amerikos centro žiemos laikas"}
        }
        "meta:America_Eastern"{
            ld{"Šiaurės Amerikos rytų vasaros laikas"}
            lg{"Šiaurės Amerikos rytų laikas"}
            ls{"Šiaurės Amerikos rytų žiemos laikas"}
        }
        "meta:America_Mountain"{
            ld{"Šiaurės Amerikos kalnų vasaros laikas"}
            lg{"Šiaurės Amerikos kalnų laikas"}
            ls{"Šiaurės Amerikos kalnų žiemos laikas"}
        }
        "meta:America_Pacific"{
            ld{"Šiaurės Amerikos Ramiojo vandenyno vasaros laikas"}
            lg{"Šiaurės Amerikos Ramiojo vandenyno laikas"}
            ls{"Šiaurės Amerikos Ramiojo vandenyno žiemos laikas"}
        }
        "meta:Anadyr"{
            ld{"Anadyrės vasaros laikas"}
            lg{"Anadyrės laikas"}
            ls{"Anadyrės žiemos laikas"}
        }
        "meta:Apia"{
            ld{"Apijos vasaros laikas"}
            lg{"Apijos laikas"}
            ls{"Apijos žiemos laikas"}
        }
        "meta:Aqtau"{
            ld{"Aktau vasaros laikas"}
            lg{"Aktau laikas"}
            ls{"Aktau žiemos laikas"}
        }
        "meta:Aqtobe"{
            ld{"Aktobės vasaros laikas"}
            lg{"Aktobės laikas"}
            ls{"Aktobės žiemos laikas"}
        }
        "meta:Arabian"{
            ld{"Arabijos vasaros laikas"}
            lg{"Arabijos laikas"}
            ls{"Arabijos žiemos laikas"}
        }
        "meta:Argentina"{
            ld{"Argentinos vasaros laikas"}
            lg{"Argentinos laikas"}
            ls{"Argentinos žiemos laikas"}
        }
        "meta:Argentina_Western"{
            ld{"Vakarų Argentinos vasaros laikas"}
            lg{"Vakarų Argentinos laikas"}
            ls{"Vakarų Argentinos žiemos laikas"}
        }
        "meta:Armenia"{
            ld{"Armėnijos vasaros laikas"}
            lg{"Armėnijos laikas"}
            ls{"Armėnijos žiemos laikas"}
        }
        "meta:Atlantic"{
            ld{"Atlanto vasaros laikas"}
            lg{"Atlanto laikas"}
            ls{"Atlanto žiemos laikas"}
        }
        "meta:Australia_Central"{
            ld{"Centrinės Australijos vasaros laikas"}
            lg{"Centrinės Australijos laikas"}
            ls{"Centrinės Australijos žiemos laikas"}
        }
        "meta:Australia_CentralWestern"{
            ld{"Centrinės vakarų Australijos vasaros laikas"}
            lg{"Centrinės vakarų Australijos laikas"}
            ls{"Centrinės vakarų Australijos žiemos laikas"}
        }
        "meta:Australia_Eastern"{
            ld{"Rytų Australijos vasaros laikas"}
            lg{"Rytų Australijos laikas"}
            ls{"Rytų Australijos žiemos laikas"}
        }
        "meta:Australia_Western"{
            ld{"Vakarų Australijos vasaros laikas"}
            lg{"Vakarų Australijos laikas"}
            ls{"Vakarų Australijos žiemos laikas"}
        }
        "meta:Azerbaijan"{
            ld{"Azerbaidžano vasaros laikas"}
            lg{"Azerbaidžano laikas"}
            ls{"Azerbaidžano žiemos laikas"}
        }
        "meta:Azores"{
            ld{"Azorų Salų vasaros laikas"}
            lg{"Azorų Salų laikas"}
            ls{"Azorų Salų žiemos laikas"}
        }
        "meta:Bangladesh"{
            ld{"Bangladešo vasaros laikas"}
            lg{"Bangladešo laikas"}
            ls{"Bangladešo žiemos laikas"}
        }
        "meta:Bhutan"{
            ls{"Butano laikas"}
        }
        "meta:Bolivia"{
            ls{"Bolivijos laikas"}
        }
        "meta:Brasilia"{
            ld{"Brazilijos vasaros laikas"}
            lg{"Brazilijos laikas"}
            ls{"Brazilijos žiemos laikas"}
        }
        "meta:Brunei"{
            ls{"Brunėjaus Darusalamo laikas"}
        }
        "meta:Cape_Verde"{
            ld{"Žaliojo Kyšulio vasaros laikas"}
            lg{"Žaliojo Kyšulio laikas"}
            ls{"Žaliojo Kyšulio žiemos laikas"}
        }
        "meta:Casey"{
            ls{"Keisio laikas"}
        }
        "meta:Chamorro"{
            ls{"Čamoro laikas"}
        }
        "meta:Chatham"{
            ld{"Čatamo vasaros laikas"}
            lg{"Čatamo laikas"}
            ls{"Čatamo žiemos laikas"}
        }
        "meta:Chile"{
            ld{"Čilės vasaros laikas"}
            lg{"Čilės laikas"}
            ls{"Čilės žiemos laikas"}
        }
        "meta:China"{
            ld{"Kinijos vasaros laikas"}
            lg{"Kinijos laikas"}
            ls{"Kinijos žiemos laikas"}
        }
        "meta:Choibalsan"{
            ld{"Čoibalsano vasaros laikas"}
            lg{"Čoibalsano laikas"}
            ls{"Čoibalsano žiemos laikas"}
        }
        "meta:Christmas"{
            ls{"Kalėdų Salos laikas"}
        }
        "meta:Cocos"{
            ls{"Kokosų Salų laikas"}
        }
        "meta:Colombia"{
            ld{"Kolumbijos vasaros laikas"}
            lg{"Kolumbijos laikas"}
            ls{"Kolumbijos žiemos laikas"}
        }
        "meta:Cook"{
            ld{"Kuko Salų pusės vasaros laikas"}
            lg{"Kuko Salų laikas"}
            ls{"Kuko Salų žiemos laikas"}
        }
        "meta:Cuba"{
            ld{"Kubos vasaros laikas"}
            lg{"Kubos laikas"}
            ls{"Kubos žiemos laikas"}
        }
        "meta:Davis"{
            ls{"Deiviso laikas"}
        }
        "meta:DumontDUrville"{
            ls{"Diumono d’Urvilio laikas"}
        }
        "meta:East_Timor"{
            ls{"Rytų Timoro laikas"}
        }
        "meta:Easter"{
            ld{"Velykų Salos vasaros laikas"}
            lg{"Velykų Salos laikas"}
            ls{"Velykų salos žiemos laikas"}
        }
        "meta:Ecuador"{
            ls{"Ekvadoro laikas"}
        }
        "meta:Europe_Central"{
            ld{"Vidurio Europos vasaros laikas"}
            lg{"Vidurio Europos laikas"}
            ls{"Vidurio Europos žiemos laikas"}
        }
        "meta:Europe_Eastern"{
            ld{"Rytų Europos vasaros laikas"}
            lg{"Rytų Europos laikas"}
            ls{"Rytų Europos žiemos laikas"}
        }
        "meta:Europe_Further_Eastern"{
            ls{"Tolimųjų rytų Europos laikas"}
        }
        "meta:Europe_Western"{
            ld{"Vakarų Europos vasaros laikas"}
            lg{"Vakarų Europos laikas"}
            ls{"Vakarų Europos žiemos laikas"}
        }
        "meta:Falkland"{
            ld{"Folklando Salų vasaros laikas"}
            lg{"Folklando Salų laikas"}
            ls{"Folklandų Salų žiemos laikas"}
        }
        "meta:Fiji"{
            ld{"Fidžio vasaros laikas"}
            lg{"Fidžio laikas"}
            ls{"Fidžio žiemos laikas"}
        }
        "meta:French_Guiana"{
            ls{"Prancūzijos Gvianos laikas"}
        }
        "meta:French_Southern"{
            ls{"Pietų Prancūzijos ir antarktinis laikas"}
        }
        "meta:GMT"{
            ls{"Grinvičo laikas"}
        }
        "meta:Galapagos"{
            ls{"Galapagų laikas"}
        }
        "meta:Gambier"{
            ls{"Gambyro laikas"}
        }
        "meta:Georgia"{
            ld{"Gruzijos vasaros laikas"}
            lg{"Gruzijos laikas"}
            ls{"Gruzijos žiemos laikas"}
        }
        "meta:Gilbert_Islands"{
            ls{"Gilberto Salų laikas"}
        }
        "meta:Greenland_Eastern"{
            ld{"Grenlandijos rytų vasaros laikas"}
            lg{"Grenlandijos rytų laikas"}
            ls{"Grenlandijos rytų žiemos laikas"}
        }
        "meta:Greenland_Western"{
            ld{"Grenlandijos vakarų vasaros laikas"}
            lg{"Grenlandijos vakarų laikas"}
            ls{"Grenlandijos vakarų žiemos laikas"}
        }
        "meta:Guam"{
            ls{"Guamo laikas"}
        }
        "meta:Gulf"{
            ls{"Persijos įlankos laikas"}
        }
        "meta:Guyana"{
            ls{"Gajanos laikas"}
        }
        "meta:Hawaii_Aleutian"{
            ld{"Havajų–Aleutų vasaros laikas"}
            lg{"Havajų-Aleutų laikas"}
            ls{"Havajų–Aleutų žiemos laikas"}
        }
        "meta:Hong_Kong"{
            ld{"Honkongo vasaros laikas"}
            lg{"Honkongo laikas"}
            ls{"Honkongo žiemos laikas"}
        }
        "meta:Hovd"{
            ld{"Hovdo vasaros laikas"}
            lg{"Hovdo laikas"}
            ls{"Hovdo žiemos laikas"}
        }
        "meta:India"{
            ls{"Indijos laikas"}
        }
        "meta:Indian_Ocean"{
            ls{"Indijos vandenyno laikas"}
        }
        "meta:Indochina"{
            ls{"Indokinijos laikas"}
        }
        "meta:Indonesia_Central"{
            ls{"Centrinės Indonezijos laikas"}
        }
        "meta:Indonesia_Eastern"{
            ls{"Rytų Indonezijos laikas"}
        }
        "meta:Indonesia_Western"{
            ls{"Vakarų Indonezijos laikas"}
        }
        "meta:Iran"{
            ld{"Irano vasaros laikas"}
            lg{"Irano laikas"}
            ls{"Irano žiemos laikas"}
        }
        "meta:Irkutsk"{
            ld{"Irkutsko vasaros laikas"}
            lg{"Irkutsko laikas"}
            ls{"Irkutsko žiemos laikas"}
        }
        "meta:Israel"{
            ld{"Izraelio vasaros laikas"}
            lg{"Izraelio laikas"}
            ls{"Izraelio žiemos laikas"}
        }
        "meta:Japan"{
            ld{"Japonijos vasaros laikas"}
            lg{"Japonijos laikas"}
            ls{"Japonijos žiemos laikas"}
        }
        "meta:Kamchatka"{
            ld{"Kamčiatkos Petropavlovsko vasaros laikas"}
            lg{"Kamčiatkos Petropavlovsko laikas"}
            ls{"Kamčiatkos Petropavlovsko žiemos laikas"}
        }
        "meta:Kazakhstan_Eastern"{
            ls{"Rytų Kazachstano laikas"}
        }
        "meta:Kazakhstan_Western"{
            ls{"Vakarų Kazachstano laikas"}
        }
        "meta:Korea"{
            ld{"Korėjos vasaros laikas"}
            lg{"Korėjos laikas"}
            ls{"Korėjos žiemos laikas"}
        }
        "meta:Kosrae"{
            ls{"Kosrajė laikas"}
        }
        "meta:Krasnoyarsk"{
            ld{"Krasnojarsko vasaros laikas"}
            lg{"Krasnojarsko laikas"}
            ls{"Krasnojarsko žiemos laikas"}
        }
        "meta:Kyrgystan"{
            ls{"Kirgistano laikas"}
        }
        "meta:Lanka"{
            ls{"Lankos laikas"}
        }
        "meta:Line_Islands"{
            ls{"Laino Salų laikas"}
        }
        "meta:Lord_Howe"{
            ld{"Lordo Hau vasaros laikas"}
            lg{"Lordo Hau laikas"}
            ls{"Lordo Hau žiemos laikas"}
        }
        "meta:Macau"{
            ld{"Makau vasaros laikas"}
            lg{"Makau laikas"}
            ls{"Makau žiemos laikas"}
        }
        "meta:Macquarie"{
            ls{"Makvorio Salos laikas"}
        }
        "meta:Magadan"{
            ld{"Magadano vasaros laikas"}
            lg{"Magadano laikas"}
            ls{"Magadano žiemos laikas"}
        }
        "meta:Malaysia"{
            ls{"Malaizijos laikas"}
        }
        "meta:Maldives"{
            ls{"Maldyvų laikas"}
        }
        "meta:Marquesas"{
            ls{"Markizo Salų laikas"}
        }
        "meta:Marshall_Islands"{
            ls{"Maršalo Salų laikas"}
        }
        "meta:Mauritius"{
            ld{"Mauricijaus vasaros laikas"}
            lg{"Mauricijaus laikas"}
            ls{"Mauricijaus žiemos laikas"}
        }
        "meta:Mawson"{
            ls{"Mosono laikas"}
        }
        "meta:Mexico_Northwest"{
            ld{"Šiaurės Vakarų Meksikos vasaros laikas"}
            lg{"Šiaurės Vakarų Meksikos laikas"}
            ls{"Šiaurės Vakarų Meksikos žiemos laikas"}
        }
        "meta:Mexico_Pacific"{
            ld{"Meksikos Ramiojo vandenyno vasaros laikas"}
            lg{"Meksikos Ramiojo vandenyno laikas"}
            ls{"Meksikos Ramiojo vandenyno žiemos laikas"}
        }
        "meta:Mongolia"{
            ld{"Ulan Batoro vasaros laikas"}
            lg{"Ulan Batoro laikas"}
            ls{"Ulan Batoro žiemos laikas"}
        }
        "meta:Moscow"{
            ld{"Maskvos vasaros laikas"}
            lg{"Maskvos laikas"}
            ls{"Maskvos žiemos laikas"}
        }
        "meta:Myanmar"{
            ls{"Mianmaro laikas"}
        }
        "meta:Nauru"{
            ls{"Nauru laikas"}
        }
        "meta:Nepal"{
            ls{"Nepalo laikas"}
        }
        "meta:New_Caledonia"{
            ld{"Naujosios Kaledonijos vasaros laikas"}
            lg{"Naujosios Kaledonijos laikas"}
            ls{"Naujosios Kaledonijos žiemos laikas"}
        }
        "meta:New_Zealand"{
            ld{"Naujosios Zelandijos vasaros laikas"}
            lg{"Naujosios Zelandijos laikas"}
            ls{"Naujosios Zelandijos žiemos laikas"}
        }
        "meta:Newfoundland"{
            ld{"Niufaundlendo vasaros laikas"}
            lg{"Niufaundlendo laikas"}
            ls{"Niufaundlendo žiemos laikas"}
        }
        "meta:Niue"{
            ls{"Niujė laikas"}
        }
        "meta:Norfolk"{
            ls{"Norfolko Salų laikas"}
        }
        "meta:Noronha"{
            ld{"Fernando de Noronjos vasaros laikas"}
            lg{"Fernando de Noronjos laikas"}
            ls{"Fernando de Noronjos žiemos laikas"}
        }
        "meta:North_Mariana"{
            ls{"Šiaurės Marianos Salų laikas"}
        }
        "meta:Novosibirsk"{
            ld{"Novosibirsko vasaros laikas"}
            lg{"Novosibirsko laikas"}
            ls{"Novosibirsko žiemos laikas"}
        }
        "meta:Omsk"{
            ld{"Omsko vasaros laikas"}
            lg{"Omsko laikas"}
            ls{"Omsko žiemos laikas"}
        }
        "meta:Pakistan"{
            ld{"Pakistano vasaros laikas"}
            lg{"Pakistano laikas"}
            ls{"Pakistano žiemos laikas"}
        }
        "meta:Palau"{
            ls{"Palau laikas"}
        }
        "meta:Papua_New_Guinea"{
            ls{"Papua Naujosios Gvinėjos laikas"}
        }
        "meta:Paraguay"{
            ld{"Paragvajaus vasaros laikas"}
            lg{"Paragvajaus laikas"}
            ls{"Paragvajaus žiemos laikas"}
        }
        "meta:Peru"{
            ld{"Peru vasaros laikas"}
            lg{"Peru laikas"}
            ls{"Peru žiemos laikas"}
        }
        "meta:Philippines"{
            ld{"Filipinų vasaros laikas"}
            lg{"Filipinų laikas"}
            ls{"Filipinų žiemos laikas"}
        }
        "meta:Phoenix_Islands"{
            ls{"Fenikso Salų laikas"}
        }
        "meta:Pierre_Miquelon"{
            ld{"Sen Pjero ir Mikelono vasaros laikas"}
            lg{"Sen Pjero ir Mikelono laikas"}
            ls{"Sen Pjero ir Mikelono žiemos laikas"}
        }
        "meta:Pitcairn"{
            ls{"Pitkerno laikas"}
        }
        "meta:Ponape"{
            ls{"Ponapės laikas"}
        }
        "meta:Pyongyang"{
            ls{"Pchenjano laikas"}
        }
        "meta:Qyzylorda"{
            ld{"Kyzylordos vasaros laikas"}
            lg{"Kyzylordos laikas"}
            ls{"Kyzylordos žiemos laikas"}
        }
        "meta:Reunion"{
            ls{"Reunjono laikas"}
        }
        "meta:Rothera"{
            ls{"Roteros laikas"}
        }
        "meta:Sakhalin"{
            ld{"Sachalino vasaros laikas"}
            lg{"Sachalino laikas"}
            ls{"Sachalino žiemos laikas"}
        }
        "meta:Samara"{
            ld{"Samaros vasaros laikas"}
            lg{"Samaros laikas"}
            ls{"Samaros žiemos laikas"}
        }
        "meta:Samoa"{
            ld{"Samoa vasaros laikas"}
            lg{"Samoa laikas"}
            ls{"Samoa žiemos laikas"}
        }
        "meta:Seychelles"{
            ls{"Seišelių laikas"}
        }
        "meta:Singapore"{
            ls{"Singapūro laikas"}
        }
        "meta:Solomon"{
            ls{"Saliamono Salų laikas"}
        }
        "meta:South_Georgia"{
            ls{"Pietų Džordžijos laikas"}
        }
        "meta:Suriname"{
            ls{"Surinamo laikas"}
        }
        "meta:Syowa"{
            ls{"Siovos laikas"}
        }
        "meta:Tahiti"{
            ls{"Tahičio laikas"}
        }
        "meta:Taipei"{
            ld{"Taipėjaus vasaros laikas"}
            lg{"Taipėjaus laikas"}
            ls{"Taipėjaus žiemos laikas"}
        }
        "meta:Tajikistan"{
            ls{"Tadžikistano laikas"}
        }
        "meta:Tokelau"{
            ls{"Tokelau laikas"}
        }
        "meta:Tonga"{
            ld{"Tongos vasaros laikas"}
            lg{"Tongos laikas"}
            ls{"Tongos žiemos laikas"}
        }
        "meta:Truk"{
            ls{"Čuko laikas"}
        }
        "meta:Turkmenistan"{
            ld{"Turkmėnistano vasaros laikas"}
            lg{"Turkmėnistano laikas"}
            ls{"Turkmėnistano žiemos laikas"}
        }
        "meta:Tuvalu"{
            ls{"Tuvalu laikas"}
        }
        "meta:Uruguay"{
            ld{"Urugvajaus vasaros laikas"}
            lg{"Urugvajaus laikas"}
            ls{"Urugvajaus žiemos laikas"}
        }
        "meta:Uzbekistan"{
            ld{"Uzbekistano vasaros laikas"}
            lg{"Uzbekistano laikas"}
            ls{"Uzbekistano žiemos laikas"}
        }
        "meta:Vanuatu"{
            ld{"Vanuatu vasaros laikas"}
            lg{"Vanuatu laikas"}
            ls{"Vanuatu žiemos laikas"}
        }
        "meta:Venezuela"{
            ls{"Venesuelos laikas"}
        }
        "meta:Vladivostok"{
            ld{"Vladivostoko vasaros laikas"}
            lg{"Vladivostoko laikas"}
            ls{"Vladivostoko žiemos laikas"}
        }
        "meta:Volgograd"{
            ld{"Volgogrado vasaros laikas"}
            lg{"Volgogrado laikas"}
            ls{"Volgogrado žiemos laikas"}
        }
        "meta:Vostok"{
            ls{"Vostoko laikas"}
        }
        "meta:Wake"{
            ls{"Veiko Salos laikas"}
        }
        "meta:Wallis"{
            ls{"Voliso ir Futūnos laikas"}
        }
        "meta:Yakutsk"{
            ld{"Jakutsko vasaros laikas"}
            lg{"Jakutsko laikas"}
            ls{"Jakutsko žiemos laikas"}
        }
        "meta:Yekaterinburg"{
            ld{"Jekaterinburgo vasaros laikas"}
            lg{"Jekaterinburgo laikas"}
            ls{"Jekaterinburgo žiemos laikas"}
        }
        fallbackFormat{"{1} ({0})"}
        gmtFormat{"GMT{0}"}
        gmtZeroFormat{"GMT"}
        hourFormat{"+HH:mm;−HH:mm"}
        regionFormat{"Laikas: {0}"}
        regionFormatDaylight{"Vasaros laikas: {0}"}
        regionFormatStandard{"Žiemos laikas: {0}"}
    }
}
