﻿// © 2016 and later: Unicode, Inc. and others.
// License & terms of use: http://www.unicode.org/copyright.html#License
mk{
    Version{"2.1.41.97"}
    zoneStrings{
        "Etc:UTC"{
            ls{"Координирано универзално време"}
        }
        "Europe:Dublin"{
            ld{"Ирско стандардно време"}
        }
        "Europe:London"{
            ld{"Британско летно време"}
        }
        "meta:Acre"{
            ld{"Акре летно сметање на времето"}
            lg{"Акре време"}
            ls{"Акре стандардно време"}
        }
        "meta:Afghanistan"{
            ls{"Време во Авганистан"}
        }
        "meta:Africa_Central"{
            ls{"Средноафриканско време"}
        }
        "meta:Africa_Eastern"{
            ls{"Источноафриканско време"}
        }
        "meta:Africa_Southern"{
            ls{"Време во Јужноафриканска Република"}
        }
        "meta:Africa_Western"{
            ld{"Западноафриканско летно сметање на времето"}
            lg{"Западноафриканско време"}
            ls{"Западноафриканско стандардно време"}
        }
        "meta:Alaska"{
            ld{"Летно сметање на времето во Алјаска"}
            lg{"Време во Алјаска"}
            ls{"Стандардно време во Алјаска"}
        }
        "meta:Amazon"{
            ld{"Летно сметање на времето во Амазон"}
            lg{"Време во Амазон"}
            ls{"Стандардно време во Амазон"}
        }
        "meta:America_Central"{
            ld{"Централно летно сметање на времето"}
            lg{"Централно време во Северна Америка"}
            ls{"Централно стандардно време во Северна Америка"}
        }
        "meta:America_Eastern"{
            ld{"Источно летно сметање на времето"}
            lg{"Источно време"}
            ls{"Источно стандардно време"}
        }
        "meta:America_Mountain"{
            ld{"Планинско летно сметање на времето"}
            lg{"Планинско време"}
            ls{"Планинско стандардно време"}
        }
        "meta:America_Pacific"{
            ld{"Пацифичко летно сметање на времето"}
            lg{"Пацифичко време"}
            ls{"Пацифичко стандардно време"}
        }
        "meta:Anadyr"{
            ld{"Анадирско летно време"}
            lg{"Анадирско време"}
            ls{"Анадирско стандардно време"}
        }
        "meta:Apia"{
            ld{"Летно време во Апија"}
            lg{"Време во Апија"}
            ls{"Стандардно време во Апија"}
        }
        "meta:Arabian"{
            ld{"Арапско летно сметање на времето"}
            lg{"Арапско време"}
            ls{"Стандардно арапско време"}
        }
        "meta:Argentina"{
            ld{"Летно сметање на времето во Аргентина"}
            lg{"Време во Аргентина"}
            ls{"Стандардно време во Аргентина"}
        }
        "meta:Argentina_Western"{
            ld{"Летно сметање на времето во западна Аргентина"}
            lg{"Време во западна Аргентина"}
            ls{"Стандардно време во западна Аргентина"}
        }
        "meta:Armenia"{
            ld{"Летно време во Ерменија"}
            lg{"Време во Ерменија"}
            ls{"Стандардно време во Ерменија"}
        }
        "meta:Atlantic"{
            ld{"Атлантско летно сметање на времето"}
            lg{"Атлантско време"}
            ls{"Атлантско стандардно време"}
        }
        "meta:Australia_Central"{
            ld{"Летно сметање на времето во Централна Австралија"}
            lg{"Време во Централна Австралија"}
            ls{"Стандардно време во Централна Австралија"}
        }
        "meta:Australia_CentralWestern"{
            ld{"Летно сметање на времето во Централна и Западна Австралија"}
            lg{"Време во Централна и Западна Австралија"}
            ls{"Стандардно време во Централна и Западна Австралија"}
        }
        "meta:Australia_Eastern"{
            ld{"Летно сметање на времето во Источна Австралија"}
            lg{"Време во Источна Австралија"}
            ls{"Стандардно време во Источна Австралија"}
        }
        "meta:Australia_Western"{
            ld{"Летно сметање на времето во Западна Австралија"}
            lg{"Време во Западна Австралија"}
            ls{"Стандардно време во Западна Австралија"}
        }
        "meta:Azerbaijan"{
            ld{"Летно време во Азербејџан"}
            lg{"Време во Азербејџан"}
            ls{"Стандардно време во Азербејџан"}
        }
        "meta:Azores"{
            ld{"Летно време на Азорските Острови"}
            lg{"Време на Азорските Острови"}
            ls{"Стандардно време на Азорските Острови"}
        }
        "meta:Bangladesh"{
            ld{"Летно време во Бангладеш"}
            lg{"Време во Бангладеш"}
            ls{"Стандардно време во Бангладеш"}
        }
        "meta:Bhutan"{
            ls{"Време во Бутан"}
        }
        "meta:Bolivia"{
            ls{"Време во Боливија"}
        }
        "meta:Brasilia"{
            ld{"Летно сметање на времето во Бразилија"}
            lg{"Време во Бразилија"}
            ls{"Стандардно време во Бразилија"}
        }
        "meta:Brunei"{
            ls{"Време во Брунеј Дарусалам"}
        }
        "meta:Cape_Verde"{
            ld{"Летно сметање на времето на Кабо Верде"}
            lg{"Време на Кабо Верде"}
            ls{"Стандардно време на Кабо Верде"}
        }
        "meta:Chamorro"{
            ls{"Време во Чаморо"}
        }
        "meta:Chatham"{
            ld{"Летно сметање на времето во Чатам"}
            lg{"Време во Чатам"}
            ls{"Стандардно време во Чатам"}
        }
        "meta:Chile"{
            ld{"Летно сметање на времето во Чиле"}
            lg{"Време во Чиле"}
            ls{"Стандардно време во Чиле"}
        }
        "meta:China"{
            ld{"Летно сметање на времето во Кина"}
            lg{"Време во Кина"}
            ls{"Стандардно време во Кина"}
        }
        "meta:Choibalsan"{
            ld{"Летно време во Чојбалсан"}
            lg{"Време во Чојбалсан"}
            ls{"Стандардно време во Чојбалсан"}
        }
        "meta:Christmas"{
            ls{"Време на Божиќниот Остров"}
        }
        "meta:Cocos"{
            ls{"Време на Кокосовите Острови"}
        }
        "meta:Colombia"{
            ld{"Летно сметање на времето во Колумбија"}
            lg{"Време во Колумбија"}
            ls{"Стандардно време во Колумбија"}
        }
        "meta:Cook"{
            ld{"Летно време на Островите Кук"}
            lg{"Време на Островите Кук"}
            ls{"Стандардно време на Островите Кук"}
        }
        "meta:Cuba"{
            ld{"Летно сметање на времето во Куба"}
            lg{"Време во Куба"}
            ls{"Стандардно време во Куба"}
        }
        "meta:Davis"{
            ls{"Време во Дејвис"}
        }
        "meta:DumontDUrville"{
            ls{"Време во Димон Дирвил"}
        }
        "meta:East_Timor"{
            ls{"Време во Источен Тимор"}
        }
        "meta:Easter"{
            ld{"Летно време на Велигденскиот Остров"}
            lg{"Време на Велигденскиот Остров"}
            ls{"Стандардно време на Велигденскиот Остров"}
        }
        "meta:Ecuador"{
            ls{"Време во Еквадор"}
        }
        "meta:Europe_Central"{
            ld{"Средноевропско летно време"}
            lg{"Средноевропско време"}
            ls{"Средноевропско стандардно време"}
            sd{"CEST"}
            sg{"CET"}
            ss{"CET"}
        }
        "meta:Europe_Eastern"{
            ld{"Источноевропско летно време"}
            lg{"Источноевропско време"}
            ls{"Источноевропско стандардно време"}
            sd{"EEST"}
            sg{"EET"}
            ss{"EET"}
        }
        "meta:Europe_Further_Eastern"{
            ls{"Калининградско време"}
        }
        "meta:Europe_Western"{
            ld{"Западноевропско летно време"}
            lg{"Западноевропско време"}
            ls{"Западноевропско стандардно време"}
            sd{"WEST"}
            sg{"WET"}
            ss{"WET"}
        }
        "meta:Falkland"{
            ld{"Летно сметање на времето на Фолкландските Острови"}
            lg{"Време на Фолкландските Острови"}
            ls{"Стандардно време на Фолкландските Острови"}
        }
        "meta:Fiji"{
            ld{"Летно време во Фиџи"}
            lg{"Време во Фиџи"}
            ls{"Стандардно време во Фиџи"}
        }
        "meta:French_Guiana"{
            ls{"Време во Француска Гвајана"}
        }
        "meta:French_Southern"{
            ls{"Француско јужно и антарктичко време"}
        }
        "meta:GMT"{
            ls{"Средно време по Гринич"}
        }
        "meta:Galapagos"{
            ls{"Време во Галапагос"}
        }
        "meta:Gambier"{
            ls{"Време во Гамбе"}
        }
        "meta:Georgia"{
            ld{"Летно време во Грузија"}
            lg{"Време во Грузија"}
            ls{"Стандардно време во Грузија"}
        }
        "meta:Gilbert_Islands"{
            ls{"Време на Островите Гилберт"}
        }
        "meta:Greenland_Eastern"{
            ld{"Летно сметање на времето во Источен Гренланд"}
            lg{"Време во Источен Гренланд"}
            ls{"Стандардно време во Источен Гренланд"}
        }
        "meta:Greenland_Western"{
            ld{"Летно сметање на времето во Западен Гренланд"}
            lg{"Време во Западен Гренланд"}
            ls{"Стандардно време во Западен Гренланд"}
        }
        "meta:Gulf"{
            ls{"Време на Мексиканскиот Залив"}
        }
        "meta:Guyana"{
            ls{"Време во Гвајана"}
        }
        "meta:Hawaii_Aleutian"{
            ld{"Летно сметање на времето во Хаваи - Алеутски острови"}
            lg{"Време во Хаваи - Алеутски острови"}
            ls{"Стандардно време во Хаваи - Алеутски острови"}
        }
        "meta:Hong_Kong"{
            ld{"Летно време во Хонг Конг"}
            lg{"Време во Хонг Конг"}
            ls{"Стандардно време во Хонг Конг"}
        }
        "meta:Hovd"{
            ld{"Летно време во Ховд"}
            lg{"Време во Ховд"}
            ls{"Стандардно време во Ховд"}
        }
        "meta:India"{
            ls{"Време во Индија"}
        }
        "meta:Indian_Ocean"{
            ls{"Време на Индиски океан"}
        }
        "meta:Indochina"{
            ls{"Време во Индокина"}
        }
        "meta:Indonesia_Central"{
            ls{"Време во Централна Индонезија"}
        }
        "meta:Indonesia_Eastern"{
            ls{"Време во Источна Индонезија"}
        }
        "meta:Indonesia_Western"{
            ls{"Време во Западна Индонезија"}
        }
        "meta:Iran"{
            ld{"Летно сметање на времето во Иран"}
            lg{"Време во Иран"}
            ls{"Стандардно време во Иран"}
        }
        "meta:Irkutsk"{
            ld{"Летно време во Иркутск"}
            lg{"Време во Иркутск"}
            ls{"Стандардно време во Иркутск"}
        }
        "meta:Israel"{
            ld{"Летно сметање на времето во Израел"}
            lg{"Време во Израел"}
            ls{"Стандардно време во Израел"}
        }
        "meta:Japan"{
            ld{"Летно сметање на времето во Јапонија"}
            lg{"Време во Јапонија"}
            ls{"Стандардно време во Јапонија"}
        }
        "meta:Kazakhstan_Eastern"{
            ls{"Време во Источен Казахстан"}
        }
        "meta:Kazakhstan_Western"{
            ls{"Време во Западен Казахстан"}
        }
        "meta:Korea"{
            ld{"Летно сметање на времето во Кореја"}
            lg{"Време во Кореја"}
            ls{"Стандардно време во Кореја"}
        }
        "meta:Kosrae"{
            ls{"Време во Косра"}
        }
        "meta:Krasnoyarsk"{
            ld{"Летно време во Краснојарск"}
            lg{"Време во Краснојарск"}
            ls{"Стандардно време во Краснојарск"}
        }
        "meta:Kyrgystan"{
            ls{"Време во Киргистан"}
        }
        "meta:Line_Islands"{
            ls{"Време во Линиски Острови"}
        }
        "meta:Lord_Howe"{
            ld{"Летно сметање на времето во Лорд Хау"}
            lg{"Време во Лорд Хау"}
            ls{"Стандардно време во Лорд Хау"}
        }
        "meta:Macquarie"{
            ls{"Време на Островот Макуари"}
        }
        "meta:Magadan"{
            ld{"Летно време во Магадан"}
            lg{"Време во Магадан"}
            ls{"Стандардно време во Магадан"}
        }
        "meta:Malaysia"{
            ls{"Време во Малезија"}
        }
        "meta:Maldives"{
            ls{"Време на Малдиви"}
        }
        "meta:Marquesas"{
            ls{"Време во Маркесас"}
        }
        "meta:Marshall_Islands"{
            ls{"Време на Маршалски Острови"}
        }
        "meta:Mauritius"{
            ld{"Летно сметање на времето на Маврициус"}
            lg{"Време на Маврициус"}
            ls{"Стандардно време на Маврициус"}
        }
        "meta:Mawson"{
            ls{"Време во Мосон"}
        }
        "meta:Mexico_Northwest"{
            ld{"Летно сметање на времето во северозападно Мексико"}
            lg{"Време во северозападно Мексико"}
            ls{"Стандардно време во северозападно Мексико"}
        }
        "meta:Mexico_Pacific"{
            ld{"Летно пацифичко време во Мексико"}
            lg{"Пацифичко време во Мексико"}
            ls{"Стандардно пацифичко време во Мексико"}
        }
        "meta:Mongolia"{
            ld{"Летно време во Улан Батор"}
            lg{"Време во Улан Батор"}
            ls{"Стандардно време во Улан Батор"}
        }
        "meta:Moscow"{
            ld{"Летно сметање на времето во Москва"}
            lg{"Време во Москва"}
            ls{"Стандардно време во Москва"}
        }
        "meta:Myanmar"{
            ls{"Време во Мјанмар"}
        }
        "meta:Nauru"{
            ls{"Време во Науру"}
        }
        "meta:Nepal"{
            ls{"Време во Непал"}
        }
        "meta:New_Caledonia"{
            ld{"Летно време во Нова Каледонија"}
            lg{"Време во Нова Каледонија"}
            ls{"Стандардно време во Нова Каледонија"}
        }
        "meta:New_Zealand"{
            ld{"Летно сметање на времето во Нов Зеланд"}
            lg{"Време во Нов Зеланд"}
            ls{"Стандардно време во Нов Зеланд"}
        }
        "meta:Newfoundland"{
            ld{"Летно сметање на времето на Њуфаундленд"}
            lg{"Време на Њуфаундленд"}
            ls{"Стандардно време на Њуфаундленд"}
        }
        "meta:Niue"{
            ls{"Време во Ниуе"}
        }
        "meta:Norfolk"{
            ls{"Време на Островите Норфолк"}
        }
        "meta:Noronha"{
            ld{"Летно сметање на времето на Фернандо де Нороња"}
            lg{"Време на Фернандо де Нороња"}
            ls{"Стандардно време на Фернандо де Нороња"}
        }
        "meta:Novosibirsk"{
            ld{"Летно време во Новосибирск"}
            lg{"Време во Новосибирск"}
            ls{"Стандардно време во Новосибирск"}
        }
        "meta:Omsk"{
            ld{"Летно време во Омск"}
            lg{"Време во Омск"}
            ls{"Стандардно време во Омск"}
        }
        "meta:Pakistan"{
            ld{"Летно време во Пакистан"}
            lg{"Време во Пакистан"}
            ls{"Стандардно време во Пакистан"}
        }
        "meta:Palau"{
            ls{"Време во Палау"}
        }
        "meta:Papua_New_Guinea"{
            ls{"Време во Папуа Нова Гвинеја"}
        }
        "meta:Paraguay"{
            ld{"Летно сметање на времето во Парагвај"}
            lg{"Време во Парагвај"}
            ls{"Стандардно време во Парагвај"}
        }
        "meta:Peru"{
            ld{"Летно сметање на времето во Перу"}
            lg{"Време во Перу"}
            ls{"Стандардно време во Перу"}
        }
        "meta:Philippines"{
            ld{"Летно време во Филипини"}
            lg{"Време во Филипини"}
            ls{"Стандардно време во Филипини"}
        }
        "meta:Phoenix_Islands"{
            ls{"Време на Островите Феникс"}
        }
        "meta:Pierre_Miquelon"{
            ld{"Летно сметање на времето на Сент Пјер и Микелан"}
            lg{"Време на на Сент Пјер и Микелан"}
            ls{"Стандардно време на Сент Пјер и Микелан"}
        }
        "meta:Pitcairn"{
            ls{"Време во Питкерн"}
        }
        "meta:Ponape"{
            ls{"Време во Понапе"}
        }
        "meta:Pyongyang"{
            ls{"Време во Пјонгјанг"}
        }
        "meta:Reunion"{
            ls{"Време на Ријунион"}
        }
        "meta:Rothera"{
            ls{"Време во Ротера"}
        }
        "meta:Sakhalin"{
            ld{"Летно време во Сакалин"}
            lg{"Време во Сакалин"}
            ls{"Стандардно време во Сакалин"}
        }
        "meta:Samara"{
            ld{"Самара летно сметање на времето"}
            lg{"Самара време"}
            ls{"Самара стандардно време"}
        }
        "meta:Samoa"{
            ld{"Летно време во Самоа"}
            lg{"Време во Самоа"}
            ls{"Стандардно време во Самоа"}
        }
        "meta:Seychelles"{
            ls{"Време на Сејшели"}
        }
        "meta:Singapore"{
            ls{"Време во Сингапур"}
        }
        "meta:Solomon"{
            ls{"Време на Соломонските острови"}
        }
        "meta:South_Georgia"{
            ls{"Време во Јужна Грузија"}
        }
        "meta:Suriname"{
            ls{"Време во Суринам"}
        }
        "meta:Syowa"{
            ls{"Време во Сајова"}
        }
        "meta:Tahiti"{
            ls{"Време во Тахити"}
        }
        "meta:Taipei"{
            ld{"Летно сметање на времето во Тајпеј"}
            lg{"Време во Тајпеј"}
            ls{"Стандардно време во Тајпеј"}
        }
        "meta:Tajikistan"{
            ls{"Време во Таџикистан"}
        }
        "meta:Tokelau"{
            ls{"Време во Токелау"}
        }
        "meta:Tonga"{
            ld{"Летно време во Тонга"}
            lg{"Време во Тонга"}
            ls{"Стандардно време во Тонга"}
        }
        "meta:Truk"{
            ls{"Време во Чуук"}
        }
        "meta:Turkmenistan"{
            ld{"Летно време во Туркменистан"}
            lg{"Време во Туркменистан"}
            ls{"Стандардно време во Туркменистан"}
        }
        "meta:Tuvalu"{
            ls{"Време во Тувалу"}
        }
        "meta:Uruguay"{
            ld{"Летно сметање на времето во Уругвај"}
            lg{"Време во Уругвај"}
            ls{"Стандардно време во Уругвај"}
        }
        "meta:Uzbekistan"{
            ld{"Летно време во Узбекистан"}
            lg{"Време во Узбекистан"}
            ls{"Стандардно време во Узбекистан"}
        }
        "meta:Vanuatu"{
            ld{"Летно време во Вануату"}
            lg{"Време во Вануату"}
            ls{"Стандардно време во Вануату"}
        }
        "meta:Venezuela"{
            ls{"Време во Венецуела"}
        }
        "meta:Vladivostok"{
            ld{"Летно време во Владивосток"}
            lg{"Време во Владивосток"}
            ls{"Стандардно време во Владивосток"}
        }
        "meta:Volgograd"{
            ld{"Летно сметање на времето во Волгоград"}
            lg{"Време во Волгоград"}
            ls{"Стандардно време во Волгоград"}
        }
        "meta:Vostok"{
            ls{"Време во Восток"}
        }
        "meta:Wake"{
            ls{"Време на островот Вејк"}
        }
        "meta:Wallis"{
            ls{"Време во Валис и Футуна"}
        }
        "meta:Yakutsk"{
            ld{"Летно време во Јакутск"}
            lg{"Време во Јакутск"}
            ls{"Стандардно време во Јакутск"}
        }
        "meta:Yekaterinburg"{
            ld{"Летно време во Екатеринбург"}
            lg{"Време во Екатеринбург"}
            ls{"Стандардно време во Екатеринбург"}
        }
        fallbackFormat{"{1} ({0})"}
        gmtFormat{"GMT{0}"}
        gmtZeroFormat{"GMT"}
        hourFormat{"+HH:mm;-HH:mm"}
        regionFormat{"Време во {0}"}
        regionFormatDaylight{"{0} (+1)"}
        regionFormatStandard{"{0} (+0)"}
    }
}
