﻿// © 2016 and later: Unicode, Inc. and others.
// License & terms of use: http://www.unicode.org/copyright.html#License
pl{
    Version{"2.1.41.97"}
    zoneStrings{
        "Etc:UTC"{
            ls{"uniwersalny czas koordynowany"}
        }
        "Europe:Dublin"{
            ld{"Irlandia (czas letni)"}
        }
        "Europe:London"{
            ld{"Brytyjski czas letni"}
        }
        "meta:Afghanistan"{
            ls{"Afganistan"}
        }
        "meta:Africa_Central"{
            ls{"czas środkowoafrykański"}
        }
        "meta:Africa_Eastern"{
            ls{"czas wschodnioafrykański"}
        }
        "meta:Africa_Southern"{
            ls{"czas południowoafrykański"}
        }
        "meta:Africa_Western"{
            ld{"czas zachodnioafrykański letni"}
            lg{"czas zachodnioafrykański"}
            ls{"czas zachodnioafrykański standardowy"}
        }
        "meta:Alaska"{
            ld{"Alaska (czas letni)"}
            lg{"Alaska"}
            ls{"Alaska (czas standardowy)"}
        }
        "meta:Amazon"{
            ld{"czas amazoński letni"}
            lg{"czas amazoński"}
            ls{"czas amazoński standardowy"}
        }
        "meta:America_Central"{
            ld{"czas środkowoamerykański letni"}
            lg{"czas środkowoamerykański"}
            ls{"czas środkowoamerykański standardowy"}
        }
        "meta:America_Eastern"{
            ld{"czas wschodnioamerykański letni"}
            lg{"czas wschodnioamerykański"}
            ls{"czas wschodnioamerykański standardowy"}
        }
        "meta:America_Mountain"{
            ld{"czas górski letni"}
            lg{"czas górski"}
            ls{"czas górski standardowy"}
        }
        "meta:America_Pacific"{
            ld{"czas pacyficzny letni"}
            lg{"czas pacyficzny"}
            ls{"czas pacyficzny standardowy"}
        }
        "meta:Anadyr"{
            ld{"czas Anadyr letni"}
            lg{"czas Anadyr"}
            ls{"czas standardowy Anadyr"}
        }
        "meta:Apia"{
            ld{"Apia (czas letni)"}
            lg{"Apia"}
            ls{"Apia (czas standardowy)"}
        }
        "meta:Arabian"{
            ld{"Półwysep Arabski (czas letni)"}
            lg{"Półwysep Arabski"}
            ls{"Półwysep Arabski (czas standardowy)"}
        }
        "meta:Argentina"{
            ld{"Argentyna (czas letni)"}
            lg{"Argentyna"}
            ls{"Argentyna (czas standardowy)"}
        }
        "meta:Argentina_Western"{
            ld{"Argentyna Zachodnia (czas letni)"}
            lg{"Argentyna Zachodnia"}
            ls{"Argentyna Zachodnia (czas standardowy)"}
        }
        "meta:Armenia"{
            ld{"Armenia (czas letni)"}
            lg{"Armenia"}
            ls{"Armenia (czas standardowy)"}
        }
        "meta:Atlantic"{
            ld{"czas atlantycki letni"}
            lg{"czas atlantycki"}
            ls{"czas atlantycki standardowy"}
        }
        "meta:Australia_Central"{
            ld{"czas środkowoaustralijski letni"}
            lg{"czas środkowoaustralijski"}
            ls{"czas środkowoaustralijski standardowy"}
        }
        "meta:Australia_CentralWestern"{
            ld{"czas środkowo-zachodnioaustralijski letni"}
            lg{"czas środkowo-zachodnioaustralijski"}
            ls{"czas środkowo-zachodnioaustralijski standardowy"}
        }
        "meta:Australia_Eastern"{
            ld{"czas wschodnioaustralijski letni"}
            lg{"czas wschodnioaustralijski"}
            ls{"czas wschodnioaustralijski standardowy"}
        }
        "meta:Australia_Western"{
            ld{"czas zachodnioaustralijski letni"}
            lg{"czas zachodnioaustralijski"}
            ls{"czas zachodnioaustralijski standardowy"}
        }
        "meta:Azerbaijan"{
            ld{"Azerbejdżan (czas letni)"}
            lg{"Azerbejdżan"}
            ls{"Azerbejdżan (czas standardowy)"}
        }
        "meta:Azores"{
            ld{"Azory (czas letni)"}
            lg{"Azory"}
            ls{"Azory (czas standardowy)"}
        }
        "meta:Bangladesh"{
            ld{"Bangladesz (czas letni)"}
            lg{"Bangladesz"}
            ls{"Bangladesz (czas standardowy)"}
        }
        "meta:Bhutan"{
            ls{"Bhutan"}
        }
        "meta:Bolivia"{
            ls{"Boliwia"}
        }
        "meta:Brasilia"{
            ld{"Brasília (czas letni)"}
            lg{"Brasília"}
            ls{"Brasília (czas standardowy)"}
        }
        "meta:Brunei"{
            ls{"Brunei"}
        }
        "meta:Cape_Verde"{
            ld{"Wyspy Zielonego Przylądka (czas letni)"}
            lg{"Wyspy Zielonego Przylądka"}
            ls{"Wyspy Zielonego Przylądka (czas standardowy)"}
        }
        "meta:Chamorro"{
            ls{"Czamorro"}
        }
        "meta:Chatham"{
            ld{"Chatham (czas letni)"}
            lg{"Chatham"}
            ls{"Chatham (czas standardowy)"}
        }
        "meta:Chile"{
            ld{"Chile (czas letni)"}
            lg{"Chile"}
            ls{"Chile (czas standardowy)"}
        }
        "meta:China"{
            ld{"Chiny (czas letni)"}
            lg{"Chiny"}
            ls{"Chiny (czas standardowy)"}
        }
        "meta:Choibalsan"{
            ld{"Czojbalsan (czas letni)"}
            lg{"Czojbalsan"}
            ls{"Czojbalsan (czas standardowy)"}
        }
        "meta:Christmas"{
            ls{"Wyspa Bożego Narodzenia"}
        }
        "meta:Cocos"{
            ls{"Wyspy Kokosowe"}
        }
        "meta:Colombia"{
            ld{"Kolumbia (czas letni)"}
            lg{"Kolumbia"}
            ls{"Kolumbia (czas standardowy)"}
        }
        "meta:Cook"{
            ld{"Wyspy Cooka (czas letni)"}
            lg{"Wyspy Cooka"}
            ls{"Wyspy Cooka (czas standardowy)"}
        }
        "meta:Cuba"{
            ld{"Kuba (czas letni)"}
            lg{"Kuba"}
            ls{"Kuba (czas standardowy)"}
        }
        "meta:Davis"{
            ls{"Davis"}
        }
        "meta:DumontDUrville"{
            ls{"Dumont-d’Urville"}
        }
        "meta:East_Timor"{
            ls{"Timor Wschodni"}
        }
        "meta:Easter"{
            ld{"Wyspa Wielkanocna (czas letni)"}
            lg{"Wyspa Wielkanocna"}
            ls{"Wyspa Wielkanocna (czas standardowy)"}
        }
        "meta:Ecuador"{
            ls{"Ekwador"}
        }
        "meta:Europe_Central"{
            ld{"czas środkowoeuropejski letni"}
            lg{"czas środkowoeuropejski"}
            ls{"czas środkowoeuropejski standardowy"}
            sd{"CEST"}
            sg{"CET"}
            ss{"CET"}
        }
        "meta:Europe_Eastern"{
            ld{"czas wschodnioeuropejski letni"}
            lg{"czas wschodnioeuropejski"}
            ls{"czas wschodnioeuropejski standardowy"}
            sd{"EEST"}
            sg{"EET"}
            ss{"EET"}
        }
        "meta:Europe_Further_Eastern"{
            ls{"czas wschodnioeuropejski dalszy"}
        }
        "meta:Europe_Western"{
            ld{"czas zachodnioeuropejski letni"}
            lg{"czas zachodnioeuropejski"}
            ls{"czas zachodnioeuropejski standardowy"}
            sd{"WEST"}
            sg{"WET"}
            ss{"WET"}
        }
        "meta:Falkland"{
            ld{"Falklandy (czas letni)"}
            lg{"Falklandy"}
            ls{"Falklandy (czas standardowy)"}
        }
        "meta:Fiji"{
            ld{"Fidżi (czas letni)"}
            lg{"Fidżi"}
            ls{"Fidżi (czas standardowy)"}
        }
        "meta:French_Guiana"{
            ls{"Gujana Francuska"}
        }
        "meta:French_Southern"{
            ls{"Francuskie Terytoria Południowe i Antarktyczne"}
        }
        "meta:GMT"{
            ls{"czas uniwersalny"}
        }
        "meta:Galapagos"{
            ls{"Galapagos"}
        }
        "meta:Gambier"{
            ls{"Wyspy Gambiera"}
        }
        "meta:Georgia"{
            ld{"Gruzja (czas letni)"}
            lg{"Gruzja"}
            ls{"Gruzja (czas standardowy)"}
        }
        "meta:Gilbert_Islands"{
            ls{"Wyspy Gilberta"}
        }
        "meta:Greenland_Eastern"{
            ld{"Grenlandia Wschodnia (czas letni)"}
            lg{"Grenlandia Wschodnia"}
            ls{"Grenlandia Wschodnia (czas standardowy)"}
        }
        "meta:Greenland_Western"{
            ld{"Grenlandia Zachodnia (czas letni)"}
            lg{"Grenlandia Zachodnia"}
            ls{"Grenlandia Zachodnia (czas standardowy)"}
        }
        "meta:Gulf"{
            ls{"Zatoka Perska"}
        }
        "meta:Guyana"{
            ls{"Gujana"}
        }
        "meta:Hawaii_Aleutian"{
            ld{"Hawaje-Aleuty (czas letni)"}
            lg{"Hawaje-Aleuty"}
            ls{"Hawaje-Aleuty (czas standardowy)"}
        }
        "meta:Hong_Kong"{
            ld{"Hongkong (czas letni)"}
            lg{"Hongkong"}
            ls{"Hongkong (czas standardowy)"}
        }
        "meta:Hovd"{
            ld{"Kobdo (czas letni)"}
            lg{"Kobdo"}
            ls{"Kobdo (czas standardowy)"}
        }
        "meta:India"{
            ls{"czas indyjski"}
        }
        "meta:Indian_Ocean"{
            ls{"Ocean Indyjski"}
        }
        "meta:Indochina"{
            ls{"czas indochiński"}
        }
        "meta:Indonesia_Central"{
            ls{"Indonezja Środkowa"}
        }
        "meta:Indonesia_Eastern"{
            ls{"Indonezja Wschodnia"}
        }
        "meta:Indonesia_Western"{
            ls{"Indonezja Zachodnia"}
        }
        "meta:Iran"{
            ld{"Iran (czas letni)"}
            lg{"Iran"}
            ls{"Iran (czas standardowy)"}
        }
        "meta:Irkutsk"{
            ld{"Irkuck (czas letni)"}
            lg{"Irkuck"}
            ls{"Irkuck (czas standardowy)"}
        }
        "meta:Israel"{
            ld{"Izrael (czas letni)"}
            lg{"Izrael"}
            ls{"Izrael (czas standardowy)"}
        }
        "meta:Japan"{
            ld{"Japonia (czas letni)"}
            lg{"Japonia"}
            ls{"Japonia (czas standardowy)"}
        }
        "meta:Kamchatka"{
            ld{"czas Pietropawłowsk Kamczacki letni"}
            lg{"czas Pietropawłowsk Kamczacki"}
            ls{"czas standardowy Pietropawłowsk Kamczacki"}
        }
        "meta:Kazakhstan_Eastern"{
            ls{"Kazachstan Wschodni"}
        }
        "meta:Kazakhstan_Western"{
            ls{"Kazachstan Zachodni"}
        }
        "meta:Korea"{
            ld{"Korea (czas letni)"}
            lg{"Korea"}
            ls{"Korea (czas standardowy)"}
        }
        "meta:Kosrae"{
            ls{"Kosrae"}
        }
        "meta:Krasnoyarsk"{
            ld{"Krasnojarsk (czas letni)"}
            lg{"Krasnojarsk"}
            ls{"Krasnojarsk (czas standardowy)"}
        }
        "meta:Kyrgystan"{
            ls{"Kirgistan"}
        }
        "meta:Line_Islands"{
            ls{"Line Islands"}
        }
        "meta:Lord_Howe"{
            ld{"Lord Howe (czas letni)"}
            lg{"Lord Howe"}
            ls{"Lord Howe (czas standardowy)"}
        }
        "meta:Macquarie"{
            ls{"Macquarie"}
        }
        "meta:Magadan"{
            ld{"Magadan (czas letni)"}
            lg{"Magadan"}
            ls{"Magadan (czas standardowy)"}
        }
        "meta:Malaysia"{
            ls{"Malezja"}
        }
        "meta:Maldives"{
            ls{"Malediwy"}
        }
        "meta:Marquesas"{
            ls{"Markizy"}
        }
        "meta:Marshall_Islands"{
            ls{"Wyspy Marshalla"}
        }
        "meta:Mauritius"{
            ld{"Mauritius (czas letni)"}
            lg{"Mauritius"}
            ls{"Mauritius (czas standardowy)"}
        }
        "meta:Mawson"{
            ls{"Mawson"}
        }
        "meta:Mexico_Northwest"{
            ld{"Meksyk Północno-Zachodni (czas letni)"}
            lg{"Meksyk Północno-Zachodni"}
            ls{"Meksyk Północno-Zachodni (czas standardowy)"}
        }
        "meta:Mexico_Pacific"{
            ld{"Meksyk (czas pacyficzny letni)"}
            lg{"Meksyk (czas pacyficzny)"}
            ls{"Meksyk (czas pacyficzny standardowy)"}
        }
        "meta:Mongolia"{
            ld{"Ułan Bator (czas letni)"}
            lg{"Ułan Bator"}
            ls{"Ułan Bator (czas standardowy)"}
        }
        "meta:Moscow"{
            ld{"czas moskiewski letni"}
            lg{"czas moskiewski"}
            ls{"czas moskiewski standardowy"}
        }
        "meta:Myanmar"{
            ls{"Mjanma"}
        }
        "meta:Nauru"{
            ls{"Nauru"}
        }
        "meta:Nepal"{
            ls{"Nepal"}
        }
        "meta:New_Caledonia"{
            ld{"Nowa Kaledonia (czas letni)"}
            lg{"Nowa Kaledonia"}
            ls{"Nowa Kaledonia (czas standardowy)"}
        }
        "meta:New_Zealand"{
            ld{"Nowa Zelandia (czas letni)"}
            lg{"Nowa Zelandia"}
            ls{"Nowa Zelandia (czas standardowy)"}
        }
        "meta:Newfoundland"{
            ld{"Nowa Fundlandia (czas letni)"}
            lg{"Nowa Fundlandia"}
            ls{"Nowa Fundlandia (czas standardowy)"}
        }
        "meta:Niue"{
            ls{"Niue"}
        }
        "meta:Norfolk"{
            ls{"Norfolk"}
        }
        "meta:Noronha"{
            ld{"Fernando de Noronha (czas letni)"}
            lg{"Fernando de Noronha"}
            ls{"Fernando de Noronha (czas standardowy)"}
        }
        "meta:Novosibirsk"{
            ld{"Nowosybirsk (czas letni)"}
            lg{"Nowosybirsk"}
            ls{"Nowosybirsk (czas standardowy)"}
        }
        "meta:Omsk"{
            ld{"Omsk (czas letni)"}
            lg{"Omsk"}
            ls{"Omsk (czas standardowy)"}
        }
        "meta:Pakistan"{
            ld{"Pakistan (czas letni)"}
            lg{"Pakistan"}
            ls{"Pakistan (czas standardowy)"}
        }
        "meta:Palau"{
            ls{"Palau"}
        }
        "meta:Papua_New_Guinea"{
            ls{"Papua-Nowa Gwinea"}
        }
        "meta:Paraguay"{
            ld{"Paragwaj (czas letni)"}
            lg{"Paragwaj"}
            ls{"Paragwaj (czas standardowy)"}
        }
        "meta:Peru"{
            ld{"Peru (czas letni)"}
            lg{"Peru"}
            ls{"Peru (czas standardowy)"}
        }
        "meta:Philippines"{
            ld{"Filipiny (czas letni)"}
            lg{"Filipiny"}
            ls{"Filipiny (czas standardowy)"}
        }
        "meta:Phoenix_Islands"{
            ls{"Feniks"}
        }
        "meta:Pierre_Miquelon"{
            ld{"Saint-Pierre i Miquelon (czas letni)"}
            lg{"Saint-Pierre i Miquelon"}
            ls{"Saint-Pierre i Miquelon (czas standardowy)"}
        }
        "meta:Pitcairn"{
            ls{"Pitcairn"}
        }
        "meta:Ponape"{
            ls{"Pohnpei"}
        }
        "meta:Pyongyang"{
            ls{"Pjongjang"}
        }
        "meta:Reunion"{
            ls{"Reunion"}
        }
        "meta:Rothera"{
            ls{"Rothera"}
        }
        "meta:Sakhalin"{
            ld{"Sachalin (czas letni)"}
            lg{"Sachalin"}
            ls{"Sachalin (czas standardowy)"}
        }
        "meta:Samara"{
            ld{"czas Samara letni"}
            lg{"czas Samara"}
            ls{"czas standardowy Samara"}
        }
        "meta:Samoa"{
            ld{"Samoa (czas letni)"}
            lg{"Samoa"}
            ls{"Samoa (czas standardowy)"}
        }
        "meta:Seychelles"{
            ls{"Seszele"}
        }
        "meta:Singapore"{
            ls{"Singapur"}
        }
        "meta:Solomon"{
            ls{"Wyspy Salomona"}
        }
        "meta:South_Georgia"{
            ls{"Georgia Południowa"}
        }
        "meta:Suriname"{
            ls{"Surinam"}
        }
        "meta:Syowa"{
            ls{"Syowa"}
        }
        "meta:Tahiti"{
            ls{"Tahiti"}
        }
        "meta:Taipei"{
            ld{"Tajpej (czas letni)"}
            lg{"Tajpej"}
            ls{"Tajpej (czas standardowy)"}
        }
        "meta:Tajikistan"{
            ls{"Tadżykistan"}
        }
        "meta:Tokelau"{
            ls{"Tokelau"}
        }
        "meta:Tonga"{
            ld{"Tonga (czas letni)"}
            lg{"Tonga"}
            ls{"Tonga (czas standardowy)"}
        }
        "meta:Truk"{
            ls{"Chuuk"}
        }
        "meta:Turkmenistan"{
            ld{"Turkmenistan (czas letni)"}
            lg{"Turkmenistan"}
            ls{"Turkmenistan (czas standardowy)"}
        }
        "meta:Tuvalu"{
            ls{"Tuvalu"}
        }
        "meta:Uruguay"{
            ld{"Urugwaj (czas letni)"}
            lg{"Urugwaj"}
            ls{"Urugwaj (czas standardowy)"}
        }
        "meta:Uzbekistan"{
            ld{"Uzbekistan (czas letni)"}
            lg{"Uzbekistan"}
            ls{"Uzbekistan (czas standardowy)"}
        }
        "meta:Vanuatu"{
            ld{"Vanuatu (czas letni)"}
            lg{"Vanuatu"}
            ls{"Vanuatu (czas standardowy)"}
        }
        "meta:Venezuela"{
            ls{"Wenezuela"}
        }
        "meta:Vladivostok"{
            ld{"Władywostok (czas letni)"}
            lg{"Władywostok"}
            ls{"Władywostok (czas standardowy)"}
        }
        "meta:Volgograd"{
            ld{"Wołgograd (czas letni)"}
            lg{"Wołgograd"}
            ls{"Wołgograd (czas standardowy)"}
        }
        "meta:Vostok"{
            ls{"Wostok"}
        }
        "meta:Wake"{
            ls{"Wake"}
        }
        "meta:Wallis"{
            ls{"Wallis i Futuna"}
        }
        "meta:Yakutsk"{
            ld{"Jakuck (czas letni)"}
            lg{"Jakuck"}
            ls{"Jakuck (czas standardowy)"}
        }
        "meta:Yekaterinburg"{
            ld{"Jekaterynburg (czas letni)"}
            lg{"Jekaterynburg"}
            ls{"Jekaterynburg (czas standardowy)"}
        }
        fallbackFormat{"{1} ({0})"}
        gmtFormat{"GMT{0}"}
        gmtZeroFormat{"GMT"}
        hourFormat{"+HH:mm;-HH:mm"}
        regionFormat{"czas: {0}"}
        regionFormatDaylight{"{0} (czas letni)"}
        regionFormatStandard{"{0} (czas standardowy)"}
    }
}
