﻿// © 2016 and later: Unicode, Inc. and others.
// License & terms of use: http://www.unicode.org/copyright.html#License
pt{
    Version{"2.1.41.97"}
    zoneStrings{
        "Etc:UTC"{
            ls{"Horário Universal Coordenado"}
        }
        "Europe:Dublin"{
            ld{"Horário Padrão da Irlanda"}
        }
        "Europe:London"{
            ld{"Horário de Verão Britânico"}
        }
        "meta:Acre"{
            ld{"Horário de Verão do Acre"}
            lg{"Horário do Acre"}
            ls{"Horário Padrão do Acre"}
            sd{"ACST"}
            sg{"ACT"}
            ss{"ACT"}
        }
        "meta:Afghanistan"{
            ls{"Horário do Afeganistão"}
        }
        "meta:Africa_Central"{
            ls{"Horário da África Central"}
        }
        "meta:Africa_Eastern"{
            ls{"Horário da África Oriental"}
        }
        "meta:Africa_Southern"{
            ls{"Horário da África do Sul"}
        }
        "meta:Africa_Western"{
            ld{"Horário de Verão da África Ocidental"}
            lg{"Horário da África Ocidental"}
            ls{"Horário Padrão da África Ocidental"}
        }
        "meta:Alaska"{
            ld{"Horário de Verão do Alasca"}
            lg{"Horário do Alasca"}
            ls{"Horário Padrão do Alasca"}
        }
        "meta:Almaty"{
            ld{"Horário de Verão do Almaty"}
            lg{"Horário do Almaty"}
            ls{"Horário Padrão do Almaty"}
        }
        "meta:Amazon"{
            ld{"Horário de Verão do Amazonas"}
            lg{"Horário do Amazonas"}
            ls{"Horário Padrão do Amazonas"}
            sd{"AMST"}
            sg{"AMT"}
            ss{"AMT"}
        }
        "meta:America_Central"{
            ld{"Horário de Verão Central"}
            lg{"Horário Central"}
            ls{"Horário Padrão Central"}
        }
        "meta:America_Eastern"{
            ld{"Horário de Verão do Leste"}
            lg{"Horário do Leste"}
            ls{"Horário Padrão do Leste"}
        }
        "meta:America_Mountain"{
            ld{"Horário de Verão das Montanhas"}
            lg{"Horário das Montanhas"}
            ls{"Horário Padrão das Montanhas"}
        }
        "meta:America_Pacific"{
            ld{"Horário de Verão do Pacífico"}
            lg{"Horário do Pacífico"}
            ls{"Horário Padrão do Pacífico"}
        }
        "meta:Anadyr"{
            ld{"Horário de Verão do Anadyr"}
            lg{"Horário de Anadyr"}
            ls{"Horário Padrão do Anadyr"}
        }
        "meta:Apia"{
            ld{"Horário de Verão de Apia"}
            lg{"Horário de Apia"}
            ls{"Horário Padrão de Apia"}
        }
        "meta:Aqtau"{
            ld{"Horário de Verão do Aqtau"}
            lg{"Horário do Aqtau"}
            ls{"Horário Padrão do Aqtau"}
        }
        "meta:Aqtobe"{
            ld{"Horário de Verão do Aqtobe"}
            lg{"Horário do Aqtobe"}
            ls{"Horário Padrão do Aqtobe"}
        }
        "meta:Arabian"{
            ld{"Horário de Verão da Arábia"}
            lg{"Horário da Arábia"}
            ls{"Horário Padrão da Arábia"}
        }
        "meta:Argentina"{
            ld{"Horário de Verão da Argentina"}
            lg{"Horário da Argentina"}
            ls{"Horário Padrão da Argentina"}
        }
        "meta:Argentina_Western"{
            ld{"Horário de Verão da Argentina Ocidental"}
            lg{"Horário da Argentina Ocidental"}
            ls{"Horário Padrão da Argentina Ocidental"}
        }
        "meta:Armenia"{
            ld{"Horário de Verão da Armênia"}
            lg{"Horário da Armênia"}
            ls{"Horário Padrão da Armênia"}
        }
        "meta:Atlantic"{
            ld{"Horário de Verão do Atlântico"}
            lg{"Horário do Atlântico"}
            ls{"Horário Padrão do Atlântico"}
        }
        "meta:Australia_Central"{
            ld{"Horário de Verão da Austrália Central"}
            lg{"Horário da Austrália Central"}
            ls{"Horário Padrão da Austrália Central"}
        }
        "meta:Australia_CentralWestern"{
            ld{"Horário de Verão da Austrália Centro-Ocidental"}
            lg{"Horário da Austrália Centro-Ocidental"}
            ls{"Horário Padrão da Austrália Centro-Ocidental"}
        }
        "meta:Australia_Eastern"{
            ld{"Horário de Verão da Austrália Oriental"}
            lg{"Horário da Austrália Oriental"}
            ls{"Horário Padrão da Austrália Oriental"}
        }
        "meta:Australia_Western"{
            ld{"Horário de Verão da Austrália Ocidental"}
            lg{"Horário da Austrália Ocidental"}
            ls{"Horário Padrão da Austrália Ocidental"}
        }
        "meta:Azerbaijan"{
            ld{"Horário de Verão do Arzeibaijão"}
            lg{"Horário do Arzeibaijão"}
            ls{"Horário Padrão do Arzeibaijão"}
        }
        "meta:Azores"{
            ld{"Horário de Verão dos Açores"}
            lg{"Horário dos Açores"}
            ls{"Horário Padrão dos Açores"}
        }
        "meta:Bangladesh"{
            ld{"Horário de Verão de Bangladesh"}
            lg{"Horário de Bangladesh"}
            ls{"Horário Padrão de Bangladesh"}
        }
        "meta:Bhutan"{
            ls{"Horário do Butão"}
        }
        "meta:Bolivia"{
            ls{"Horário da Bolívia"}
        }
        "meta:Brasilia"{
            ld{"Horário de Verão de Brasília"}
            lg{"Horário de Brasília"}
            ls{"Horário Padrão de Brasília"}
            sd{"BRST"}
            sg{"BRT"}
            ss{"BRT"}
        }
        "meta:Brunei"{
            ls{"Horário de Brunei Darussalam"}
        }
        "meta:Cape_Verde"{
            ld{"Horário de Verão de Cabo Verde"}
            lg{"Horário de Cabo Verde"}
            ls{"Horário Padrão de Cabo Verde"}
        }
        "meta:Chamorro"{
            ls{"Horário de Chamorro"}
        }
        "meta:Chatham"{
            ld{"Horário de Verão de Chatham"}
            lg{"Horário de Chatham"}
            ls{"Horário Padrão de Chatham"}
        }
        "meta:Chile"{
            ld{"Horário de Verão do Chile"}
            lg{"Horário do Chile"}
            ls{"Horário Padrão do Chile"}
        }
        "meta:China"{
            ld{"Horário de Verão da China"}
            lg{"Horário da China"}
            ls{"Horário Padrão da China"}
        }
        "meta:Choibalsan"{
            ld{"Horário de Verão de Choibalsan"}
            lg{"Horário de Choibalsan"}
            ls{"Horário Padrão de Choibalsan"}
        }
        "meta:Christmas"{
            ls{"Horário da Ilha Christmas"}
        }
        "meta:Cocos"{
            ls{"Horário das Ilhas Coco"}
        }
        "meta:Colombia"{
            ld{"Horário de Verão da Colômbia"}
            lg{"Horário da Colômbia"}
            ls{"Horário Padrão da Colômbia"}
        }
        "meta:Cook"{
            ld{"Meio Horário de Verão das Ilhas Cook"}
            lg{"Horário das Ilhas Cook"}
            ls{"Horário Padrão das Ilhas Cook"}
        }
        "meta:Cuba"{
            ld{"Horário de Verão de Cuba"}
            lg{"Horário de Cuba"}
            ls{"Horário Padrão de Cuba"}
        }
        "meta:Davis"{
            ls{"Horário de Davis"}
        }
        "meta:DumontDUrville"{
            ls{"Horário de Dumont-d’Urville"}
        }
        "meta:East_Timor"{
            ls{"Horário do Timor-Leste"}
        }
        "meta:Easter"{
            ld{"Horário de Verão da Ilha de Páscoa"}
            lg{"Horário da Ilha de Páscoa"}
            ls{"Horário Padrão da Ilha de Páscoa"}
        }
        "meta:Ecuador"{
            ls{"Horário do Equador"}
        }
        "meta:Europe_Central"{
            ld{"Horário de Verão da Europa Central"}
            lg{"Horário da Europa Central"}
            ls{"Horário Padrão da Europa Central"}
        }
        "meta:Europe_Eastern"{
            ld{"Horário de Verão da Europa Oriental"}
            lg{"Horário da Europa Oriental"}
            ls{"Horário Padrão da Europa Oriental"}
        }
        "meta:Europe_Further_Eastern"{
            ls{"Horário do Extremo Leste Europeu"}
        }
        "meta:Europe_Western"{
            ld{"Horário de Verão da Europa Ocidental"}
            lg{"Horário da Europa Ocidental"}
            ls{"Horário Padrão da Europa Ocidental"}
        }
        "meta:Falkland"{
            ld{"Horário de Verão das Ilhas Malvinas"}
            lg{"Horário das Ilhas Malvinas"}
            ls{"Horário Padrão das Ilhas Malvinas"}
        }
        "meta:Fiji"{
            ld{"Horário de Verão de Fiji"}
            lg{"Horário de Fiji"}
            ls{"Horário Padrão de Fiji"}
        }
        "meta:French_Guiana"{
            ls{"Horário da Guiana Francesa"}
        }
        "meta:French_Southern"{
            ls{"Horário da Antártida e do Sul da França"}
        }
        "meta:GMT"{
            ls{"Horário do Meridiano de Greenwich"}
        }
        "meta:Galapagos"{
            ls{"Horário de Galápagos"}
        }
        "meta:Gambier"{
            ls{"Horário de Gambier"}
        }
        "meta:Georgia"{
            ld{"Horário de Verão da Geórgia"}
            lg{"Horário da Geórgia"}
            ls{"Horário Padrão da Geórgia"}
        }
        "meta:Gilbert_Islands"{
            ls{"Horário das Ilhas Gilberto"}
        }
        "meta:Greenland_Eastern"{
            ld{"Horário de Verão da Groelândia Oriental"}
            lg{"Horário da Groelândia Oriental"}
            ls{"Horário Padrão da Groelândia Oriental"}
        }
        "meta:Greenland_Western"{
            ld{"Horário de Verão da Groenlândia Ocidental"}
            lg{"Horário da Groenlândia Ocidental"}
            ls{"Horário Padrão da Groenlândia Ocidental"}
        }
        "meta:Guam"{
            ls{"Horário Padrão de Guam"}
        }
        "meta:Gulf"{
            ls{"Horário do Golfo"}
        }
        "meta:Guyana"{
            ls{"Horário da Guiana"}
        }
        "meta:Hawaii_Aleutian"{
            ld{"Horário de Verão do Havaí e Ilhas Aleutas"}
            lg{"Horário do Havaí e Ilhas Aleutas"}
            ls{"Horário Padrão do Havaí e Ilhas Aleutas"}
        }
        "meta:Hong_Kong"{
            ld{"Horário de Verão de Hong Kong"}
            lg{"Horário de Hong Kong"}
            ls{"Horário Padrão de Hong Kong"}
        }
        "meta:Hovd"{
            ld{"Horário de Verão de Hovd"}
            lg{"Horário de Hovd"}
            ls{"Horário Padrão de Hovd"}
        }
        "meta:India"{
            ls{"Horário Padrão da Índia"}
        }
        "meta:Indian_Ocean"{
            ls{"Horário do Oceano Índico"}
        }
        "meta:Indochina"{
            ls{"Horário da Indochina"}
        }
        "meta:Indonesia_Central"{
            ls{"Horário da Indonésia Central"}
        }
        "meta:Indonesia_Eastern"{
            ls{"Horário da Indonésia Oriental"}
        }
        "meta:Indonesia_Western"{
            ls{"Horário da Indonésia Ocidental"}
        }
        "meta:Iran"{
            ld{"Horário de Verão do Irã"}
            lg{"Horário do Irã"}
            ls{"Horário Padrão do Irã"}
        }
        "meta:Irkutsk"{
            ld{"Horário de Verão de Irkutsk"}
            lg{"Horário de Irkutsk"}
            ls{"Horário Padrão de Irkutsk"}
        }
        "meta:Israel"{
            ld{"Horário de Verão de Israel"}
            lg{"Horário de Israel"}
            ls{"Horário Padrão de Israel"}
        }
        "meta:Japan"{
            ld{"Horário de Verão do Japão"}
            lg{"Horário do Japão"}
            ls{"Horário Padrão do Japão"}
        }
        "meta:Kamchatka"{
            ld{"Horário de Verão de Petropavlovsk-Kamchatski"}
            lg{"Horário de Petropavlovsk-Kamchatski"}
            ls{"Horário Padrão de Petropavlovsk-Kamchatski"}
        }
        "meta:Kazakhstan_Eastern"{
            ls{"Horário do Casaquistão Oriental"}
        }
        "meta:Kazakhstan_Western"{
            ls{"Horário do Casaquistão Ocidental"}
        }
        "meta:Korea"{
            ld{"Horário de Verão da Coreia"}
            lg{"Horário da Coreia"}
            ls{"Horário Padrão da Coreia"}
        }
        "meta:Kosrae"{
            ls{"Horário de Kosrae"}
        }
        "meta:Krasnoyarsk"{
            ld{"Horário de Verão de Krasnoyarsk"}
            lg{"Horário de Krasnoyarsk"}
            ls{"Horário Padrão de Krasnoyarsk"}
        }
        "meta:Kyrgystan"{
            ls{"Horário do Quirguistão"}
        }
        "meta:Lanka"{
            ls{"Horário de Lanka"}
        }
        "meta:Line_Islands"{
            ls{"Horário das Ilhas Line"}
        }
        "meta:Lord_Howe"{
            ld{"Horário de Verão de Lord Howe"}
            lg{"Horário de Lord Howe"}
            ls{"Horário Padrão de Lord Howe"}
        }
        "meta:Macau"{
            ld{"Horário de Verão de Macau"}
            lg{"Horário de Macau"}
            ls{"Horário Padrão de Macau"}
        }
        "meta:Macquarie"{
            ls{"Horário da Ilha Macquarie"}
        }
        "meta:Magadan"{
            ld{"Horário de Verão de Magadan"}
            lg{"Horário de Magadan"}
            ls{"Horário Padrão de Magadan"}
        }
        "meta:Malaysia"{
            ls{"Horário da Malásia"}
        }
        "meta:Maldives"{
            ls{"Horário das Ilhas Maldivas"}
        }
        "meta:Marquesas"{
            ls{"Horário das Marquesas"}
        }
        "meta:Marshall_Islands"{
            ls{"Horário das Ilhas Marshall"}
        }
        "meta:Mauritius"{
            ld{"Horário de Verão de Maurício"}
            lg{"Horário de Maurício"}
            ls{"Horário Padrão de Maurício"}
        }
        "meta:Mawson"{
            ls{"Horário de Mawson"}
        }
        "meta:Mexico_Northwest"{
            ld{"Horário de Verão do Noroeste do México"}
            lg{"Horário do Noroeste do México"}
            ls{"Horário Padrão do Noroeste do México"}
        }
        "meta:Mexico_Pacific"{
            ld{"Horário de Verão do Pacífico Mexicano"}
            lg{"Horário do Pacífico Mexicano"}
            ls{"Horário Padrão do Pacífico Mexicano"}
        }
        "meta:Mongolia"{
            ld{"Horário de Verão de Ulan Bator"}
            lg{"Horário de Ulan Bator"}
            ls{"Horário Padrão de Ulan Bator"}
        }
        "meta:Moscow"{
            ld{"Horário de Verão de Moscou"}
            lg{"Horário de Moscou"}
            ls{"Horário Padrão de Moscou"}
        }
        "meta:Myanmar"{
            ls{"Horário de Mianmar"}
        }
        "meta:Nauru"{
            ls{"Horário de Nauru"}
        }
        "meta:Nepal"{
            ls{"Horário do Nepal"}
        }
        "meta:New_Caledonia"{
            ld{"Horário de Verão da Nova Caledônia"}
            lg{"Horário da Nova Caledônia"}
            ls{"Horário Padrão da Nova Caledônia"}
        }
        "meta:New_Zealand"{
            ld{"Horário de Verão da Nova Zelândia"}
            lg{"Horário da Nova Zelândia"}
            ls{"Horário Padrão da Nova Zelândia"}
        }
        "meta:Newfoundland"{
            ld{"Horário de Verão da Terra Nova"}
            lg{"Horário da Terra Nova"}
            ls{"Horário Padrão da Terra Nova"}
        }
        "meta:Niue"{
            ls{"Horário de Niue"}
        }
        "meta:Norfolk"{
            ls{"Horário da Ilha Norfolk"}
        }
        "meta:Noronha"{
            ld{"Horário de Verão de Fernando de Noronha"}
            lg{"Horário de Fernando de Noronha"}
            ls{"Horário Padrão de Fernando de Noronha"}
        }
        "meta:North_Mariana"{
            ls{"Horário das Ilhas Mariana do Norte"}
        }
        "meta:Novosibirsk"{
            ld{"Horário de Verão de Novosibirsk"}
            lg{"Horário de Novosibirsk"}
            ls{"Horário Padrão de Novosibirsk"}
        }
        "meta:Omsk"{
            ld{"Horário de Verão de Omsk"}
            lg{"Horário de Omsk"}
            ls{"Horário Padrão de Omsk"}
        }
        "meta:Pakistan"{
            ld{"Horário de Verão do Paquistão"}
            lg{"Horário do Paquistão"}
            ls{"Horário Padrão do Paquistão"}
        }
        "meta:Palau"{
            ls{"Horário de Palau"}
        }
        "meta:Papua_New_Guinea"{
            ls{"Horário de Papua Nova Guiné"}
        }
        "meta:Paraguay"{
            ld{"Horário de Verão do Paraguai"}
            lg{"Horário do Paraguai"}
            ls{"Horário Padrão do Paraguai"}
        }
        "meta:Peru"{
            ld{"Horário de Verão do Peru"}
            lg{"Horário do Peru"}
            ls{"Horário Padrão do Peru"}
        }
        "meta:Philippines"{
            ld{"Horário de Verão das Filipinas"}
            lg{"Horário das Filipinas"}
            ls{"Horário Padrão das Filipinas"}
        }
        "meta:Phoenix_Islands"{
            ls{"Horário das Ilhas Fênix"}
        }
        "meta:Pierre_Miquelon"{
            ld{"Horário de Verão de Saint Pierre e Miquelon"}
            lg{"Horário de Saint Pierre e Miquelon"}
            ls{"Horário Padrão de Saint Pierre e Miquelon"}
        }
        "meta:Pitcairn"{
            ls{"Horário de Pitcairn"}
        }
        "meta:Ponape"{
            ls{"Horário de Ponape"}
        }
        "meta:Pyongyang"{
            ls{"Horário de Pyongyang"}
        }
        "meta:Qyzylorda"{
            ld{"Horário de Verão de Qyzylorda"}
            lg{"Horário de Qyzylorda"}
            ls{"Horário Padrão de Qyzylorda"}
        }
        "meta:Reunion"{
            ls{"Horário de Reunião"}
        }
        "meta:Rothera"{
            ls{"Horário de Rothera"}
        }
        "meta:Sakhalin"{
            ld{"Horário de Verão de Sacalina"}
            lg{"Horário de Sacalina"}
            ls{"Horário Padrão de Sacalina"}
        }
        "meta:Samara"{
            ld{"Horário de Verão de Samara"}
            lg{"Horário de Samara"}
            ls{"Horário Padrão de Samara"}
        }
        "meta:Samoa"{
            ld{"Horário de Verão de Samoa"}
            lg{"Horário de Samoa"}
            ls{"Horário Padrão de Samoa"}
        }
        "meta:Seychelles"{
            ls{"Horário de Seicheles"}
        }
        "meta:Singapore"{
            ls{"Horário Padrão de Cingapura"}
        }
        "meta:Solomon"{
            ls{"Horário das Ilhas Salomão"}
        }
        "meta:South_Georgia"{
            ls{"Horário da Geórgia do Sul"}
        }
        "meta:Suriname"{
            ls{"Horário do Suriname"}
        }
        "meta:Syowa"{
            ls{"Horário de Syowa"}
        }
        "meta:Tahiti"{
            ls{"Horário do Taiti"}
        }
        "meta:Taipei"{
            ld{"Horário de Verão de Taipei"}
            lg{"Horário de Taipei"}
            ls{"Horário Padrão de Taipei"}
        }
        "meta:Tajikistan"{
            ls{"Horário do Tajiquistão"}
        }
        "meta:Tokelau"{
            ls{"Horário de Tokelau"}
        }
        "meta:Tonga"{
            ld{"Horário de Verão de Tonga"}
            lg{"Horário de Tonga"}
            ls{"Horário Padrão de Tonga"}
        }
        "meta:Truk"{
            ls{"Horário de Chuuk"}
        }
        "meta:Turkmenistan"{
            ld{"Horário de Verão do Turcomenistão"}
            lg{"Horário do Turcomenistão"}
            ls{"Horário Padrão do Turcomenistão"}
        }
        "meta:Tuvalu"{
            ls{"Horário de Tuvalu"}
        }
        "meta:Uruguay"{
            ld{"Horário de Verão do Uruguai"}
            lg{"Horário do Uruguai"}
            ls{"Horário Padrão do Uruguai"}
        }
        "meta:Uzbekistan"{
            ld{"Horário de Verão do Uzbequistão"}
            lg{"Horário do Uzbequistão"}
            ls{"Horário Padrão do Uzbequistão"}
        }
        "meta:Vanuatu"{
            ld{"Horário de Verão de Vanuatu"}
            lg{"Horário de Vanuatu"}
            ls{"Horário Padrão de Vanuatu"}
        }
        "meta:Venezuela"{
            ls{"Horário da Venezuela"}
        }
        "meta:Vladivostok"{
            ld{"Horário de Verão de Vladivostok"}
            lg{"Horário de Vladivostok"}
            ls{"Horário Padrão de Vladivostok"}
        }
        "meta:Volgograd"{
            ld{"Horário de Verão de Volgogrado"}
            lg{"Horário de Volgogrado"}
            ls{"Horário Padrão de Volgogrado"}
        }
        "meta:Vostok"{
            ls{"Horário de Vostok"}
        }
        "meta:Wake"{
            ls{"Horário das Ilhas Wake"}
        }
        "meta:Wallis"{
            ls{"Horário de Wallis e Futuna"}
        }
        "meta:Yakutsk"{
            ld{"Horário de Verão de Yakutsk"}
            lg{"Horário de Yakutsk"}
            ls{"Horário Padrão de Yakutsk"}
        }
        "meta:Yekaterinburg"{
            ld{"Horário de Verão de Ecaterimburgo"}
            lg{"Horário de Ecaterimburgo"}
            ls{"Horário Padrão de Ecaterimburgo"}
        }
        fallbackFormat{"{1} ({0})"}
        gmtFormat{"GMT{0}"}
        gmtZeroFormat{"GMT"}
        hourFormat{"+HH:mm;-HH:mm"}
        regionFormat{"Horário {0}"}
        regionFormatDaylight{"Horário de Verão: {0}"}
        regionFormatStandard{"Horário Padrão: {0}"}
    }
}
