﻿// © 2016 and later: Unicode, Inc. and others.
// License & terms of use: http://www.unicode.org/copyright.html#License
th{
    Version{"2.1.41.97"}
    zoneStrings{
        "Etc:UTC"{
            ls{"เวลาสากลเชิงพิกัด"}
        }
        "Europe:Dublin"{
            ld{"เวลามาตรฐานไอร์แลนด์"}
        }
        "Europe:London"{
            ld{"เวลาฤดูร้อนอังกฤษ"}
        }
        "meta:Acre"{
            ld{"เวลาฤดูร้อนอาเกร"}
            lg{"เวลาอาเกร"}
            ls{"เวลามาตรฐานอาเกร"}
        }
        "meta:Afghanistan"{
            ls{"เวลาอัฟกานิสถาน"}
        }
        "meta:Africa_Central"{
            ls{"เวลาแอฟริกากลาง"}
        }
        "meta:Africa_Eastern"{
            ls{"เวลาแอฟริกาตะวันออก"}
        }
        "meta:Africa_Southern"{
            ls{"เวลาแอฟริกาใต้"}
        }
        "meta:Africa_Western"{
            ld{"เวลาฤดูร้อนแอฟริกาตะวันตก"}
            lg{"เวลาแอฟริกาตะวันตก"}
            ls{"เวลามาตรฐานแอฟริกาตะวันตก"}
        }
        "meta:Alaska"{
            ld{"เวลาออมแสงของอะแลสกา"}
            lg{"เวลาอะแลสกา"}
            ls{"เวลามาตรฐานอะแลสกา"}
        }
        "meta:Almaty"{
            ld{"เวลาฤดูร้อนอัลมาตี"}
            lg{"เวลาอัลมาตี"}
            ls{"เวลามาตรฐานอัลมาตี"}
        }
        "meta:Amazon"{
            ld{"เวลาฤดูร้อนแอมะซอน"}
            lg{"เวลาแอมะซอน"}
            ls{"เวลามาตรฐานแอมะซอน"}
        }
        "meta:America_Central"{
            ld{"เวลาออมแสงตอนกลางในอเมริกาเหนือ"}
            lg{"เวลาตอนกลางในอเมริกาเหนือ"}
            ls{"เวลามาตรฐานตอนกลางในอเมริกาเหนือ"}
        }
        "meta:America_Eastern"{
            ld{"เวลาออมแสงทางตะวันออกในอเมริกาเหนือ"}
            lg{"เวลาทางตะวันออกในอเมริกาเหนือ"}
            ls{"เวลามาตรฐานทางตะวันออกในอเมริกาเหนือ"}
        }
        "meta:America_Mountain"{
            ld{"เวลาออมแสงแถบภูเขาในอเมริกาเหนือ"}
            lg{"เวลาแถบภูเขาในอเมริกาเหนือ"}
            ls{"เวลามาตรฐานแถบภูเขาในอเมริกาเหนือ"}
        }
        "meta:America_Pacific"{
            ld{"เวลาออมแสงแปซิฟิกในอเมริกาเหนือ"}
            lg{"เวลาแปซิฟิกในอเมริกาเหนือ"}
            ls{"เวลามาตรฐานแปซิฟิกในอเมริกาเหนือ"}
        }
        "meta:Anadyr"{
            ld{"เวลาฤดูร้อนอะนาดีร์"}
            lg{"เวลาอะนาดีร์"}
            ls{"เวลามาตรฐานอะนาดีร์"}
        }
        "meta:Apia"{
            ld{"เวลาออมแสงอาปีอา"}
            lg{"เวลาอาปีอา"}
            ls{"เวลามาตรฐานอาปีอา"}
        }
        "meta:Aqtau"{
            ld{"เวลาฤดูร้อนอัคตาอู"}
            lg{"เวลาอัคตาอู"}
            ls{"เวลามาตรฐานอัคตาอู"}
        }
        "meta:Aqtobe"{
            ld{"เวลาฤดูร้อนอัคโทเบ"}
            lg{"เวลาอัคโทเบ"}
            ls{"เวลามาตรฐานอัคโทเบ"}
        }
        "meta:Arabian"{
            ld{"เวลาออมแสงอาหรับ"}
            lg{"เวลาอาหรับ"}
            ls{"เวลามาตรฐานอาหรับ"}
        }
        "meta:Argentina"{
            ld{"เวลาฤดูร้อนอาร์เจนตินา"}
            lg{"เวลาอาร์เจนตินา"}
            ls{"เวลามาตรฐานอาร์เจนตินา"}
        }
        "meta:Argentina_Western"{
            ld{"เวลาฤดูร้อนทางตะวันตกของอาร์เจนตินา"}
            lg{"เวลาตะวันตกของอาร์เจนตินา"}
            ls{"เวลามาตรฐานทางตะวันตกของอาร์เจนตินา"}
        }
        "meta:Armenia"{
            ld{"เวลาฤดูร้อนอาร์เมเนีย"}
            lg{"เวลาอาร์เมเนีย"}
            ls{"เวลามาตรฐานอาร์เมเนีย"}
        }
        "meta:Atlantic"{
            ld{"เวลาออมแสงของแอตแลนติก"}
            lg{"เวลาแอตแลนติก"}
            ls{"เวลามาตรฐานแอตแลนติก"}
        }
        "meta:Australia_Central"{
            ld{"เวลาออมแสงทางตอนกลางของออสเตรเลีย"}
            lg{"เวลาออสเตรเลียกลาง"}
            ls{"เวลามาตรฐานทางตอนกลางของออสเตรเลีย"}
        }
        "meta:Australia_CentralWestern"{
            ld{"เวลาออมแสงทางตะวันตกตอนกลางของออสเตรเลีย"}
            lg{"เวลาทางตะวันตกตอนกลางของออสเตรเลีย"}
            ls{"เวลามาตรฐานทางตะวันตกตอนกลางของออสเตรเลีย"}
        }
        "meta:Australia_Eastern"{
            ld{"เวลาออมแสงทางตะวันออกของออสเตรเลีย"}
            lg{"เวลาออสเตรเลียตะวันออก"}
            ls{"เวลามาตรฐานทางตะวันออกของออสเตรเลีย"}
        }
        "meta:Australia_Western"{
            ld{"เวลาออมแสงทางตะวันตกของออสเตรเลีย"}
            lg{"เวลาออสเตรเลียตะวันตก"}
            ls{"เวลามาตรฐานทางตะวันตกของออสเตรเลีย"}
        }
        "meta:Azerbaijan"{
            ld{"เวลาฤดูร้อนอาเซอร์ไบจาน"}
            lg{"เวลาอาเซอร์ไบจาน"}
            ls{"เวลามาตรฐานอาเซอร์ไบจาน"}
        }
        "meta:Azores"{
            ld{"เวลาฤดูร้อนอะโซร์ส"}
            lg{"เวลาอะโซร์ส"}
            ls{"เวลามาตรฐานอะโซร์ส"}
        }
        "meta:Bangladesh"{
            ld{"เวลาฤดูร้อนบังกลาเทศ"}
            lg{"เวลาบังกลาเทศ"}
            ls{"เวลามาตรฐานบังกลาเทศ"}
        }
        "meta:Bhutan"{
            ls{"เวลาภูฏาน"}
        }
        "meta:Bolivia"{
            ls{"เวลาโบลิเวีย"}
        }
        "meta:Brasilia"{
            ld{"เวลาฤดูร้อนบราซิเลีย"}
            lg{"เวลาบราซิเลีย"}
            ls{"เวลามาตรฐานบราซิเลีย"}
        }
        "meta:Brunei"{
            ls{"เวลาบรูไนดารุสซาลาม"}
        }
        "meta:Cape_Verde"{
            ld{"เวลาฤดูร้อนเคปเวิร์ด"}
            lg{"เวลาเคปเวิร์ด"}
            ls{"เวลามาตรฐานเคปเวิร์ด"}
        }
        "meta:Casey"{
            ls{"เวลาเคซีย์"}
        }
        "meta:Chamorro"{
            ls{"เวลาชามอร์โร"}
        }
        "meta:Chatham"{
            ld{"เวลาออมแสงแชทัม"}
            lg{"เวลาแชทัม"}
            ls{"เวลามาตรฐานแชทัม"}
        }
        "meta:Chile"{
            ld{"เวลาฤดูร้อนชิลี"}
            lg{"เวลาชิลี"}
            ls{"เวลามาตรฐานชิลี"}
        }
        "meta:China"{
            ld{"เวลาออมแสงจีน"}
            lg{"เวลาจีน"}
            ls{"เวลามาตรฐานจีน"}
        }
        "meta:Choibalsan"{
            ld{"เวลาฤดูร้อนชอยปาลชาน"}
            lg{"เวลาชอยปาลชาน"}
            ls{"เวลามาตรฐานชอยปาลชาน"}
        }
        "meta:Christmas"{
            ls{"เวลาเกาะคริสต์มาส"}
        }
        "meta:Cocos"{
            ls{"เวลาหมู่เกาะโคโคส"}
        }
        "meta:Colombia"{
            ld{"เวลาฤดูร้อนโคลอมเบีย"}
            lg{"เวลาโคลอมเบีย"}
            ls{"เวลามาตรฐานโคลอมเบีย"}
        }
        "meta:Cook"{
            ld{"เวลาครึ่งฤดูร้อนหมู่เกาะคุก"}
            lg{"เวลาหมู่เกาะคุก"}
            ls{"เวลามาตรฐานหมู่เกาะคุก"}
        }
        "meta:Cuba"{
            ld{"เวลาออมแสงของคิวบา"}
            lg{"เวลาคิวบา"}
            ls{"เวลามาตรฐานคิวบา"}
        }
        "meta:Davis"{
            ls{"เวลาเดวิส"}
        }
        "meta:DumontDUrville"{
            ls{"เวลาดูมองต์ดูร์วิลล์"}
        }
        "meta:East_Timor"{
            ls{"เวลาติมอร์ตะวันออก"}
        }
        "meta:Easter"{
            ld{"เวลาฤดูร้อนเกาะอีสเตอร์"}
            lg{"เวลาเกาะอีสเตอร์"}
            ls{"เวลามาตรฐานเกาะอีสเตอร์"}
        }
        "meta:Ecuador"{
            ls{"เวลาเอกวาดอร์"}
        }
        "meta:Europe_Central"{
            ld{"เวลาฤดูร้อนยุโรปกลาง"}
            lg{"เวลายุโรปกลาง"}
            ls{"เวลามาตรฐานยุโรปกลาง"}
        }
        "meta:Europe_Eastern"{
            ld{"เวลาฤดูร้อนยุโรปตะวันออก"}
            lg{"เวลายุโรปตะวันออก"}
            ls{"เวลามาตรฐานยุโรปตะวันออก"}
        }
        "meta:Europe_Further_Eastern"{
            ls{"เวลายุโรปตะวันออกไกล"}
        }
        "meta:Europe_Western"{
            ld{"เวลาฤดูร้อนยุโรปตะวันตก"}
            lg{"เวลายุโรปตะวันตก"}
            ls{"เวลามาตรฐานยุโรปตะวันตก"}
        }
        "meta:Falkland"{
            ld{"เวลาฤดูร้อนหมู่เกาะฟอล์กแลนด์"}
            lg{"เวลาหมู่เกาะฟอล์กแลนด์"}
            ls{"เวลามาตรฐานหมู่เกาะฟอล์กแลนด์"}
        }
        "meta:Fiji"{
            ld{"เวลาฤดูร้อนฟิจิ"}
            lg{"เวลาฟิจิ"}
            ls{"เวลามาตรฐานฟิจิ"}
        }
        "meta:French_Guiana"{
            ls{"เวลาเฟรนช์เกียนา"}
        }
        "meta:French_Southern"{
            ls{"เวลาเฟรนช์เซาเทิร์นและแอนตาร์กติก"}
        }
        "meta:GMT"{
            ls{"เวลามาตรฐานกรีนิช"}
        }
        "meta:Galapagos"{
            ls{"เวลากาลาปาโกส"}
        }
        "meta:Gambier"{
            ls{"เวลาแกมเบียร์"}
        }
        "meta:Georgia"{
            ld{"เวลาฤดูร้อนจอร์เจีย"}
            lg{"เวลาจอร์เจีย"}
            ls{"เวลามาตรฐานจอร์เจีย"}
        }
        "meta:Gilbert_Islands"{
            ls{"เวลาหมู่เกาะกิลเบิร์ต"}
        }
        "meta:Greenland_Eastern"{
            ld{"เวลาฤดูร้อนกรีนแลนด์ตะวันออก"}
            lg{"เวลากรีนแลนด์ตะวันออก"}
            ls{"เวลามาตรฐานกรีนแลนด์ตะวันออก"}
        }
        "meta:Greenland_Western"{
            ld{"เวลาฤดูร้อนกรีนแลนด์ตะวันตก"}
            lg{"เวลากรีนแลนด์ตะวันตก"}
            ls{"เวลามาตรฐานกรีนแลนด์ตะวันตก"}
        }
        "meta:Guam"{
            ls{"เวลากวม"}
        }
        "meta:Gulf"{
            ls{"เวลากัลฟ์"}
        }
        "meta:Guyana"{
            ls{"เวลากายอานา"}
        }
        "meta:Hawaii_Aleutian"{
            ld{"เวลาออมแสงฮาวาย-อะลูเชียน"}
            lg{"เวลาฮาวาย-อะลูเชียน"}
            ls{"เวลามาตรฐานฮาวาย-อะลูเชียน"}
        }
        "meta:Hong_Kong"{
            ld{"เวลาฤดูร้อนฮ่องกง"}
            lg{"เวลาฮ่องกง"}
            ls{"เวลามาตรฐานฮ่องกง"}
        }
        "meta:Hovd"{
            ld{"เวลาฤดูร้อนฮอฟด์"}
            lg{"เวลาฮอฟด์"}
            ls{"เวลามาตรฐานฮอฟด์"}
        }
        "meta:India"{
            ls{"เวลาอินเดีย"}
        }
        "meta:Indian_Ocean"{
            ls{"เวลามหาสมุทรอินเดีย"}
        }
        "meta:Indochina"{
            ls{"เวลาอินโดจีน"}
        }
        "meta:Indonesia_Central"{
            ls{"เวลาอินโดนีเซียตอนกลาง"}
        }
        "meta:Indonesia_Eastern"{
            ls{"เวลาอินโดนีเซียฝั่งตะวันออก"}
        }
        "meta:Indonesia_Western"{
            ls{"เวลาอินโดนีเซียฝั่งตะวันตก"}
        }
        "meta:Iran"{
            ld{"เวลาออมแสงอิหร่าน"}
            lg{"เวลาอิหร่าน"}
            ls{"เวลามาตรฐานอิหร่าน"}
        }
        "meta:Irkutsk"{
            ld{"เวลาฤดูร้อนอีร์คุตสค์"}
            lg{"เวลาอีร์คุตสค์"}
            ls{"เวลามาตรฐานอีร์คุตสค์"}
        }
        "meta:Israel"{
            ld{"เวลาออมแสงอิสราเอล"}
            lg{"เวลาอิสราเอล"}
            ls{"เวลามาตรฐานอิสราเอล"}
        }
        "meta:Japan"{
            ld{"เวลาออมแสงญี่ปุ่น"}
            lg{"เวลาญี่ปุ่น"}
            ls{"เวลามาตรฐานญี่ปุ่น"}
        }
        "meta:Kamchatka"{
            ld{"เวลาฤดูร้อนเปโตรปัฟลอฟสค์-คัมชัตสกี"}
            lg{"เวลาคัมชัตคา"}
            ls{"เวลาเปโตรปัฟลอฟสค์-คัมชัตสกี"}
        }
        "meta:Kazakhstan_Eastern"{
            ls{"เวลาคาซัคสถานตะวันออก"}
        }
        "meta:Kazakhstan_Western"{
            ls{"เวลาคาซัคสถานตะวันตก"}
        }
        "meta:Korea"{
            ld{"เวลาออมแสงเกาหลี"}
            lg{"เวลาเกาหลี"}
            ls{"เวลามาตรฐานเกาหลี"}
        }
        "meta:Kosrae"{
            ls{"เวลาคอสไร"}
        }
        "meta:Krasnoyarsk"{
            ld{"เวลาฤดูร้อนครัสโนยาสค์"}
            lg{"เวลาครัสโนยาสค์"}
            ls{"เวลามาตรฐานครัสโนยาสค์"}
        }
        "meta:Kyrgystan"{
            ls{"เวลาคีร์กีซสถาน"}
        }
        "meta:Lanka"{
            ls{"เวลาลังกา"}
        }
        "meta:Line_Islands"{
            ls{"เวลาหมู่เกาะไลน์"}
        }
        "meta:Lord_Howe"{
            ld{"เวลาออมแสงลอร์ดโฮว์"}
            lg{"เวลาลอร์ดโฮว์"}
            ls{"เวลามาตรฐานลอร์ดโฮว์"}
        }
        "meta:Macau"{
            ld{"เวลาฤดูร้อนมาเก๊า"}
            lg{"เวลามาเก๊า"}
            ls{"เวลามาตรฐานมาเก๊า"}
        }
        "meta:Macquarie"{
            ls{"เวลาเกาะแมกควอรี"}
        }
        "meta:Magadan"{
            ld{"เวลาฤดูร้อนมากาดาน"}
            lg{"เวลามากาดาน"}
            ls{"เวลามาตรฐานมากาดาน"}
        }
        "meta:Malaysia"{
            ls{"เวลามาเลเซีย"}
        }
        "meta:Maldives"{
            ls{"เวลามัลดีฟส์"}
        }
        "meta:Marquesas"{
            ls{"เวลามาร์เคซัส"}
        }
        "meta:Marshall_Islands"{
            ls{"เวลาหมู่เกาะมาร์แชลล์"}
        }
        "meta:Mauritius"{
            ld{"เวลาฤดูร้อนของมอริเชียส"}
            lg{"เวลามอริเชียส"}
            ls{"เวลามาตรฐานมอริเชียส"}
        }
        "meta:Mawson"{
            ls{"เวลามอว์สัน"}
        }
        "meta:Mexico_Northwest"{
            ld{"เวลาออมแสงเม็กซิโกตะวันตกเฉียงเหนือ"}
            lg{"เวลาเม็กซิโกตะวันตกเฉียงเหนือ"}
            ls{"เวลามาตรฐานเม็กซิโกตะวันตกเฉียงเหนือ"}
        }
        "meta:Mexico_Pacific"{
            ld{"เวลาออมแสงแปซิฟิกเม็กซิโก"}
            lg{"เวลาแปซิฟิกเม็กซิโก"}
            ls{"เวลามาตรฐานแปซิฟิกเม็กซิโก"}
        }
        "meta:Mongolia"{
            ld{"เวลาฤดูร้อนอูลานบาตอร์"}
            lg{"เวลาอูลานบาตอร์"}
            ls{"เวลามาตรฐานอูลานบาตอร์"}
        }
        "meta:Moscow"{
            ld{"เวลาฤดูร้อนมอสโก"}
            lg{"เวลามอสโก"}
            ls{"เวลามาตรฐานมอสโก"}
        }
        "meta:Myanmar"{
            ls{"เวลาพม่า"}
        }
        "meta:Nauru"{
            ls{"เวลานาอูรู"}
        }
        "meta:Nepal"{
            ls{"เวลาเนปาล"}
        }
        "meta:New_Caledonia"{
            ld{"เวลาฤดูร้อนนิวแคลิโดเนีย"}
            lg{"เวลานิวแคลิโดเนีย"}
            ls{"เวลามาตรฐานนิวแคลิโดเนีย"}
        }
        "meta:New_Zealand"{
            ld{"เวลาออมแสงนิวซีแลนด์"}
            lg{"เวลานิวซีแลนด์"}
            ls{"เวลามาตรฐานนิวซีแลนด์"}
        }
        "meta:Newfoundland"{
            ld{"เวลาออมแสงนิวฟันด์แลนด์"}
            lg{"เวลานิวฟันด์แลนด์"}
            ls{"เวลามาตรฐานนิวฟันด์แลนด์"}
        }
        "meta:Niue"{
            ls{"เวลานีอูเอ"}
        }
        "meta:Norfolk"{
            ls{"เวลาเกาะนอร์ฟอล์ก"}
        }
        "meta:Noronha"{
            ld{"เวลาฤดูร้อนของหมู่เกาะเฟอร์นันโด"}
            lg{"เวลาหมู่เกาะเฟอร์นันโด"}
            ls{"เวลามาตรฐานหมู่เกาะเฟอร์นันโด"}
        }
        "meta:North_Mariana"{
            ls{"เวลาหมู่เกาะมาเรียนาเหนือ"}
        }
        "meta:Novosibirsk"{
            ld{"เวลาฤดูร้อนโนโวซีบีสค์"}
            lg{"เวลาโนโวซีบีสค์"}
            ls{"เวลามาตรฐานโนโวซีบีสค์"}
        }
        "meta:Omsk"{
            ld{"เวลาฤดูร้อนออมสค์"}
            lg{"เวลาออมสค์"}
            ls{"เวลามาตรฐานออมสค์"}
        }
        "meta:Pakistan"{
            ld{"เวลาฤดูร้อนปากีสถาน"}
            lg{"เวลาปากีสถาน"}
            ls{"เวลามาตรฐานปากีสถาน"}
        }
        "meta:Palau"{
            ls{"เวลาปาเลา"}
        }
        "meta:Papua_New_Guinea"{
            ls{"เวลาปาปัวนิวกินี"}
        }
        "meta:Paraguay"{
            ld{"เวลาฤดูร้อนปารากวัย"}
            lg{"เวลาปารากวัย"}
            ls{"เวลามาตรฐานปารากวัย"}
        }
        "meta:Peru"{
            ld{"เวลาฤดูร้อนเปรู"}
            lg{"เวลาเปรู"}
            ls{"เวลามาตรฐานเปรู"}
        }
        "meta:Philippines"{
            ld{"เวลาฤดูร้อนฟิลิปปินส์"}
            lg{"เวลาฟิลิปปินส์"}
            ls{"เวลามาตรฐานฟิลิปปินส์"}
        }
        "meta:Phoenix_Islands"{
            ls{"เวลาหมู่เกาะฟินิกซ์"}
        }
        "meta:Pierre_Miquelon"{
            ld{"เวลาออมแสงของแซงปีแยร์และมีเกอลง"}
            lg{"เวลาแซงปีแยร์และมีเกอลง"}
            ls{"เวลามาตรฐานแซงปีแยร์และมีเกอลง"}
        }
        "meta:Pitcairn"{
            ls{"เวลาพิตแคร์น"}
        }
        "meta:Ponape"{
            ls{"เวลาโปนาเป"}
        }
        "meta:Pyongyang"{
            ls{"เวลาเปียงยาง"}
        }
        "meta:Qyzylorda"{
            ld{"เวลาฤดูร้อนคืยซิลออร์ดา"}
            lg{"เวลาคืยซิลออร์ดา"}
            ls{"เวลามาตรฐานคืยซิลออร์ดา"}
        }
        "meta:Reunion"{
            ls{"เวลาเรอูนียง"}
        }
        "meta:Rothera"{
            ls{"เวลาโรธีรา"}
        }
        "meta:Sakhalin"{
            ld{"เวลาฤดูร้อนซาคาลิน"}
            lg{"เวลาซาคาลิน"}
            ls{"เวลามาตรฐานซาคาลิน"}
        }
        "meta:Samara"{
            ld{"เวลาฤดูร้อนซามารา"}
            lg{"เวลาซามารา"}
            ls{"เวลามาตรฐานซามารา"}
        }
        "meta:Samoa"{
            ld{"เวลาฤดูร้อนซามัว"}
            lg{"เวลาซามัว"}
            ls{"เวลามาตรฐานซามัว"}
        }
        "meta:Seychelles"{
            ls{"เวลาเซเชลส์"}
        }
        "meta:Singapore"{
            ls{"เวลาสิงคโปร์"}
        }
        "meta:Solomon"{
            ls{"เวลาหมู่เกาะโซโลมอน"}
        }
        "meta:South_Georgia"{
            ls{"เวลาเซาท์จอร์เจีย"}
        }
        "meta:Suriname"{
            ls{"เวลาซูรินาเม"}
        }
        "meta:Syowa"{
            ls{"เวลาไซโยวา"}
        }
        "meta:Tahiti"{
            ls{"เวลาตาฮีตี"}
        }
        "meta:Taipei"{
            ld{"เวลาออมแสงไทเป"}
            lg{"เวลาไทเป"}
            ls{"เวลามาตรฐานไทเป"}
        }
        "meta:Tajikistan"{
            ls{"เวลาทาจิกิสถาน"}
        }
        "meta:Tokelau"{
            ls{"เวลาโตเกเลา"}
        }
        "meta:Tonga"{
            ld{"เวลาฤดูร้อนตองกา"}
            lg{"เวลาตองกา"}
            ls{"เวลามาตรฐานตองกา"}
        }
        "meta:Truk"{
            ls{"เวลาชุก"}
        }
        "meta:Turkmenistan"{
            ld{"เวลาฤดูร้อนเติร์กเมนิสถาน"}
            lg{"เวลาเติร์กเมนิสถาน"}
            ls{"เวลามาตรฐานเติร์กเมนิสถาน"}
        }
        "meta:Tuvalu"{
            ls{"เวลาตูวาลู"}
        }
        "meta:Uruguay"{
            ld{"เวลาฤดูร้อนอุรุกวัย"}
            lg{"เวลาอุรุกวัย"}
            ls{"เวลามาตรฐานอุรุกวัย"}
        }
        "meta:Uzbekistan"{
            ld{"เวลาฤดูร้อนอุซเบกิสถาน"}
            lg{"เวลาอุซเบกิสถาน"}
            ls{"เวลามาตรฐานอุซเบกิสถาน"}
        }
        "meta:Vanuatu"{
            ld{"เวลาฤดูร้อนวานูอาตู"}
            lg{"เวลาวานูอาตู"}
            ls{"เวลามาตรฐานวานูอาตู"}
        }
        "meta:Venezuela"{
            ls{"เวลาเวเนซุเอลา"}
        }
        "meta:Vladivostok"{
            ld{"เวลาฤดูร้อนวลาดีวอสตอค"}
            lg{"เวลาวลาดีวอสตอค"}
            ls{"เวลามาตรฐานวลาดีวอสตอค"}
        }
        "meta:Volgograd"{
            ld{"เวลาฤดูร้อนวอลโกกราด"}
            lg{"เวลาวอลโกกราด"}
            ls{"เวลามาตรฐานวอลโกกราด"}
        }
        "meta:Vostok"{
            ls{"เวลาวอสตอค"}
        }
        "meta:Wake"{
            ls{"เวลาเกาะเวก"}
        }
        "meta:Wallis"{
            ls{"เวลาวาลลิสและฟุตูนา"}
        }
        "meta:Yakutsk"{
            ld{"เวลาฤดูร้อนยาคุตสค์"}
            lg{"เวลายาคุตสค์"}
            ls{"เวลามาตรฐานยาคุตสค์"}
        }
        "meta:Yekaterinburg"{
            ld{"เวลาฤดูร้อนเยคาเตรินบูร์ก"}
            lg{"เวลาเยคาเตรินบูร์ก"}
            ls{"เวลามาตรฐานเยคาเตรินบูร์ก"}
        }
        fallbackFormat{"{1} ({0})"}
        gmtFormat{"GMT{0}"}
        gmtZeroFormat{"GMT"}
        hourFormat{"+HH:mm;-HH:mm"}
        regionFormat{"เวลา{0}"}
        regionFormatDaylight{"เวลาออมแสง{0}"}
        regionFormatStandard{"เวลามาตรฐาน{0}"}
    }
}
