﻿// © 2016 and later: Unicode, Inc. and others.
// License & terms of use: http://www.unicode.org/copyright.html#License
vi{
    Version{"2.1.41.97"}
    zoneStrings{
        "Etc:UTC"{
            ls{"Giờ Phối hợp Quốc tế"}
        }
        "Europe:Dublin"{
            ld{"Giờ chuẩn Ai-len"}
        }
        "Europe:London"{
            ld{"Giờ Mùa Hè Anh"}
        }
        "meta:Acre"{
            ld{"Giờ Mùa Hè Acre"}
            lg{"Giờ Acre"}
            ls{"Giờ Chuẩn Acre"}
        }
        "meta:Afghanistan"{
            ls{"Giờ Afghanistan"}
        }
        "meta:Africa_Central"{
            ls{"Giờ Trung Phi"}
        }
        "meta:Africa_Eastern"{
            ls{"Giờ Đông Phi"}
        }
        "meta:Africa_Southern"{
            ls{"Giờ Chuẩn Nam Phi"}
        }
        "meta:Africa_Western"{
            ld{"Giờ Mùa Hè Tây Phi"}
            lg{"Giờ Tây Phi"}
            ls{"Giờ Chuẩn Tây Phi"}
        }
        "meta:Alaska"{
            ld{"Giờ Mùa Hè Alaska"}
            lg{"Giờ Alaska"}
            ls{"Giờ Chuẩn Alaska"}
        }
        "meta:Almaty"{
            ld{"Giờ Mùa Hè Almaty"}
            lg{"Giờ Almaty"}
            ls{"Giờ Chuẩn Almaty"}
        }
        "meta:Amazon"{
            ld{"Giờ Mùa Hè Amazon"}
            lg{"Giờ Amazon"}
            ls{"Giờ Chuẩn Amazon"}
        }
        "meta:America_Central"{
            ld{"Giờ mùa hè miền Trung"}
            lg{"Giờ miền Trung"}
            ls{"Giờ chuẩn miền Trung"}
        }
        "meta:America_Eastern"{
            ld{"Giờ mùa hè miền Đông"}
            lg{"Giờ miền Đông"}
            ls{"Giờ chuẩn miền Đông"}
        }
        "meta:America_Mountain"{
            ld{"Giờ mùa hè miền núi"}
            lg{"Giờ miền núi"}
            ls{"Giờ chuẩn miền núi"}
        }
        "meta:America_Pacific"{
            ld{"Giờ mùa hè Thái Bình Dương"}
            lg{"Giờ Thái Bình Dương"}
            ls{"Giờ chuẩn Thái Bình Dương"}
        }
        "meta:Anadyr"{
            ld{"Giờ mùa hè Anadyr"}
            lg{"Giờ Anadyr"}
            ls{"Giờ Chuẩn Anadyr"}
        }
        "meta:Apia"{
            ld{"Giờ Mùa Hè Apia"}
            lg{"Giờ Apia"}
            ls{"Giờ Chuẩn Apia"}
        }
        "meta:Aqtau"{
            ld{"Giờ Mùa Hè Aqtau"}
            lg{"Giờ Aqtau"}
            ls{"Giờ Chuẩn Aqtau"}
        }
        "meta:Aqtobe"{
            ld{"Giờ Mùa Hè Aqtobe"}
            lg{"Giờ Aqtobe"}
            ls{"Giờ Chuẩn Aqtobe"}
        }
        "meta:Arabian"{
            ld{"Giờ Mùa Hè Ả Rập"}
            lg{"Giờ Ả Rập"}
            ls{"Giờ chuẩn Ả Rập"}
        }
        "meta:Argentina"{
            ld{"Giờ Mùa Hè Argentina"}
            lg{"Giờ Argentina"}
            ls{"Giờ Chuẩn Argentina"}
        }
        "meta:Argentina_Western"{
            ld{"Giờ mùa hè miền tây Argentina"}
            lg{"Giờ miền tây Argentina"}
            ls{"Giờ chuẩn miền tây Argentina"}
        }
        "meta:Armenia"{
            ld{"Giờ Mùa Hè Armenia"}
            lg{"Giờ Armenia"}
            ls{"Giờ Chuẩn Armenia"}
        }
        "meta:Atlantic"{
            ld{"Giờ mùa hè Đại Tây Dương"}
            lg{"Giờ Đại Tây Dương"}
            ls{"Giờ Chuẩn Đại Tây Dương"}
        }
        "meta:Australia_Central"{
            ld{"Giờ Mùa Hè Miền Trung Australia"}
            lg{"Giờ Miền Trung Australia"}
            ls{"Giờ Chuẩn Miền Trung Australia"}
        }
        "meta:Australia_CentralWestern"{
            ld{"Giờ Mùa Hè Miền Trung Tây Australia"}
            lg{"Giờ Miền Trung Tây Australia"}
            ls{"Giờ Chuẩn Miền Trung Tây Australia"}
        }
        "meta:Australia_Eastern"{
            ld{"Giờ Mùa Hè Miền Đông Australia"}
            lg{"Giờ Miền Đông Australia"}
            ls{"Giờ Chuẩn Miền Đông Australia"}
        }
        "meta:Australia_Western"{
            ld{"Giờ Mùa Hè Miền Tây Australia"}
            lg{"Giờ Miền Tây Australia"}
            ls{"Giờ Chuẩn Miền Tây Australia"}
        }
        "meta:Azerbaijan"{
            ld{"Giờ Mùa Hè Azerbaijan"}
            lg{"Giờ Azerbaijan"}
            ls{"Giờ Chuẩn Azerbaijan"}
        }
        "meta:Azores"{
            ld{"Giờ Mùa Hè Azores"}
            lg{"Giờ Azores"}
            ls{"Giờ Chuẩn Azores"}
        }
        "meta:Bangladesh"{
            ld{"Giờ Mùa Hè Bangladesh"}
            lg{"Giờ Bangladesh"}
            ls{"Giờ Chuẩn Bangladesh"}
        }
        "meta:Bhutan"{
            ls{"Giờ Bhutan"}
        }
        "meta:Bolivia"{
            ls{"Giờ Bolivia"}
        }
        "meta:Brasilia"{
            ld{"Giờ Mùa Hè Brasilia"}
            lg{"Giờ Brasilia"}
            ls{"Giờ Chuẩn Brasilia"}
        }
        "meta:Brunei"{
            ls{"Giờ Brunei Darussalam"}
        }
        "meta:Cape_Verde"{
            ld{"Giờ Mùa Hè Cape Verde"}
            lg{"Giờ Cape Verde"}
            ls{"Giờ Chuẩn Cape Verde"}
        }
        "meta:Chamorro"{
            ls{"Giờ Chamorro"}
        }
        "meta:Chatham"{
            ld{"Giờ Mùa Hè Chatham"}
            lg{"Giờ Chatham"}
            ls{"Giờ Chuẩn Chatham"}
        }
        "meta:Chile"{
            ld{"Giờ Mùa Hè Chile"}
            lg{"Giờ Chile"}
            ls{"Giờ Chuẩn Chile"}
        }
        "meta:China"{
            ld{"Giờ Mùa Hè Trung Quốc"}
            lg{"Giờ Trung Quốc"}
            ls{"Giờ Chuẩn Trung Quốc"}
        }
        "meta:Choibalsan"{
            ld{"Giờ Mùa Hè Choibalsan"}
            lg{"Giờ Choibalsan"}
            ls{"Giờ Chuẩn Choibalsan"}
        }
        "meta:Christmas"{
            ls{"Giờ Đảo Christmas"}
        }
        "meta:Cocos"{
            ls{"Giờ Quần Đảo Cocos"}
        }
        "meta:Colombia"{
            ld{"Giờ Mùa Hè Colombia"}
            lg{"Giờ Colombia"}
            ls{"Giờ Chuẩn Colombia"}
        }
        "meta:Cook"{
            ld{"Giờ Nửa Mùa Hè Quần Đảo Cook"}
            lg{"Giờ Quần Đảo Cook"}
            ls{"Giờ Chuẩn Quần Đảo Cook"}
        }
        "meta:Cuba"{
            ld{"Giờ Mùa Hè Cuba"}
            lg{"Giờ Cuba"}
            ls{"Giờ Chuẩn Cuba"}
        }
        "meta:Davis"{
            ls{"Giờ Davis"}
        }
        "meta:DumontDUrville"{
            ls{"Giờ Dumont-d’Urville"}
        }
        "meta:East_Timor"{
            ls{"Giờ Đông Timor"}
        }
        "meta:Easter"{
            ld{"Giờ Mùa Hè Đảo Phục Sinh"}
            lg{"Giờ Đảo Phục Sinh"}
            ls{"Giờ Chuẩn Đảo Phục Sinh"}
        }
        "meta:Ecuador"{
            ls{"Giờ Ecuador"}
        }
        "meta:Europe_Central"{
            ld{"Giờ mùa hè Trung Âu"}
            lg{"Giờ Trung Âu"}
            ls{"Giờ chuẩn Trung Âu"}
        }
        "meta:Europe_Eastern"{
            ld{"Giờ mùa hè Đông Âu"}
            lg{"Giờ Đông Âu"}
            ls{"Giờ chuẩn Đông Âu"}
        }
        "meta:Europe_Further_Eastern"{
            ls{"Giờ Châu Âu Viễn Đông"}
        }
        "meta:Europe_Western"{
            ld{"Giờ mùa hè Tây Âu"}
            lg{"Giờ Tây Âu"}
            ls{"Giờ Chuẩn Tây Âu"}
        }
        "meta:Falkland"{
            ld{"Giờ Mùa Hè Quần Đảo Falkland"}
            lg{"Giờ Quần Đảo Falkland"}
            ls{"Giờ Chuẩn Quần Đảo Falkland"}
        }
        "meta:Fiji"{
            ld{"Giờ Mùa Hè Fiji"}
            lg{"Giờ Fiji"}
            ls{"Giờ Chuẩn Fiji"}
        }
        "meta:French_Guiana"{
            ls{"Giờ Guiana thuộc Pháp"}
        }
        "meta:French_Southern"{
            ls{"Giờ Nam Cực và Nam Nước Pháp"}
        }
        "meta:GMT"{
            ls{"Giờ Trung bình Greenwich"}
        }
        "meta:Galapagos"{
            ls{"Giờ Galapagos"}
        }
        "meta:Gambier"{
            ls{"Giờ Gambier"}
        }
        "meta:Georgia"{
            ld{"Giờ Mùa Hè Gruzia"}
            lg{"Giờ Gruzia"}
            ls{"Giờ Chuẩn Gruzia"}
        }
        "meta:Gilbert_Islands"{
            ls{"Giờ Quần Đảo Gilbert"}
        }
        "meta:Greenland_Eastern"{
            ld{"Giờ Mùa Hè Miền Đông Greenland"}
            lg{"Giờ Miền Đông Greenland"}
            ls{"Giờ Chuẩn Miền Đông Greenland"}
        }
        "meta:Greenland_Western"{
            ld{"Giờ Mùa Hè Miền Tây Greenland"}
            lg{"Giờ Miền Tây Greenland"}
            ls{"Giờ Chuẩn Miền Tây Greenland"}
        }
        "meta:Guam"{
            ls{"Giờ Chuẩn Guam"}
        }
        "meta:Gulf"{
            ls{"Giờ Chuẩn Vùng Vịnh"}
        }
        "meta:Guyana"{
            ls{"Giờ Guyana"}
        }
        "meta:Hawaii_Aleutian"{
            ld{"Giờ Mùa Hè Hawaii-Aleut"}
            lg{"Giờ Hawaii-Aleut"}
            ls{"Giờ Chuẩn Hawaii-Aleut"}
        }
        "meta:Hong_Kong"{
            ld{"Giờ Mùa Hè Hồng Kông"}
            lg{"Giờ Hồng Kông"}
            ls{"Giờ Chuẩn Hồng Kông"}
        }
        "meta:Hovd"{
            ld{"Giờ Mùa Hè Hovd"}
            lg{"Giờ Hovd"}
            ls{"Giờ Chuẩn Hovd"}
        }
        "meta:India"{
            ls{"Giờ Chuẩn Ấn Độ"}
        }
        "meta:Indian_Ocean"{
            ls{"Giờ Ấn Độ Dương"}
        }
        "meta:Indochina"{
            ls{"Giờ Đông Dương"}
        }
        "meta:Indonesia_Central"{
            ls{"Giờ Miền Trung Indonesia"}
        }
        "meta:Indonesia_Eastern"{
            ls{"Giờ Miền Đông Indonesia"}
        }
        "meta:Indonesia_Western"{
            ls{"Giờ Miền Tây Indonesia"}
        }
        "meta:Iran"{
            ld{"Giờ Mùa Hè Iran"}
            lg{"Giờ Iran"}
            ls{"Giờ Chuẩn Iran"}
        }
        "meta:Irkutsk"{
            ld{"Giờ Mùa Hè Irkutsk"}
            lg{"Giờ Irkutsk"}
            ls{"Giờ Chuẩn Irkutsk"}
        }
        "meta:Israel"{
            ld{"Giờ Mùa Hè Israel"}
            lg{"Giờ Israel"}
            ls{"Giờ Chuẩn Israel"}
        }
        "meta:Japan"{
            ld{"Giờ Mùa Hè Nhật Bản"}
            lg{"Giờ Nhật Bản"}
            ls{"Giờ Chuẩn Nhật Bản"}
        }
        "meta:Kamchatka"{
            ld{"Giờ mùa hè Petropavlovsk-Kamchatski"}
            lg{"Giờ Petropavlovsk-Kamchatski"}
            ls{"Giờ chuẩn Petropavlovsk-Kamchatski"}
        }
        "meta:Kazakhstan_Eastern"{
            ls{"Giờ Miền Đông Kazakhstan"}
        }
        "meta:Kazakhstan_Western"{
            ls{"Giờ Miền Tây Kazakhstan"}
        }
        "meta:Korea"{
            ld{"Giờ Mùa Hè Hàn Quốc"}
            lg{"Giờ Hàn Quốc"}
            ls{"Giờ Chuẩn Hàn Quốc"}
        }
        "meta:Kosrae"{
            ls{"Giờ Kosrae"}
        }
        "meta:Krasnoyarsk"{
            ld{"Giờ Mùa Hè Krasnoyarsk"}
            lg{"Giờ Krasnoyarsk"}
            ls{"Giờ Chuẩn Krasnoyarsk"}
        }
        "meta:Kyrgystan"{
            ls{"Giờ Kyrgystan"}
        }
        "meta:Lanka"{
            ls{"Giờ Lanka"}
        }
        "meta:Line_Islands"{
            ls{"Giờ Quần Đảo Line"}
        }
        "meta:Lord_Howe"{
            ld{"Giờ Mùa Hè Lord Howe"}
            lg{"Giờ Lord Howe"}
            ls{"Giờ Chuẩn Lord Howe"}
        }
        "meta:Macau"{
            ld{"Giờ Mùa Hè Ma Cao"}
            lg{"Giờ Ma Cao"}
            ls{"Giờ Chuẩn Ma Cao"}
        }
        "meta:Macquarie"{
            ls{"Giờ đảo Macquarie"}
        }
        "meta:Magadan"{
            ld{"Giờ mùa hè Magadan"}
            lg{"Giờ Magadan"}
            ls{"Giờ Chuẩn Magadan"}
        }
        "meta:Malaysia"{
            ls{"Giờ Malaysia"}
        }
        "meta:Maldives"{
            ls{"Giờ Maldives"}
        }
        "meta:Marquesas"{
            ls{"Giờ Marquesas"}
        }
        "meta:Marshall_Islands"{
            ls{"Giờ Quần Đảo Marshall"}
        }
        "meta:Mauritius"{
            ld{"Giờ Mùa Hè Mauritius"}
            lg{"Giờ Mauritius"}
            ls{"Giờ Chuẩn Mauritius"}
        }
        "meta:Mawson"{
            ls{"Giờ Mawson"}
        }
        "meta:Mexico_Northwest"{
            ld{"Giờ Mùa Hè Tây Bắc Mexico"}
            lg{"Giờ Tây Bắc Mexico"}
            ls{"Giờ Chuẩn Tây Bắc Mexico"}
        }
        "meta:Mexico_Pacific"{
            ld{"Giờ Mùa Hè Thái Bình Dương Mexico"}
            lg{"Giờ Thái Bình Dương Mexico"}
            ls{"Giờ Chuẩn Thái Bình Dương Mexico"}
        }
        "meta:Mongolia"{
            ld{"Giờ mùa hè Ulan Bator"}
            lg{"Giờ Ulan Bator"}
            ls{"Giờ chuẩn Ulan Bator"}
        }
        "meta:Moscow"{
            ld{"Giờ Mùa Hè Matxcơva"}
            lg{"Giờ Matxcơva"}
            ls{"Giờ Chuẩn Matxcơva"}
        }
        "meta:Myanmar"{
            ls{"Giờ Myanmar"}
        }
        "meta:Nauru"{
            ls{"Giờ Nauru"}
        }
        "meta:Nepal"{
            ls{"Giờ Nepal"}
        }
        "meta:New_Caledonia"{
            ld{"Giờ Mùa Hè New Caledonia"}
            lg{"Giờ New Caledonia"}
            ls{"Giờ Chuẩn New Caledonia"}
        }
        "meta:New_Zealand"{
            ld{"Giờ Mùa Hè New Zealand"}
            lg{"Giờ New Zealand"}
            ls{"Giờ Chuẩn New Zealand"}
        }
        "meta:Newfoundland"{
            ld{"Giờ Mùa Hè Newfoundland"}
            lg{"Giờ Newfoundland"}
            ls{"Giờ Chuẩn Newfoundland"}
        }
        "meta:Niue"{
            ls{"Giờ Niue"}
        }
        "meta:Norfolk"{
            ls{"Giờ đảo Norfolk"}
        }
        "meta:Noronha"{
            ld{"Giờ Mùa Hè Fernando de Noronha"}
            lg{"Giờ Fernando de Noronha"}
            ls{"Giờ Chuẩn Fernando de Noronha"}
        }
        "meta:North_Mariana"{
            ls{"Giờ Quần Đảo Bắc Mariana"}
        }
        "meta:Novosibirsk"{
            ld{"Giờ mùa hè Novosibirsk"}
            lg{"Giờ Novosibirsk"}
            ls{"Giờ chuẩn Novosibirsk"}
        }
        "meta:Omsk"{
            ld{"Giờ mùa hè Omsk"}
            lg{"Giờ Omsk"}
            ls{"Giờ chuẩn Omsk"}
        }
        "meta:Pakistan"{
            ld{"Giờ Mùa Hè Pakistan"}
            lg{"Giờ Pakistan"}
            ls{"Giờ Chuẩn Pakistan"}
        }
        "meta:Palau"{
            ls{"Giờ Palau"}
        }
        "meta:Papua_New_Guinea"{
            ls{"Giờ Papua New Guinea"}
        }
        "meta:Paraguay"{
            ld{"Giờ Mùa Hè Paraguay"}
            lg{"Giờ Paraguay"}
            ls{"Giờ Chuẩn Paraguay"}
        }
        "meta:Peru"{
            ld{"Giờ Mùa Hè Peru"}
            lg{"Giờ Peru"}
            ls{"Giờ Chuẩn Peru"}
        }
        "meta:Philippines"{
            ld{"Giờ Mùa Hè Philippin"}
            lg{"Giờ Philippin"}
            ls{"Giờ Chuẩn Philippin"}
        }
        "meta:Phoenix_Islands"{
            ls{"Giờ Quần Đảo Phoenix"}
        }
        "meta:Pierre_Miquelon"{
            ld{"Giờ Mùa Hè Saint Pierre và Miquelon"}
            lg{"Giờ St. Pierre và Miquelon"}
            ls{"Giờ Chuẩn St. Pierre và Miquelon"}
        }
        "meta:Pitcairn"{
            ls{"Giờ Pitcairn"}
        }
        "meta:Ponape"{
            ls{"Giờ Ponape"}
        }
        "meta:Pyongyang"{
            ls{"Giờ Bình Nhưỡng"}
        }
        "meta:Qyzylorda"{
            ld{"Giờ Mùa Hè Qyzylorda"}
            lg{"Giờ Qyzylorda"}
            ls{"Giờ Chuẩn Qyzylorda"}
        }
        "meta:Reunion"{
            ls{"Giờ Reunion"}
        }
        "meta:Rothera"{
            ls{"Giờ Rothera"}
        }
        "meta:Sakhalin"{
            ld{"Giờ mùa hè Sakhalin"}
            lg{"Giờ Sakhalin"}
            ls{"Giờ Chuẩn Sakhalin"}
        }
        "meta:Samara"{
            ld{"Giờ mùa hè Samara"}
            lg{"Giờ Samara"}
            ls{"Giờ Chuẩn Samara"}
        }
        "meta:Samoa"{
            ld{"Giờ ban ngày Samoa"}
            lg{"Giờ Samoa"}
            ls{"Giờ Chuẩn Samoa"}
        }
        "meta:Seychelles"{
            ls{"Giờ Seychelles"}
        }
        "meta:Singapore"{
            ls{"Giờ Singapore"}
        }
        "meta:Solomon"{
            ls{"Giờ Quần Đảo Solomon"}
        }
        "meta:South_Georgia"{
            ls{"Giờ Nam Georgia"}
        }
        "meta:Suriname"{
            ls{"Giờ Suriname"}
        }
        "meta:Syowa"{
            ls{"Giờ Syowa"}
        }
        "meta:Tahiti"{
            ls{"Giờ Tahiti"}
        }
        "meta:Taipei"{
            ld{"Giờ Mùa Hè Đài Bắc"}
            lg{"Giờ Đài Bắc"}
            ls{"Giờ Chuẩn Đài Bắc"}
        }
        "meta:Tajikistan"{
            ls{"Giờ Tajikistan"}
        }
        "meta:Tokelau"{
            ls{"Giờ Tokelau"}
        }
        "meta:Tonga"{
            ld{"Giờ Mùa Hè Tonga"}
            lg{"Giờ Tonga"}
            ls{"Giờ Chuẩn Tonga"}
        }
        "meta:Truk"{
            ls{"Giờ Chuuk"}
        }
        "meta:Turkmenistan"{
            ld{"Giờ Mùa Hè Turkmenistan"}
            lg{"Giờ Turkmenistan"}
            ls{"Giờ Chuẩn Turkmenistan"}
        }
        "meta:Tuvalu"{
            ls{"Giờ Tuvalu"}
        }
        "meta:Uruguay"{
            ld{"Giờ Mùa Hè Uruguay"}
            lg{"Giờ Uruguay"}
            ls{"Giờ Chuẩn Uruguay"}
        }
        "meta:Uzbekistan"{
            ld{"Giờ Mùa Hè Uzbekistan"}
            lg{"Giờ Uzbekistan"}
            ls{"Giờ Chuẩn Uzbekistan"}
        }
        "meta:Vanuatu"{
            ld{"Giờ Mùa Hè Vanuatu"}
            lg{"Giờ Vanuatu"}
            ls{"Giờ Chuẩn Vanuatu"}
        }
        "meta:Venezuela"{
            ls{"Giờ Venezuela"}
        }
        "meta:Vladivostok"{
            ld{"Giờ mùa hè Vladivostok"}
            lg{"Giờ Vladivostok"}
            ls{"Giờ Chuẩn Vladivostok"}
        }
        "meta:Volgograd"{
            ld{"Giờ Mùa Hè Volgograd"}
            lg{"Giờ Volgograd"}
            ls{"Giờ Chuẩn Volgograd"}
        }
        "meta:Vostok"{
            ls{"Giờ Vostok"}
        }
        "meta:Wake"{
            ls{"Giờ Đảo Wake"}
        }
        "meta:Wallis"{
            ls{"Giờ Wallis và Futuna"}
        }
        "meta:Yakutsk"{
            ld{"Giờ mùa hè Yakutsk"}
            lg{"Giờ Yakutsk"}
            ls{"Giờ Chuẩn Yakutsk"}
        }
        "meta:Yekaterinburg"{
            ld{"Giờ mùa hè Yekaterinburg"}
            lg{"Giờ Yekaterinburg"}
            ls{"Giờ Chuẩn Yekaterinburg"}
        }
        fallbackFormat{"{1} ({0})"}
        gmtFormat{"GMT{0}"}
        gmtZeroFormat{"GMT"}
        hourFormat{"+HH:mm;-HH:mm"}
        regionFormat{"Giờ {0}"}
        regionFormatDaylight{"Giờ mùa hè {0}"}
        regionFormatStandard{"Giờ chuẩn {0}"}
    }
}
