﻿// © 2016 and later: Unicode, Inc. and others.
// License & terms of use: http://www.unicode.org/copyright.html#License
zu{
    Version{"2.1.41.97"}
    zoneStrings{
        "Etc:UTC"{
            ls{"isikhathi somhlaba esididiyelwe"}
        }
        "Europe:Dublin"{
            ld{"isikhathi sase-Irish esivamile"}
        }
        "Europe:London"{
            ld{"isikhathi sase-British sasehlobo"}
        }
        "meta:Afghanistan"{
            ls{"Isikhathi sase-Afghanistan"}
        }
        "meta:Africa_Central"{
            ls{"Isikhathi sase-Central Africa"}
        }
        "meta:Africa_Eastern"{
            ls{"Isikhathi saseMpumalanga Afrika"}
        }
        "meta:Africa_Southern"{
            ls{"Isikhathi esijwayelekile saseNingizimu Afrika"}
        }
        "meta:Africa_Western"{
            ld{"Isikhathi sasehlobo saseNtshonalanga Afrika"}
            lg{"Isikhathi saseNtshonalanga Afrika"}
            ls{"Isikhathi esijwayelekile saseNtshonalanga Afrika"}
        }
        "meta:Alaska"{
            ld{"Isikhathi sase-Alaska sasemini"}
            lg{"Isikhathi sase-Alaska"}
            ls{"Isikhathi sase-Alaska esijwayelekile"}
        }
        "meta:Amazon"{
            ld{"Isikhathi sase-Amazon sasehlobo"}
            lg{"Isikhathi sase-Amazon"}
            ls{"Isikhathi sase-Amazon esijwayelekile"}
        }
        "meta:America_Central"{
            ld{"Isikhathi sase-North American Central sasemini"}
            lg{"Isikhathi sase-North American Central"}
            ls{"Isikhathi sase-North American Central esijwayelekile"}
        }
        "meta:America_Eastern"{
            ld{"Isikhathi sase-North American East sasemini"}
            lg{"Isikhathi sase-North American East"}
            ls{"Isikhathi sase-North American East esijwayelekile"}
        }
        "meta:America_Mountain"{
            ld{"Isikhathi sase-North American Mountain sasemini"}
            lg{"Isikhathi sase-North American Mountain"}
            ls{"Isikhathi sase-North American Mountain esijwayelekile"}
        }
        "meta:America_Pacific"{
            ld{"Isikhathi sase-North American Pacific sasemini"}
            lg{"Isikhathi sase-North American Pacific"}
            ls{"Isikhathi sase-North American Pacific esijwayelekile"}
        }
        "meta:Anadyr"{
            ld{"esase-Anadyr Summer Time"}
            lg{"esase-Anadyr Time"}
            ls{"esase-Anadyr Standard Time"}
        }
        "meta:Apia"{
            ld{"Isikhathi sase-Apia sasemini"}
            lg{"Isikhathi sase-Apia"}
            ls{"Isikhathi sase-Apia esivamile"}
        }
        "meta:Arabian"{
            ld{"Isikhathi semini sase-Arabian"}
            lg{"Isikhathi sase-Arabian"}
            ls{"Isikhathi esivamile sase-Arabian"}
        }
        "meta:Argentina"{
            ld{"Isikhathi sase-Argentina sasehlobo"}
            lg{"Isikhathi sase-Argentina"}
            ls{"Isikhathi sase-Argentina esijwayelekile"}
        }
        "meta:Argentina_Western"{
            ld{"Isikhathi saseNyakatho ne-Argentina sasehlobo"}
            lg{"Isikhathi saseNyakatho ne-Argentina"}
            ls{"Isikhathi saseNyakatho ne-Argentina esijwayelekile"}
        }
        "meta:Armenia"{
            ld{"Isikhathi sehlobo sase-Armenia"}
            lg{"Isikhathi saseArmenia"}
            ls{"Isikhathi esezingeni sase-Armenia"}
        }
        "meta:Atlantic"{
            ld{"Isikhathi sase-Atlantic sasemini"}
            lg{"Isikhathi sase-Atlantic"}
            ls{"Isikhathi sase-Atlantic esijwayelekile"}
        }
        "meta:Australia_Central"{
            ld{"Isikhathi sase-Australian Central sasemini"}
            lg{"Isikhathi sase-Central Australia"}
            ls{"Isikhathi sase-Australian Central esivamile"}
        }
        "meta:Australia_CentralWestern"{
            ld{"Isikhathi sasemini sase-Australian Central West"}
            lg{"Isikhathi sase-Australian Central West"}
            ls{"Isikhathi sase-Australian Central West esivamile"}
        }
        "meta:Australia_Eastern"{
            ld{"Isikhathi sasemini sase-Australian East"}
            lg{"Isikhathi sase-Eastern Australia"}
            ls{"Isikhathi esivamile sase-Australian East"}
        }
        "meta:Australia_Western"{
            ld{"Isikhathi sase-Australian Western sasemini"}
            lg{"Isikhathi sase-Western Australia"}
            ls{"Isikhathi sase-Australian Western esivamile"}
        }
        "meta:Azerbaijan"{
            ld{"Isikhathi sehlobo sase-Azerbaijan"}
            lg{"Isikhathi sase-Azerbaijan"}
            ls{"Isikhathi esivamile sase-Azerbaijan"}
        }
        "meta:Azores"{
            ld{"Isikhathi sasehlobo sase-Azores"}
            lg{"Isikhathi sase-Azores"}
            ls{"Isikhathi esijwayelekile sase-Azores"}
        }
        "meta:Bangladesh"{
            ld{"Isikhathi sase-Bangladesh sasehlobo"}
            lg{"Isikhathi sase-Bangladesh"}
            ls{"Isikhathi sase-Bangladesh esivamile"}
        }
        "meta:Bhutan"{
            ls{"Isikhathi sase-Bhutan"}
        }
        "meta:Bolivia"{
            ls{"Isikhathi sase-Bolivia"}
        }
        "meta:Brasilia"{
            ld{"Isikhathi sase-Brasilia sasehlobo"}
            lg{"Isikhathi sase-Brasilia"}
            ls{"Isikhathi sase-Brasilia esijwayelekile"}
        }
        "meta:Brunei"{
            ls{"Isikhathi sase-Brunei Darussalam"}
        }
        "meta:Cape_Verde"{
            ld{"Isikhathi sehlobo sase-Cape Verde"}
            lg{"Isikhathi sase-Cape Verde"}
            ls{"Isikhathi esezingeni sase-Cape Verde"}
        }
        "meta:Chamorro"{
            ls{"Isikhathi esijwayelekile sase-Chamorro"}
        }
        "meta:Chatham"{
            ld{"Isikhathi sasemini sase-Chatham"}
            lg{"Isikhathi sase-Chatham"}
            ls{"Isikhathi esivamile sase-Chatham"}
        }
        "meta:Chile"{
            ld{"Isikhathi sase-Chile sasehlobo"}
            lg{"Isikhathi sase-Chile"}
            ls{"Isikhathi sase-Chile esijwayelekile"}
        }
        "meta:China"{
            ld{"Isikhathi semini sase-China"}
            lg{"Isikhathi sase-China"}
            ls{"Isikhathi esivamile sase-China"}
        }
        "meta:Choibalsan"{
            ld{"Isikhathi sehlobo e-Choibalsan"}
            lg{"Isikhathi sase-Choibalsan"}
            ls{"Isikhathi Esimisiwe sase-Choibalsan"}
        }
        "meta:Christmas"{
            ls{"Isikhathi sase-Christmas Island"}
        }
        "meta:Cocos"{
            ls{"Isikhathi sase-Cocos Islands"}
        }
        "meta:Colombia"{
            ld{"Isikhathi sase-Colombia sasehlobo"}
            lg{"Isikhathi sase-Colombia"}
            ls{"Isikhathi sase-Colombia esijwayelekile"}
        }
        "meta:Cook"{
            ld{"Isikhathi esiyingxenye yasehlobo sase-Cook Islands"}
            lg{"Isikhathi sase-Cook Islands"}
            ls{"Isikhathi esivamile sase-Cook Islands"}
        }
        "meta:Cuba"{
            ld{"Isikhathi sase-Cuba sasemini"}
            lg{"Isikhathi sase-Cuba"}
            ls{"Isikhathi sase-Cuba esijwayelekile"}
        }
        "meta:Davis"{
            ls{"Isikhathi sase-Davis"}
        }
        "meta:DumontDUrville"{
            ls{"Isikhathi sase-Dumont-d’Urville"}
        }
        "meta:East_Timor"{
            ls{"Isikhathi sase-East Timor"}
        }
        "meta:Easter"{
            ld{"Isikhathi sase-Easter Island sasehlobo"}
            lg{"Isikhathi sase-Easter Island"}
            ls{"Isikhathi sase-Easter Island esijwayelekile"}
        }
        "meta:Ecuador"{
            ls{"Isikhathi sase-Ecuador"}
        }
        "meta:Europe_Central"{
            ld{"Isikhathi sasehlobo sase-Central Europe"}
            lg{"Isikhathi sase-Central Europe"}
            ls{"Isikhathi esijwayelekile sase-Central Europe"}
        }
        "meta:Europe_Eastern"{
            ld{"Isikhathi sasehlobo sase-Eastern Europe"}
            lg{"Isikhathi sase-Eastern Europe"}
            ls{"Isikhathi esijwayelekile sase-Eastern Europe"}
        }
        "meta:Europe_Further_Eastern"{
            ls{"Isikhathi sase-Further-eastern Europe"}
        }
        "meta:Europe_Western"{
            ld{"Isikhathi sasehlobo sase-Western Europe"}
            lg{"Isikhathi sase-Western Europe"}
            ls{"Isikhathi esijwayelekile sase-Western Europe"}
        }
        "meta:Falkland"{
            ld{"Isikhathi sase-Falkland Islands sasehlobo"}
            lg{"Isikhathi sase-Falkland Islands"}
            ls{"Isikhathi sase-Falkland Islands esijwayelekile"}
        }
        "meta:Fiji"{
            ld{"Isikhathi sehlobo sase-Fiji"}
            lg{"Isikhathi sase-Fiji"}
            ls{"Isikhathi esivamile sase-Fiji"}
        }
        "meta:French_Guiana"{
            ls{"Isikhathi sase-French Guiana"}
        }
        "meta:French_Southern"{
            ls{"Isikhathi sase-French Southern nase-Antarctic"}
        }
        "meta:GMT"{
            ls{"Isikhathi sase-Greenwich Mean"}
        }
        "meta:Galapagos"{
            ls{"Isikhathi sase-Galapagos"}
        }
        "meta:Gambier"{
            ls{"Isikhathi sase-Gambier"}
        }
        "meta:Georgia"{
            ld{"Isikhathi sehlobo sase-Georgia"}
            lg{"Isikhathi sase-Georgia"}
            ls{"Isikhathi esivamile sase-Georgia"}
        }
        "meta:Gilbert_Islands"{
            ls{"Isikhathi sase-Gilbert Islands"}
        }
        "meta:Greenland_Eastern"{
            ld{"Isikhathi sase-East Greenland sasemini"}
            lg{"Isikhathi sase-East Greenland"}
            ls{"Isikhathi sase-East Greenland esijwayelekile"}
        }
        "meta:Greenland_Western"{
            ld{"Isikhathi sase-West Greenland sasehlobo"}
            lg{"Isikhathi sase-West Greenland"}
            ls{"Isikhathi sase-West Greenland esijwayelekile"}
        }
        "meta:Gulf"{
            ls{"Isikhathi esivamile sase-Gulf"}
        }
        "meta:Guyana"{
            ls{"Isikhathi sase-Guyana"}
        }
        "meta:Hawaii_Aleutian"{
            ld{"Isikhathi sase-Hawaii-Aleutia sasemini"}
            lg{"Isikhathi sase-Hawaii-Aleutia"}
            ls{"Isikhathi sase-Hawaii-Aleutia esijwayelekile"}
        }
        "meta:Hong_Kong"{
            ld{"Isikhathi sehlobo sase-Hong Kong"}
            lg{"Isikhathi sase-Hong Kong"}
            ls{"Isikhathi esivamile sase-Hong Kong"}
        }
        "meta:Hovd"{
            ld{"Isikhathi sehlobo e-Hovd"}
            lg{"Isikhathi sase-Hovd"}
            ls{"Isikhathi Esimisiwe sase-Hovd"}
        }
        "meta:India"{
            ls{"Isikhathi sase-India esivamile"}
        }
        "meta:Indian_Ocean"{
            ls{"Isikhathi sase-Indian Ocean"}
        }
        "meta:Indochina"{
            ls{"Isikhathi sase-Indochina"}
        }
        "meta:Indonesia_Central"{
            ls{"Isikhathi sase-Central Indonesia"}
        }
        "meta:Indonesia_Eastern"{
            ls{"Isikhathi sase-Eastern Indonesia"}
        }
        "meta:Indonesia_Western"{
            ls{"Isikhathi sase-Western Indonesia"}
        }
        "meta:Iran"{
            ld{"Isikhathi sase-Iran sasemini"}
            lg{"Isikhathi sase-Iran"}
            ls{"Isikhathi sase-Iran esivamile"}
        }
        "meta:Irkutsk"{
            ld{"Isikhathi sasehlobo e-Irkutsk"}
            lg{"Isikhathi sase-Irkutsk"}
            ls{"Isikhathi Esimisiwe sase-Irkutsk"}
        }
        "meta:Israel"{
            ld{"Isikhathi sasemini sakwa-Israel"}
            lg{"Isikhathi sase-Israel"}
            ls{"Isikhathi esivamile sase-Israel"}
        }
        "meta:Japan"{
            ld{"Isikhathi semini sase-Japan"}
            lg{"Isikhathi sase-Japan"}
            ls{"Isikhathi esivamile sase-Japan"}
        }
        "meta:Kamchatka"{
            ld{"esase-Petropavlovsk-Kamchatski Summer Time"}
            lg{"esase-Petropavlovsk-Kamchatski Time"}
            ls{"esase-Petropavlovsk-Kamchatski Standard Time"}
        }
        "meta:Kazakhstan_Eastern"{
            ls{"Isikhathi sase-Mpumalanga ne-Kazakhstan"}
        }
        "meta:Kazakhstan_Western"{
            ls{"Isikhathi saseNtshonalanga ne-Kazakhstan"}
        }
        "meta:Korea"{
            ld{"Isikhathi semini sase-Korea"}
            lg{"Isikhathi sase-Korea"}
            ls{"Isikhathi esisezengeni sase-Korea"}
        }
        "meta:Kosrae"{
            ls{"Isikhathi sase-Kosrae"}
        }
        "meta:Krasnoyarsk"{
            ld{"Isikhathi sasehlobo e-Krasnoyarsk"}
            lg{"Isikhathi sase-Krasnoyarsk"}
            ls{"Isikhathi Esimisiwe sase-Krasnoyarsk"}
        }
        "meta:Kyrgystan"{
            ls{"Isikhathi sase-Kyrgystan"}
        }
        "meta:Line_Islands"{
            ls{"Isikhathi sase-Line Islands"}
        }
        "meta:Lord_Howe"{
            ld{"Isikhathi sase-Lord Howe sasemini"}
            lg{"Isikhathi sase-Lord Howe"}
            ls{"Isikhathi sase-Lord Howe esivamile"}
        }
        "meta:Macquarie"{
            ls{"Isikhathi sase-Macquarie Island"}
        }
        "meta:Magadan"{
            ld{"Isikhathi sasehlobo e-Magadan"}
            lg{"Isikhathi sase-Magadan"}
            ls{"Isikhathi Esimisiwe sase-Magadan"}
        }
        "meta:Malaysia"{
            ls{"Isikhathi sase-Malaysia"}
        }
        "meta:Maldives"{
            ls{"Isikhathi sase-Maldives"}
        }
        "meta:Marquesas"{
            ls{"Isikhathi sase-Marquesas"}
        }
        "meta:Marshall_Islands"{
            ls{"Isikhathi sase-Marshall Islands"}
        }
        "meta:Mauritius"{
            ld{"Isikhathi sehlobo sase-Mauritius"}
            lg{"Isikhathi sase-Mauritius"}
            ls{"Isikhathi esivamile sase-Mauritius"}
        }
        "meta:Mawson"{
            ls{"Isikhathi sase-Mawson"}
        }
        "meta:Mexico_Northwest"{
            ld{"Isikhathi sase-Northwest Mexico sasemini"}
            lg{"Isikhathi sase-Northwest Mexico"}
            ls{"Isikhathi sase-Northwest Mexico esijwayelekile"}
        }
        "meta:Mexico_Pacific"{
            ld{"Isikhathi sase-Mexican Pacific sasemini"}
            lg{"Isikhathi sase-Mexican Pacific"}
            ls{"Isikhathi sase-Mexican Pacific esijwayelekile"}
        }
        "meta:Mongolia"{
            ld{"Isikhathi sehlobo e-Ulan Bator"}
            lg{"Isikhathi sase-Ulan Bator"}
            ls{"Isikhathi Esimisiwe sase-Ulan Bator"}
        }
        "meta:Moscow"{
            ld{"Isikhathi sasehlobo e-Moscow"}
            lg{"Isikhathi sase-Moscow"}
            ls{"Isikhathi sase-Moscow esijwayelekile"}
        }
        "meta:Myanmar"{
            ls{"Isikhathi sase-Myanmar"}
        }
        "meta:Nauru"{
            ls{"Isikhathi sase-Nauru"}
        }
        "meta:Nepal"{
            ls{"Isikhathi sase-Nepal"}
        }
        "meta:New_Caledonia"{
            ld{"Isikhathi sase-New Caledonia sasehlobo"}
            lg{"Isikhathi sase-New Caledonia"}
            ls{"Isikhathi sase-New Caledonia esijwayelekile"}
        }
        "meta:New_Zealand"{
            ld{"Isikhathi sasemini sase-New Zealand"}
            lg{"Isikhathi sase-New Zealand"}
            ls{"Isikhathi esivamile sase-New Zealand"}
        }
        "meta:Newfoundland"{
            ld{"Isikhathi sase-Newfoundland sasemini"}
            lg{"Isikhathi sase-Newfoundland"}
            ls{"Isikhathi sase-Newfoundland esijwayelekile"}
        }
        "meta:Niue"{
            ls{"Isikhathi sase-Niue"}
        }
        "meta:Norfolk"{
            ls{"Isikhathi sase-Norfolk Islands"}
        }
        "meta:Noronha"{
            ld{"Isikhathi sase-Fernando de Noronha sasehlobo"}
            lg{"Isikhathi sase-Fernando de Noronha"}
            ls{"Isikhathi sase-Fernando de Noronha esijwayelekile"}
        }
        "meta:Novosibirsk"{
            ld{"Isikhathi sasehlobo sase-Novosibirsk"}
            lg{"Isikhathi sase-Novosibirsk"}
            ls{"Isikhathi Esimisiwe sase-Novosibirsk"}
        }
        "meta:Omsk"{
            ld{"Isikhathi sasehlobo sase-Omsk"}
            lg{"Isikhathi sase-Omsk"}
            ls{"Isikhathi Esimisiwe sase-Omsk"}
        }
        "meta:Pakistan"{
            ld{"Isikhathi sase-Pakistan sasehlobo"}
            lg{"Isikhathi sase-Pakistan"}
            ls{"Isikhathi sase-Pakistan esivamile"}
        }
        "meta:Palau"{
            ls{"Isikhathi sase-Palau"}
        }
        "meta:Papua_New_Guinea"{
            ls{"Isikhathi sase-Papua New Guinea"}
        }
        "meta:Paraguay"{
            ld{"Isikhathi sase-Paraguay sasehlobo"}
            lg{"Isikhathi sase-Paraguay"}
            ls{"Isikhathi sase-Paraguay esijwayelekile"}
        }
        "meta:Peru"{
            ld{"Isikhathi sase-Peru sasehlobo"}
            lg{"Isikhathi sase-Peru"}
            ls{"Isikhathi sase-Peru esijwayelekile"}
        }
        "meta:Philippines"{
            ld{"Isikhathi sehlobo sase-Philippine"}
            lg{"Isikhathi sase-Philippine"}
            ls{"Isikhathi esivamile sase-Philippine"}
        }
        "meta:Phoenix_Islands"{
            ls{"Isikhathi sase-Phoenix Islands"}
        }
        "meta:Pierre_Miquelon"{
            ld{"Isikhathi sase-Saint Pierre nase-Miquelon sasemini"}
            lg{"Isikhathi sase-Saint Pierre nase-Miquelon"}
            ls{"Iikhathi sase-Saint Pierre nase-Miquelon esijwayelekile"}
        }
        "meta:Pitcairn"{
            ls{"Isikhathi sase-Pitcairn"}
        }
        "meta:Ponape"{
            ls{"Isikhathi sase-Ponape"}
        }
        "meta:Pyongyang"{
            ls{"Isikhathi sase-Pyongyang"}
        }
        "meta:Reunion"{
            ls{"Isikhathi sase-Reunion"}
        }
        "meta:Rothera"{
            ls{"Isikhathi sase-Rothera"}
        }
        "meta:Sakhalin"{
            ld{"Isikhathi sasehlobo e-Sakhalin"}
            lg{"Isikhathi sase-Sakhalin"}
            ls{"Isikhathi Esimisiwe sase-Sakhalin"}
        }
        "meta:Samara"{
            ld{"esase-Samara Summer Time"}
            lg{"esase-Samara Time"}
            ls{"esase-Samara Standard Time"}
        }
        "meta:Samoa"{
            ld{"Isikhathi sase-Samoa sasemini"}
            lg{"Isikhathi sase-Samoa"}
            ls{"Isikhathi sase-Samoa esijwayelekile"}
        }
        "meta:Seychelles"{
            ls{"Isikhathi sase-Seychelles"}
        }
        "meta:Singapore"{
            ls{"Isikhathi esivamile sase-Singapore"}
        }
        "meta:Solomon"{
            ls{"Isikhathi sase-Solomon Islands"}
        }
        "meta:South_Georgia"{
            ls{"Isikhathi sase-South Georgia"}
        }
        "meta:Suriname"{
            ls{"Isikhathi sase-Suriname"}
        }
        "meta:Syowa"{
            ls{"Isikhathi sase-Syowa"}
        }
        "meta:Tahiti"{
            ls{"Isikhathi sase-Tahiti"}
        }
        "meta:Taipei"{
            ld{"Isikhathi semini sase-Taipei"}
            lg{"Isikhathi sase-Taipei"}
            ls{"Isikhathi esivamile sase-Taipei"}
        }
        "meta:Tajikistan"{
            ls{"Isikhathi sase-Tajikistan"}
        }
        "meta:Tokelau"{
            ls{"Isikhathi sase-Tokelau"}
        }
        "meta:Tonga"{
            ld{"Isikhathi sase-Tonga sasehlobo"}
            lg{"Isikhathi sase-Tonga"}
            ls{"Isikhathi sase-Tonga esijwayelekile"}
        }
        "meta:Truk"{
            ls{"Isikhathi sase-Chuuk"}
        }
        "meta:Turkmenistan"{
            ld{"Isikhathi sehlobo sase-Turkmenistan"}
            lg{"Isikhathi sase-Turkmenistan"}
            ls{"Isikhathi esivamile sase-Turkmenistan"}
        }
        "meta:Tuvalu"{
            ls{"Isikhathi sase-Tuvalu"}
        }
        "meta:Uruguay"{
            ld{"Isikhathi sase-Uruguay sasehlobo"}
            lg{"Isikhathi sase-Uruguay"}
            ls{"Isikhathi sase-Uruguay esijwayelekile"}
        }
        "meta:Uzbekistan"{
            ld{"Isikhathi sehlobo sase-Uzbekistan"}
            lg{"Isikhathi sase-Uzbekistan"}
            ls{"Isikhathi esivamile sase-Uzbekistan"}
        }
        "meta:Vanuatu"{
            ld{"Isikhathi sase-Vanuatu sasehlobo"}
            lg{"Isikhathi sase-Vanuatu"}
            ls{"Isikhathi sase-Vanuatu esijwayelekile"}
        }
        "meta:Venezuela"{
            ls{"Isikhathi sase-Venezuela"}
        }
        "meta:Vladivostok"{
            ld{"Isikhathi sasehlobo e-Vladivostok"}
            lg{"Isikhathi sase-Vladivostok"}
            ls{"Isikhathi Esimisiwe sase-Vladivostok"}
        }
        "meta:Volgograd"{
            ld{"Isikhathi sase-Volgograd sasehlobo"}
            lg{"Isikhathi sase-Volgograd"}
            ls{"Isikhathi Esimisiwe sase-Volgograd"}
        }
        "meta:Vostok"{
            ls{"Isikhathi sase-Vostok"}
        }
        "meta:Wake"{
            ls{"Isikhathi sase-Wake Island"}
        }
        "meta:Wallis"{
            ls{"Isikhathi sase-Wallis nase-Futuna"}
        }
        "meta:Yakutsk"{
            ld{"Isikhathi sasehlobo e-Yakutsk"}
            lg{"Isikhathi sase-Yakutsk"}
            ls{"Isikhathi Esimisiwe sase-Yakutsk"}
        }
        "meta:Yekaterinburg"{
            ld{"Isikhathi sasehlobo e-Yekaterinburg"}
            lg{"Isikhathi sase-Yekaterinburg"}
            ls{"Isikhathi Esimisiwe sase-Yekaterinburg"}
        }
        fallbackFormat{"{1} ({0})"}
        gmtFormat{"GMT{0}"}
        gmtZeroFormat{"GMT"}
        hourFormat{"+HH:mm;-HH:mm"}
        regionFormat{"Isikhathi sase-{0}"}
        regionFormatDaylight{"{0} Isikhathi sasemini"}
        regionFormatStandard{"{0} isikhathi esivamile"}
    }
}
